dse_policy_manpower_1 = {
	monarch_power = MIL

	potential = {
		has_idea_group = wehrpflicht0
		has_idea_group = exploration_ideas
		
	}
	
	allow = {
		full_idea_group = wehrpflicht0
		full_idea_group = exploration_ideas
		NOT = {
			calc_true_if = {
				amount = 2
				has_active_policy = dse_policy_manpower_1
                has_active_policy = dse_policy_manpower_2
                has_active_policy = dse_policy_manpower_3
                has_active_policy = dse_policy_manpower_4
                has_active_policy = dse_policy_manpower_5
                has_active_policy = dse_policy_manpower_6
                has_active_policy = dse_policy_manpower_7
                has_active_policy = dse_policy_manpower_8
                has_active_policy = dse_policy_manpower_9
                has_active_policy = dse_policy_manpower_10
                has_active_policy = dse_policy_manpower_11
                has_active_policy = dse_policy_manpower_12
				has_active_policy = mage_culture

				
			}
		}
	}
		
	global_manpower_modifier = 0.15
	
	ai_will_do = {
		factor = 5
	}
	
}

dse_policy_manpower_2 = {
	monarch_power = MIL

	potential = {
		has_idea_group = wehrpflicht0
		has_idea_group = entwicklung0
	}
	
	allow = {
		full_idea_group = wehrpflicht0
		full_idea_group = entwicklung0
		NOT = {
			calc_true_if = {
				amount = 2
				has_active_policy = dse_policy_manpower_1
                has_active_policy = dse_policy_manpower_2
                has_active_policy = dse_policy_manpower_3
                has_active_policy = dse_policy_manpower_4
                has_active_policy = dse_policy_manpower_5
                has_active_policy = dse_policy_manpower_6
                has_active_policy = dse_policy_manpower_7
                has_active_policy = dse_policy_manpower_8
                has_active_policy = dse_policy_manpower_9
                has_active_policy = dse_policy_manpower_10
                has_active_policy = dse_policy_manpower_11
                has_active_policy = dse_policy_manpower_12
				has_active_policy = mage_culture

				
			}
		}
	}
		
	global_manpower_modifier = 0.15
	
	ai_will_do = {
		factor = 5
	}
	
}

dse_policy_manpower_3 = {
	monarch_power = MIL

	potential = {
		has_idea_group = wehrpflicht0
		has_idea_group = gesundheit0
		
	}
	
	allow = {
		full_idea_group = wehrpflicht0
		full_idea_group = gesundheit0
		NOT = {
			calc_true_if = {
				amount = 2
				has_active_policy = dse_policy_manpower_1
                has_active_policy = dse_policy_manpower_2
                has_active_policy = dse_policy_manpower_3
                has_active_policy = dse_policy_manpower_4
                has_active_policy = dse_policy_manpower_5
                has_active_policy = dse_policy_manpower_6
                has_active_policy = dse_policy_manpower_7
                has_active_policy = dse_policy_manpower_8
                has_active_policy = dse_policy_manpower_9
                has_active_policy = dse_policy_manpower_10
                has_active_policy = dse_policy_manpower_11
                has_active_policy = dse_policy_manpower_12
				has_active_policy = mage_culture

				
			}
		}
	}
		
	global_manpower_modifier = 0.15
	
	ai_will_do = {
		factor = 5
	}
	
}

dse_policy_manpower_4 = {
	monarch_power = MIL

	potential = {
		has_idea_group = stehendesheer0
		has_idea_group = gesellschaft0
		
	}
	
	allow = {
		full_idea_group = stehendesheer0
		full_idea_group = gesellschaft0
		NOT = {
			calc_true_if = {
				amount = 2
				has_active_policy = dse_policy_manpower_1
                has_active_policy = dse_policy_manpower_2
                has_active_policy = dse_policy_manpower_3
                has_active_policy = dse_policy_manpower_4
                has_active_policy = dse_policy_manpower_5
                has_active_policy = dse_policy_manpower_6
                has_active_policy = dse_policy_manpower_7
                has_active_policy = dse_policy_manpower_8
                has_active_policy = dse_policy_manpower_9
                has_active_policy = dse_policy_manpower_10
                has_active_policy = dse_policy_manpower_11
                has_active_policy = dse_policy_manpower_12
				has_active_policy = mage_culture

				
			}
		}
	}
		
	global_manpower_modifier = 0.15
	
	ai_will_do = {
		factor = 5
	}
	
}

dse_policy_manpower_5 = {
	monarch_power = MIL

	potential = {
		has_idea_group = stehendesheer0
		has_idea_group = state_affairs_idea_groups_expanded
		
	}
	
	allow = {
		full_idea_group = stehendesheer0
		full_idea_group = state_affairs_idea_groups_expanded
		
		NOT = {
			calc_true_if = {
				amount = 2
				has_active_policy = dse_policy_manpower_1
                has_active_policy = dse_policy_manpower_2
                has_active_policy = dse_policy_manpower_3
                has_active_policy = dse_policy_manpower_4
                has_active_policy = dse_policy_manpower_5
                has_active_policy = dse_policy_manpower_6
                has_active_policy = dse_policy_manpower_7
                has_active_policy = dse_policy_manpower_8
                has_active_policy = dse_policy_manpower_9
                has_active_policy = dse_policy_manpower_10
                has_active_policy = dse_policy_manpower_11
                has_active_policy = dse_policy_manpower_12
				has_active_policy = mage_culture

				
			}
		}
	}
		
	global_manpower_modifier = 0.15
	
	ai_will_do = {
		factor = 5
	}
	
}

dse_policy_manpower_6 = {
	monarch_power = MIL

	potential = {
		has_idea_group = stehendesheer0
		has_idea_group = expansion_ideas
		
	}
	
	allow = {
		full_idea_group = stehendesheer0
		full_idea_group = expansion_ideas
		NOT = {
			calc_true_if = {
				amount = 2
				has_active_policy = dse_policy_manpower_1
                has_active_policy = dse_policy_manpower_2
                has_active_policy = dse_policy_manpower_3
                has_active_policy = dse_policy_manpower_4
                has_active_policy = dse_policy_manpower_5
                has_active_policy = dse_policy_manpower_6
                has_active_policy = dse_policy_manpower_7
                has_active_policy = dse_policy_manpower_8
                has_active_policy = dse_policy_manpower_9
                has_active_policy = dse_policy_manpower_10
                has_active_policy = dse_policy_manpower_11
                has_active_policy = dse_policy_manpower_12
				has_active_policy = mage_culture

				
			}
		}
	}
		
	global_manpower_modifier = 0.15
	
	ai_will_do = {
		factor = 5
	}
	
}

dse_policy_manpower_7 = {
	monarch_power = MIL

	potential = {
		has_idea_group = fire0
		has_idea_group = dynasty0
		
	}
	
	allow = {
		full_idea_group = fire0
		full_idea_group = dynasty0
		NOT = {
			calc_true_if = {
				amount = 2
				has_active_policy = dse_policy_manpower_1
                has_active_policy = dse_policy_manpower_2
                has_active_policy = dse_policy_manpower_3
                has_active_policy = dse_policy_manpower_4
                has_active_policy = dse_policy_manpower_5
                has_active_policy = dse_policy_manpower_6
                has_active_policy = dse_policy_manpower_7
                has_active_policy = dse_policy_manpower_8
                has_active_policy = dse_policy_manpower_9
                has_active_policy = dse_policy_manpower_10
                has_active_policy = dse_policy_manpower_11
                has_active_policy = dse_policy_manpower_12
				has_active_policy = mage_culture

				
			}
		}
	}
		
	global_manpower_modifier = 0.15
	
	ai_will_do = {
		factor = 5
	}
	
}

dse_policy_manpower_8 = {
	monarch_power = MIL

	potential = {
		has_idea_group = fire0
		has_idea_group = administrative_ideas
		
	}
	
	allow = {
		full_idea_group = fire0
		full_idea_group = administrative_ideas
		NOT = {
			calc_true_if = {
				amount = 2
				has_active_policy = dse_policy_manpower_1
                has_active_policy = dse_policy_manpower_2
                has_active_policy = dse_policy_manpower_3
                has_active_policy = dse_policy_manpower_4
                has_active_policy = dse_policy_manpower_5
                has_active_policy = dse_policy_manpower_6
                has_active_policy = dse_policy_manpower_7
                has_active_policy = dse_policy_manpower_8
                has_active_policy = dse_policy_manpower_9
                has_active_policy = dse_policy_manpower_10
                has_active_policy = dse_policy_manpower_11
                has_active_policy = dse_policy_manpower_12
				has_active_policy = mage_culture

				
			}
		}
	}
		
	global_manpower_modifier = 0.15
	
	ai_will_do = {
		factor = 5
	}
	
}

dse_policy_manpower_9 = {
	monarch_power = MIL

	potential = {
		has_idea_group = fire0
		has_idea_group = innovativeness_ideas
		
	}
	
	allow = {
		full_idea_group = fire0
		full_idea_group = innovativeness_ideas
		NOT = {
			calc_true_if = {
				amount = 2
				has_active_policy = dse_policy_manpower_1
                has_active_policy = dse_policy_manpower_2
                has_active_policy = dse_policy_manpower_3
                has_active_policy = dse_policy_manpower_4
                has_active_policy = dse_policy_manpower_5
                has_active_policy = dse_policy_manpower_6
                has_active_policy = dse_policy_manpower_7
                has_active_policy = dse_policy_manpower_8
                has_active_policy = dse_policy_manpower_9
                has_active_policy = dse_policy_manpower_10
                has_active_policy = dse_policy_manpower_11
                has_active_policy = dse_policy_manpower_12
				has_active_policy = mage_culture

				
			}
		}
	}
		
	global_manpower_modifier = 0.15
	
	ai_will_do = {
		factor = 5
	}
	
}

dse_policy_manpower_10 = {
	monarch_power = MIL

	potential = {
		has_idea_group = shock0
		has_idea_group = spy_ideas
		
	}
	
	allow = {
		full_idea_group = shock0
		full_idea_group = spy_ideas
		NOT = {
			calc_true_if = {
				amount = 2
				has_active_policy = dse_policy_manpower_1
                has_active_policy = dse_policy_manpower_2
                has_active_policy = dse_policy_manpower_3
                has_active_policy = dse_policy_manpower_4
                has_active_policy = dse_policy_manpower_5
                has_active_policy = dse_policy_manpower_6
                has_active_policy = dse_policy_manpower_7
                has_active_policy = dse_policy_manpower_8
                has_active_policy = dse_policy_manpower_9
                has_active_policy = dse_policy_manpower_10
                has_active_policy = dse_policy_manpower_11
                has_active_policy = dse_policy_manpower_12
				has_active_policy = mage_culture

				
			}
		}
	}
		
	global_manpower_modifier = 0.15
	
	ai_will_do = {
		factor = 5
	}
	
}

dse_policy_manpower_11 = {
	monarch_power = MIL

	potential = {
		has_idea_group = shock0
		OR = {
			has_idea_group = religious_ideas   
			has_idea_group = katholisch0
			has_idea_group = protestant0
			has_idea_group = reformiert0
			has_idea_group = orthodox0
			has_idea_group = islam0
			has_idea_group = cathar0
			has_idea_group = shinto0
			has_idea_group = norse0
			has_idea_group = budda0
			has_idea_group = confuci0 
			has_idea_group = hindu0
			has_idea_group = tengri0
			has_idea_group = coptic0
			has_idea_group = helle0
			has_idea_group = slav0
			has_idea_group = jew0
			has_idea_group = suomi0
			has_idea_group = romuva0
			has_idea_group = animist0
			has_idea_group = feti0
			has_idea_group = zoro0
			has_idea_group = mane0
			has_idea_group = ancli0
			has_idea_group = mesoam0
			has_idea_group = inti0
			has_idea_group = tote0
			has_idea_group = nahu0
			has_idea_group = shia0
			has_idea_group = ibadi0
			has_idea_group = hussite0
			has_idea_group = alche0
		}
		
	}
	
	allow = {
		full_idea_group = shock0
		OR = {
			full_idea_group = religious_ideas   
			full_idea_group = katholisch0
			full_idea_group = protestant0
			full_idea_group = reformiert0
			full_idea_group = orthodox0
			full_idea_group = islam0
			full_idea_group = cathar0
			full_idea_group = shinto0
			full_idea_group = norse0
			full_idea_group = budda0
			full_idea_group = confuci0 
			full_idea_group = hindu0
			full_idea_group = tengri0
			full_idea_group = coptic0
			full_idea_group = helle0
			full_idea_group = slav0
			full_idea_group = jew0
			full_idea_group = suomi0
			full_idea_group = romuva0
			full_idea_group = animist0
			full_idea_group = feti0
			full_idea_group = zoro0
			full_idea_group = mane0
			full_idea_group = ancli0
			full_idea_group = mesoam0
			full_idea_group = inti0
			full_idea_group = tote0
			full_idea_group = nahu0
			full_idea_group = shia0
			full_idea_group = ibadi0
			full_idea_group = hussite0
			full_idea_group = alche0
		}
		NOT = {
			calc_true_if = {
				amount = 2
				has_active_policy = dse_policy_manpower_1
                has_active_policy = dse_policy_manpower_2
                has_active_policy = dse_policy_manpower_3
                has_active_policy = dse_policy_manpower_4
                has_active_policy = dse_policy_manpower_5
                has_active_policy = dse_policy_manpower_6
                has_active_policy = dse_policy_manpower_7
                has_active_policy = dse_policy_manpower_8
                has_active_policy = dse_policy_manpower_9
                has_active_policy = dse_policy_manpower_10
                has_active_policy = dse_policy_manpower_11
                has_active_policy = dse_policy_manpower_12
				has_active_policy = mage_culture

				
			}
		}
	}
		
	global_manpower_modifier = 0.15
	
	ai_will_do = {
		factor = 5
	}
	
}

dse_policy_manpower_12 = {
	monarch_power = MIL

	potential = {
		has_idea_group = shock0
		has_idea_group = state_affairs_idea_groups_expanded
		
	}
	
	allow = {
		full_idea_group = shock0
		full_idea_group = state_affairs_idea_groups_expanded
		NOT = {
			calc_true_if = {
				amount = 2
				has_active_policy = dse_policy_manpower_1
                has_active_policy = dse_policy_manpower_2
                has_active_policy = dse_policy_manpower_3
                has_active_policy = dse_policy_manpower_4
                has_active_policy = dse_policy_manpower_5
                has_active_policy = dse_policy_manpower_6
                has_active_policy = dse_policy_manpower_7
                has_active_policy = dse_policy_manpower_8
                has_active_policy = dse_policy_manpower_9
                has_active_policy = dse_policy_manpower_10
                has_active_policy = dse_policy_manpower_11
                has_active_policy = dse_policy_manpower_12
				has_active_policy = mage_culture

				
			}
		}
	}
		
	global_manpower_modifier = 0.15
	
	ai_will_do = {
		factor = 5
	}
	
}

