yingzhen_contract_killing_action = {
	category = covert
	
	is_visible = {
		OR = {
			was_tag = Y10
			tag = Y10
		}
		mission_completed = yingzhen_everything_permitted
    }
	
	is_allowed = {
		hidden_trigger = {
			was_tag = Y10
			mission_completed = yingzhen_everything_permitted
		}
		FROM = {
			has_spy_network_from = {
				who = ROOT
				value = 60
			}
		}
		NOT = { has_country_modifier = yingzhen_best_things_cd }
	}

    on_accept = {
		FROM = {
			save_event_target_as = yingzhen_contract_target
		}
		ROOT = {
			country_event = {
				id = yingzhen.60
			}
		}
	}
	ai_will_do = {
		always = no
	}
}

yingzhen_attempt_assassination = {
	category = covert
	
	is_visible = {
		OR = {
			was_tag = Y10
			tag = Y10
		}
		mission_completed = yingzhen_nobody_safe
    }
	
	is_allowed = {
		hidden_trigger = {
			OR = {
				was_tag = Y10
				tag = Y10
			}
			mission_completed = yingzhen_nobody_safe
		}
		FROM = {
			has_spy_network_from = {
				who = ROOT
				value = 100
			}
		}
		NOT = { has_country_modifier = yingzhen_best_things_cd }
	}

    on_accept = {
		FROM = {
			save_event_target_as = yingzhen_assassination_target
		}
		ROOT = {
			country_event = {
				id = yingzhen.61
			}
		}
	}
	ai_will_do = {
		always = no
	}
}