
#

type = infantry
unit_type = tech_east_elven

maneuver = 1
offensive_morale = 3
defensive_morale = 1
offensive_fire = 0
defensive_fire = 0
offensive_shock = 2
defensive_shock = 1

trigger = {
	NOT = {
		AND = {
			tag = F46
			ai = yes
		}
	}
}