type = infantry
unit_type = tech_orcish

maneuver = 1
offensive_morale = 4
defensive_morale = 2
offensive_fire = 0
defensive_fire = 1
offensive_shock = 6
defensive_shock = 2

trigger = {
	tag = I46
}

		
			