
adventurer_1 = {
	slot = 1
	generic = no
	ai = yes
	potential = {
		capital_scope = {
			OR = {
				region = forlorn_vale_region
				superregion = escann_superregion
			}
		}
		is_adventurer = yes
		NOT = { has_country_flag = formed_corintar_flag }
	}
	
	ADV_growing_population = {
		icon = mission_rice_field
		position = 1
		trigger = {
			total_development = 150
			adm_power = 150

			NOT = { has_reform = adventurer_reform }
			#Esthil - gets own MT after 1 month
			if = {
				limit = { tag = B54 }
				NOT = { tag = B54 }
			}
		}
		effect = {
			add_adm_power = -150
			capital_scope = {
				add_base_tax = 3
				add_base_production = 1
				add_base_manpower = 1
			}
			random_owned_province = {
				limit = {
					is_core = ROOT
					is_capital = no
				}
				add_base_tax = 2
			}
			random_owned_province = {
				limit = {
					is_core = ROOT
					is_capital = no
				}
				add_base_production = 2
			}
			random_owned_province = {
				limit = {
					is_core = ROOT
					is_capital = no
				}
				add_base_manpower = 2
			}
		}
	}
	
	ADV_jewel = {
		icon = mission_rb_weather_the_reformation
		position = 2
		trigger = {
			num_of_provinces_in_states = 8
			gems = 1

			NOT = { has_reform = adventurer_reform }
			#Esthil - gets own MT after 1 month
			if = {
				limit = { tag = B54 }
				NOT = { tag = B54 }
			}
		}
		effect = {
			add_years_of_income = -0.5
			random_owned_province = {
				limit = {
					trade_goods = gems
				}
				add_base_tax = 1
				add_base_production = 3
				add_permanent_province_modifier = {
					name = adv_gems
					duration = 18250
				}
			}
		}
	}
	
	ADV_monetary_system = {
		icon = mission_african_gold
		position = 3
		trigger = {
			num_of_provinces_in_states = 3
			gold = 1

			NOT = { has_reform = adventurer_reform }
			#Esthil - gets own MT after 1 month
			if = {
				limit = { tag = B54 }
				NOT = { tag = B54 }
			}
		}
		effect = {
			add_years_of_income = -0.5
			random_owned_province = {
				limit = {
					trade_goods = gold
				}
				add_base_tax = 3
				add_base_production = 1
				add_permanent_province_modifier = {
					name = adv_bank
					duration = 18250
				}
			}
		}
	}
	
	ADV_farm_of_country = {
		icon = mission_rb_import_potatoes
		position = 4
		trigger = {
			num_of_provinces_in_states = 5
			grain = 3

			NOT = { has_reform = adventurer_reform }
			#Esthil - gets own MT after 1 month
			if = {
				limit = { tag = B54 }
				NOT = { tag = B54 }
			}
		}
		effect = {
			add_years_of_income = -0.5
			random_owned_province = {
				limit = {
					trade_goods = grain
					NOT = { has_province_modifier = adv_grain_production }
				}
				add_base_manpower = 2
				add_base_production = 2
				add_permanent_province_modifier = {
					name = adv_grain_production
					duration = 18250
				}
			}
			random_owned_province = {
				limit = {
					trade_goods = grain
					NOT = { has_province_modifier = adv_grain_production }
				}
				add_base_manpower = 2
				add_base_production = 2
				add_permanent_province_modifier = {
					name = adv_grain_production
					duration = 18250
				}
			}
			random_owned_province = {
				limit = {
					trade_goods = grain
					NOT = { has_province_modifier = adv_grain_production }
				}
				add_base_manpower = 2
				add_base_production = 2
				add_permanent_province_modifier = {
					name = adv_grain_production
					duration = 18250
				}
			}
		}
	}
	
	ADV_great_forge = {
		icon = mission_asian_trader
		position = 5
		trigger = {
			num_of_provinces_in_states = 3
			iron = 1

			NOT = { has_reform = adventurer_reform }
			#Esthil - gets own MT after 1 month
			if = {
				limit = { tag = B54 }
				NOT = { tag = B54 }
			}
		}
		effect = {
			add_years_of_income = -0.5
			random_owned_province = {
				limit = {
					trade_goods = iron
				}
				add_base_production = 3
				add_permanent_province_modifier = {
					name = adv_big_forge
					duration = 18250
				}
			}
		}
	}
}

adventurer_2 = {
	slot = 2
	generic = no
	ai = yes
	potential = {
		capital_scope = {
			OR = {
				region = forlorn_vale_region
				superregion = escann_superregion
			}
		}
		has_reform = adventurer_reform
		NOT = { has_country_flag = formed_corintar_flag }
	}
	
	ADV_node_power = {
		icon = mission_rb_conquer_bengal
		position = 2
		trigger = {
			home_trade_node = {
				trade_share = {
					country = ROOT
					share = 33
				}
			}
		}
		effect = {
			add_country_modifier = {
				name = adv_home_trade
				duration = 18250
			}
		}
	}
	
	ADV_trade_power = {
		icon = mission_rb_scottish_the_darien_scheme
		position = 2
		required_missions = {
            ADV_node_power
        }
		trigger = {
			trade_income_percentage = 0.4
		}
		effect = {
			capital_scope = {
				add_province_modifier = {
					name = adv_trade_powerhouse
					duration = 18250
				}
			}
			add_dip_power = 50
		}
	}
	
	ADV_adventurer_in_workforce = {
		icon = mission_rb_rein_in_the_highland_clans
		position = 5
		required_missions = {
            ADV_capital_region
        }
		trigger = {
			#mil_power = 150
			manpower_percentage = 0.75
		}
		effect = {
			#add_mil_power = -150
			add_country_modifier = {
				name = adv_dev
				duration = 18250
			}
		}
	}
}


adventurer_3 = {
	slot = 3
	generic = no
	ai = yes
	potential = {
		capital_scope = {
			OR = {
				region = forlorn_vale_region
				superregion = escann_superregion
			}
		}
		has_reform = adventurer_reform
		NOT = { has_country_flag = formed_corintar_flag }
	}
	ADV_forcelimit = {
		icon = mission_rb_conquer_the_highlands
		position = 1
		trigger = {
			army_size_percentage = 0.75
		}
		effect = {
			add_country_modifier = {
				name = adv_forcelimit_modifier
				duration = 7300
			}
		}
	}
	ADV_2_prov = {
		icon = mission_rb_colonise_canada
		position = 2
		required_missions = {
            ADV_forcelimit
        }
		trigger = {
			stability = 2
		}
		effect = {
			add_treasury = 100
		}
	}
	ADV_3_prov = {
		icon = mission_colonial
		position = 3
		required_missions = {
            ADV_2_prov
        }
		trigger = {
			calc_true_if = {
				escann_superregion = {
					type = all
					OR = {
						tribal_land_of = ROOT
						owned_by = ROOT
					}
				}
				forlorn_vale_region = {
					type = all
					OR = {
						tribal_land_of = ROOT
						owned_by = ROOT
					}
				}
				amount = 3
			}
		}
		effect = {
			add_country_modifier = {
				name = adv_colonist_modifier
				duration = 7300
			}
		}
	}
	ADV_capital_region = {
		icon = mission_unite_home_region
		position = 4
		provinces_to_highlight = {

		}
		required_missions = {
			ADV_3_prov
        }
		trigger = {
			calc_true_if = {
				escann_superregion = {
					type = all
					OR = {
						tribal_land_of = ROOT
						owned_by = ROOT
					}
				}
				forlorn_vale_region = {
					type = all
					OR = {
						tribal_land_of = ROOT
						owned_by = ROOT
					}
				}
				amount = 6
			}
		}
		effect = {
			add_adm_power = 50
			add_dip_power = 50
			add_mil_power = 50

			change_government_reform_progress = 10
		}
	}
	
	ADV_build_frenzy = {
		icon = mission_early_game_buildings
		position = 5
		required_missions = {
			ADV_capital_region
        }
		trigger = {
			monthly_adm = 8
		}
		effect = {
			add_country_modifier = {
				name = adv_build_modifier
				duration = 18250
			}
		}
	}
	ADV_guild_integration = {
		icon = mission_hanseatic_city
		position = 6
		required_missions = {
			ADV_build_frenzy
			ADV_one_colon
			ADV_adventurer_in_workforce
        }
		trigger = {
			years_of_income = 4
		}
		effect = {
			add_years_of_income = -4
			capital_scope = {
				add_province_modifier = {
					name = adv_guild_integrated
					duration = 18250
				}
			}
			if = {
				limit = { has_reform = adventurer_reform }
				custom_tooltip = adv_guild_integrated_tooltip
				hidden_effect = { set_country_flag = adv_guild_integrated }
			}
		}
	}
}


adventurer_4 = {
	slot = 4
	generic = no
	ai = yes
	potential = {
		capital_scope = {
			OR = {
				region = forlorn_vale_region
				superregion = escann_superregion
			}
		}
		has_reform = adventurer_reform
		NOT = { has_country_flag = formed_corintar_flag }
	}
	
	ADV_prestigious_adventurer = {
		icon = mission_protect_albania
		position = 1
		trigger = {
			prestige = 80
		}
		effect = {
			add_country_modifier = {
				name = adv_fame
				duration = 18250
			}
		}
	}
	
	ADV_war_ork = {
		icon = mission_pf_soldier
		position = 2
		required_missions = {
			ADV_forcelimit
        }
		trigger = {
			is_in_war = {
				casus_belli = cb_adventurer_take_escann
			}
		}
		effect = {
			add_country_modifier = {
				name = adv_war_ork_modifier
				duration = 18250
			}
		}
	}
	
	ADV_standing_army = {
		icon = mission_assemble_an_army
		position = 3
		required_missions = {
			ADV_war_ork
        }
		trigger = {
			army_size = 25
		}
		effect = {
			add_mil_power = 50
			add_country_modifier = {
				name = adv_standing_army
				duration = 18250
			}
		}
	}
	
	ADV_one_colon = {
		icon = mission_expel_the_moriscos
		position = 5
		required_missions = {
			ADV_capital_region
        }
		trigger = {
			treasury = 200
		}
		effect = {
			add_treasury = -200
			add_country_modifier = {
				name = adv_colon_modifier
				duration = 18250
			}
		}
	}
}

adventurer_5 = {
	slot = 5
	generic = no
	ai = yes
	potential = {
		capital_scope = {
			OR = {
				region = forlorn_vale_region
				superregion = escann_superregion
			}
		}
		has_reform = adventurer_reform
		NOT = { has_country_flag = formed_corintar_flag }
	}
	ADV_ally = {
		icon = mission_rb_control_the_hansa
		position = 2
		trigger = {
			any_ally = {
				has_reform = adventurer_reform
				
				has_opinion = {
					who = ROOT
					value = 200
				}
			}
		}
		effect = {
			add_dip_power = 50
		}
	}
	
	ADV_ally_cooperation = {
		icon = mission_unite_the_princes
		position = 3
		required_missions = {
			ADV_ally
        }
		trigger = {
			OR = {
				federation_size = 3
				num_of_allies = 2
			}
		}
		effect = {
			change_government_reform_progress = 5
			add_adm_power = 50
		}
	}
	
	ADV_organize_capital = {
		icon = mission_develop_alhambra
		position = 4
		required_missions = {
			ADV_ally_cooperation
        }
		trigger = {
			dip_power = 150
			NOT = { has_reform = adventurer_reform }
			#Esthil - gets own MT after 1 month
			if = {
				limit = { tag = B54 }
				NOT = { tag = B54 }
			}
		}
		effect = {
			add_dip_power = -150
			capital_scope = {
				add_base_production = 2
				add_base_tax = 2
				add_base_manpower = 2
				add_province_modifier = {
					name = adv_administration
					duration = 18250
				}
				random_neighbor_province = {
					limit = { owned_by = ROOT }
					add_base_production = 1
					add_base_tax = 1
					add_base_manpower = 1
				}
			}
			if = {
				limit = {
					capital_scope = {
						NOT = {
							trade_goods = gold
							trade_goods = gems
							trade_goods = mithril
							trade_goods = damestear
						}
					}
				}
				hidden_effect = { country_event = { id = adventurer.3 } }
				tooltip = {
					random_list = {
						40 = {
							capital_scope = { change_trade_goods = cloth }
						}
						30 = {
							capital_scope = { change_trade_goods = glass }
						}
						30 = {
							capital_scope = { change_trade_goods = paper }
						}
					}
				}
			}
		}
	}
	
}