arawkelin_1 = {
	slot = 1
	generic = no
	ai = yes
	potential = {
		tag = Y65
	}
	has_country_shield = yes
	
	Y65_prepare_the_fleet = {
		icon = mission_junk_boat
		required_missions = { }
		position = 1
		
		trigger = {
			num_of_light_ship = 10
			num_of_heavy_ship = 5
		}
		
		effect = {
			ringlet_isles_region = {
				limit = {
					owned_by = Y64
					is_city = yes
				}
				add_permanent_claim = ROOT
			}
			4962 = {
				add_permanent_claim = ROOT
			}
			harumbasai_area = {
				add_permanent_claim = ROOT
			}
		}
	}
	
	Y65_dread_queen_no_more = {
		icon = mission_combat_barbary_piracy
		required_missions = {
			Y65_prepare_the_fleet
		}
		position = 2
		
		provinces_to_highlight = {
			OR = {
				AND = {
					region = ringlet_isles_region
					owned_by = Y64
				}
			}
		}
		
		trigger = {
			ringlet_isles_region = {
				type = all
				OR = {
					AND = {
						is_core = Y64
						owned_by = ROOT
					}
					NOT = { is_core = Y64 }
				}
			}
		}
		
		effect = {
			amkamsek_area = {
				add_permanent_claim = ROOT
			}
			hoangdesinh_area = {
				add_permanent_claim = ROOT
			}
		}
	}
	
	Y65_finish_the_pirates = {
		icon = Burn_Wooden_Wall
		required_missions = {
			Y65_dread_queen_no_more
		}
		position = 3
		
		provinces_to_highlight = {
			OR = {
				area = amkamsek_area
				area = hoangdesinh_area
			}
			NOT = {
				owned_by = ROOT
			}
		}
		
		trigger = {
			Y64 = {
				exists = no
			}
			amkamsek_area = {
				type = all
				owned_by = ROOT
			}
			hoangdesinh_area = {
				type = all
				owned_by = ROOT
			}
		}
		
		effect = {
			add_prestige = 10
			add_splendor = 200
			4570 = {
				add_permanent_claim = ROOT
			}
			country_event = {
				id = flavor_arawkelin.1  #"Delivering the Dread Queen"
			}
		}
	}
	
	Y65_yan_kelino = {
		icon = mission_religious
		required_missions = {
			Y65_finish_the_pirates
		}
		position = 4
		
		trigger = {
			num_of_owned_provinces_with = {
				value = 3
				culture = forest_yan
				has_owner_religion = yes
			}
			adm_power = 200
		}
		
		effect = {
			ringlet_isles_region = {
				limit = {
					culture = forest_yan
					owned_by = ROOT
				}
				add_culture_construction = {
					speed = 1.0
					cost = 1.0
				}
			}
		}
	}
	
	Y65_expand_yan_contacts = {
		icon = personal_diplomacy
		required_missions = {
			Y65_yan_kelino
		}
		position = 5
		
		trigger = {
			any_known_country = {
				NOT = {
					tag = ROOT
				}
				capital_scope = {
					region = lower_yanshen_region
				}
				religion = high_philosophy
				has_opinion = {
					who = ROOT
					value = 150
				}
				alliance_with = ROOT
			}
		}
		
		effect = {
			4837 = {
				add_permanent_claim = ROOT
				add_trade_modifier = {
					who = ROOT
					duration = 7300
					power = 10
					key = STRONG_MERCHANTS
				}
			}
		}
	}
	
	Y65_yan_outpost = {
		icon = mission_dharma_mission_arabian_trade
		required_missions = {
			Y65_expand_yan_contacts
		}
		position = 6
		
		trigger = {
			any_known_country = {
				is_in_trade_league_with = ROOT
				owns = 4837
				has_reform = trading_city
			}
		}
		
		effect = {
			1371 = {
				add_trade_modifier = {
					who = ROOT
					duration = -1
					power = 20
					key = STRONG_MERCHANTS
				}
			}
		}
	}
	
	Y65_control_the_eastern_shipping_lanes = {
		icon = mission_the_triangle_trade
		required_missions = {
			Y65_yan_outpost
		}
		position = 7
		
		trigger = {
			1371 = {
				all_trade_node_member_province = {
					NOT = {	
						owned_by = ROOT
					}
				}
			}
			1371 = {
				trade_share = {
					country = ROOT
					share = 65
				}
			}
		}
		
		effect = {
			add_country_modifier = {
				name = arawkelin_control_shipping_lanes
				duration = 7300
			}
		}
	}
	
	Y65_our_northern_brothers_in_faith = {
		icon = mission_friends_or_enemies
		required_missions = {
			Y65_control_the_eastern_shipping_lanes
		}
		position = 8
		
		trigger = {
			Y20 = {
				alliance_with = ROOT
				has_opinion = {
					who = ROOT
					value = 200
				}
			}
		}
		
		effect = {
			add_trust = {
				who = Y20
				value = 20
				mutual = yes
			}
			add_favors = {
				who = Y20
				amount = 20
			}
		}
	}
	
	Y65_welcome_their_wares = {
		icon = mission_wine_monopolies
		required_missions = {
			Y65_welcome_their_traders
		}
		position = 9
		
		trigger = {
			any_known_country = {
				OR = {
					tag = A01
					tag = A16
					has_reform = wine_lord_reform
				}
				has_opinion = {
					who = ROOT
					value = 150
				}
			}
		}
		
		effect = {
			4722 = {
				change_trade_goods = wine
				add_province_modifier = {
					name = arawkelin_cannorian_plantations
					duration = -1
				}
			}
		}
	}
	
	Y65_welcome_their_veterans = {
		icon = mission_landsknecht_soldier
		required_missions = {
			Y65_welcome_their_officers
		}
		position = 10
		
		trigger = {
			treasury = 500
			mil_power = 200
			custom_trigger_tooltip = {
				tooltip = arawkelin_welcome_their_veterans_tt
				any_known_country = {
					has_opinion = {
						who = ROOT
						value = 150
					}
					technology_group = tech_cannorian
					mil_tech = ROOT
					ROOT = {
						NOT = {
							mil_tech = PREV
						}
					}
				}
			}
		}
		
		effect = {
			set_country_flag = arawkelin_cannorian_veterans
			custom_tooltip = cannorian_veterans_reward_tt
			custom_tooltip = merc_elite_no_army_prof_tt
		}
	}
}
arawkelin_2 = {
	slot = 2
	generic = no
	ai = yes
	potential = {
		tag = Y65
	}
	has_country_shield = yes
	
	Y65_aksa_pusoayan = {
		icon = mission_recover_konkan_ports
		required_missions = {
			Y65_dread_queen_no_more
		}
		position = 3
		
		trigger = {
			6153 = {
				development = 15
				OR = {
					has_building = marketplace
					has_building = trade_depot
				}
				fort_level = 2
			}
		}
		
		effect = {
			6153 = {
				add_province_modifier = {
					name = arawkelin_citadel_of_the_heart_bay
					duration = -1
				}
				change_province_name = "Heart Bay"
			}
		}
	}
	
	Y65_expand_the_fleets = {
		icon = mission_aragonese_navy
		required_missions = {
			Y65_aksa_pusoayan
		}
		position = 4
		
		trigger = {
			num_of_light_ship = 40
		}
		
		effect = {
			add_country_modifier = {
				name = arawkelin_middlemen_of_haless
				duration = 7300
			}
		}
	}
	
	Y65_modernize_aksa_sanuyego = {
		icon = mission_secure_hajj_ports
		required_missions = {
		
		}
		position = 5
		
		provinces_to_highlight = {
			OR = {
				province_id = 4716
			}
		}
		
		trigger = {
			4716 = {
				OR = {
					has_great_project = {
						type = aksa_sanuyego
						tier = 2
					}
					has_great_project = {
						type = aksa_sanuyego
						tier = 3
					}
				}
				OR = {
					has_building = coastal_defence
					has_building = naval_battery
				}
				fort_level = 2
			}
		}
		
		effect = {
			4716 = {
				add_base_tax = 1
				add_base_production = 1
				add_base_manpower = 1
				add_province_modifier = {
					name = arawkelin_expand_aksa_sanuyego
					duration = 18250
				}
			}
		}
	}
	
	Y65_more_than_just_a_fort = {
		icon = the_great_school
		required_missions = {
			Y65_modernize_aksa_sanuyego
		}
		position = 6
		
		provinces_to_highlight = {
			OR = {
				province_id = 4716
			}
		}
		
		trigger = {
			4716 = {
				OR = {
					has_building = temple
					has_building = cathedral
				}
				OR = {
					has_building = workshop
					has_building = counting_house
				}
				OR = {
					has_building = courthouse
					has_building = town_hall
				}
				development = 25
			}
		}
		
		effect = {
			4716 = {
				if = {
					limit = {
						has_half_elven_minority_trigger = yes
					}
					small_increase_of_half_elven_tolerance_effect = yes
					small_increase_of_elven_tolerance_effect = yes
				}
				else = {
					add_half_elven_minority_size_effect = yes
					small_increase_of_elven_tolerance_effect = yes
				}
				add_base_tax = 1
				add_base_production = 1
				add_base_manpower = 1
			}
		}
	}
	
	Y65_western_arrivals = {
		icon = friends_in_high_places
		required_missions = {
			Y65_integrate_the_expedition
		}
		position = 7
		
		trigger = {
			any_known_country = {
				OR = {
					technology_group = tech_cannorian
					technology_group = tech_gnomish
				}
			}
		}
		
		effect = {
			add_increase_same_religion_opinion = yes
		}
	}
	
	Y65_welcome_their_traders = {
		icon = purely_for_commerce
		required_missions = {
			Y65_western_arrivals
		}
		position = 8
		
		trigger = {
			1366 = {
				trade_share = {
					country = ROOT
					share = 80
				}
			}
			any_known_country = {
				OR = {
					technology_group = tech_cannorian
					technology_group = tech_gnomish
				}
				has_opinion = {
					who = ROOT
					value = 100
				}
			}
		}
		
		effect = {
			1366 = {
				add_trade_modifier = {
					who = ROOT
					duration = 7300
					power = -20
					key = merchant_recalled
				}
			}
			add_years_of_income	= 1.0
			add_country_modifier = {
				name = arawkelin_cannorian_influence
				duration = 7300
			}
			hidden_effect = {
				country_event = {
					id = flavor_arawkelin.2
					days = 7300
				}
			}
		}
	}
	
	Y65_welcome_their_officers = {
		icon = a_show_of_strength
		required_missions = {
			Y65_welcome_their_traders
		}
		position = 9
		
		trigger = {
			treasury = 200
			custom_trigger_tooltip = {
				tooltip = arawkelin_welcome_their_veterans_tt
				any_known_country = {
					has_opinion = {
						who = ROOT
						value = 150
					}
					technology_group = tech_cannorian
					mil_tech = ROOT
					ROOT = {
						NOT = {
							mil_tech = PREV
						}
					}
				}
			}
		}
		
		effect = {
			add_treasury = -200
			add_country_modifier = {
				name = arawkelin_cannorian_officers
				duration = 9125
			}
		}
	}
	
	Y65_modernized_army = {
		icon = establish_a_standing_army
		required_missions = {
			Y65_welcome_their_officers
			Y65_welcome_their_missionaries
		}
		position = 10
		
		trigger = {
			army_professionalism = 0.5
			custom_trigger_tooltip = {
				tooltip = arawkelin_modernized_army_tt
				all_known_country = {
					OR = {
						NOT = { mil_tech = ROOT }
						capital_scope = {
							NOT = { superregion = south_haless_superregion }
							NOT = { superregion = yanshen_superregion }
							NOT = { superregion = rahen_superregion }
							NOT = { superregion = north_haless_superregion }
						}
					}
				}
			}
		}
		
		effect = {
			add_country_modifier = {
				name = arawkelin_modernized_army
				duration = -1
			}
		}
	}
}
arawkelin_3 = {
	slot = 3
	generic = no
	ai = yes
	potential = {
		tag = Y65
	}
	has_country_shield = yes
	
	Y65_drill_the_troops = {
		icon = mission_assemble_an_army
		required_missions = {

		}
		position = 1
		
		trigger = {
			army_size_percentage = 0.9
			num_of_generals = 1
		}
		
		effect = {
			if = {
				limit = {
					Y69 = {
						exists = yes
					}
				}
				add_casus_belli = {
					target = Y69
					type = cb_vassalize_mission
					months = 120
				}
			}
			else = {
				
			}
			mesatulek_area = {
				add_permanent_claim = Y69
			}
		}
	}
	
	Y65_reign_in_the_expedition = {
		icon = mission_have_two_subjects
		required_missions = {
			Y65_drill_the_troops
		}
		position = 2
		
		trigger = {
			Y69 = {
				is_subject_of = ROOT
			}
		}
		
		effect = {
			create_march = Y69
			Y69 = {
				add_country_modifier = {
					name = arawkelin_sponsored_expedition
					duration = -1
				}
			}
		}
	}
	
	Y65_expand_into_the_interior = {
		icon = mission_conquer_andhra_vij
		required_missions = {
			Y65_reign_in_the_expedition
		}
		position = 3
		
		trigger = {
			Y69 = {
				num_of_owned_provinces_with = {
					value = 8
					region = lupulan_rainforest_region
				}
			}
		}
		
		effect = {
			Y69 = {
				add_country_modifier = {
					name = arawkelin_zealous_missionaries
					duration = -1
				}
			}
			lupulan_rainforest_region = {
				limit = {
					owned_by = Y72
				}
				add_permanent_claim = Y69
			}
		}
	}
	
	Y65_root_out_the_mystic_accord = {
		icon = mission_rb_control_state_religion
		required_missions = {
			Y65_expand_into_the_interior
		}
		position = 5
		
		trigger = {
			num_of_provinces_owned_or_owned_by_non_sovereign_subjects_with = {
				value = 30
				region = lupulan_rainforest_region
				NOT = {
					religion = righteous_path
					religion = mystic_accord
				}
			}
		}
		
		effect = {
			if = {
				limit = { Y69 = { march_of = ROOT } }
				custom_tooltip = Y65_root_out_the_mystic_accord_tt
			}
			add_dip_power = 200
			hidden_effect = {
				if = {
					limit = { Y69 = { march_of = ROOT } }
					vassalize = Y69
				}
			}
		}

	}
	
	Y65_integrate_the_expedition = {
		icon = mission_rb_monopolize_the_channel
		required_missions = {
			Y65_root_out_the_mystic_accord
		}
		position = 6
		
		trigger = {
			Y69 = {
				exists = no
			}
			num_of_provinces_owned_or_owned_by_non_sovereign_subjects_with = {
				value = 40
				region = lupulan_rainforest_region
				NOT = {
					religion = righteous_path
					religion = mystic_accord
				}
			}
		}
		
		effect = {
			add_country_modifier = {
				name = arawkelin_integrate_the_expedition
				duration = 7300
			}
			remove_country_modifier = arawkelin_no_conversion
		}
	}
	
	Y65_kelino_syncretism = {
		icon = mission_reliable_allies
		required_missions = {
			Y65_integrate_the_expedition
		}
		position = 7
		
		trigger = {
			lupulan_rainforest_region = {
				type = all
				owned_by = ROOT
				culture = kelino
			}
		}
		
		effect = {
			add_country_modifier = {
				name = arawkelin_cultural_syncretism
				duration = -1
			}
		}
	}
	
	Y65_first_halessi_gnomes = {
		icon = mission_science
		required_missions = {
			Y65_western_arrivals
		}
		position = 8
		
		trigger = {
			
		}
		
		effect = {
			mission_reward_artifice_points_5 = yes
		}
	}
	
	Y65_welcome_their_missionaries = {
		icon = sway_the_pope
		required_missions = {
			Y65_welcome_their_traders
		}
		position = 9
		
		trigger = {
			religion = ravelian
		}
		
		effect = {
			add_country_modifier = {
				name = arawkelin_ravelian_rifle_missionaries
				duration = -1
			}
		}
	}
	
	Y65_convert_the_countryside = {
		icon = mission_hands_praying
		required_missions = {
			Y65_welcome_their_missionaries
		}
		position = 10
		
		trigger = {
			num_of_owned_provinces_with = {
				value = 10
				region = lupulan_rainforest_region
				religion = ravelian
			}
		}
		
		effect = {
			add_adm_power = 100
			add_dip_power = 100
			add_mil_power = 100
		}
	}
	
	Y65_a_bright_new_age = {
		icon = mission_steer_trade_to_bengal
		required_missions = {
			Y65_modernized_army
			Y65_convert_the_countryside
			Y65_modernized_navy
		}
		position = 11
		
		trigger = {
			power_projection = 50
			1366 = {
				is_strongest_trade_power = ROOT
			}
			1361 = {
				is_strongest_trade_power = ROOT
			}
			1371 = {
				is_strongest_trade_power = ROOT
			}
			lupulan_rainforest_region = {
				type = all
				culture = kelino
				religion = ravelian
			}
		}
		
		effect = {
			add_splendor = 500
			add_country_modifier = {
				name = arawkelin_a_bright_new_age
				duration = -1
			}
		}
	}
}

arawkelin_4_blank = {
	slot = 4
	generic = no
	ai = yes
	potential = {
		tag = Y65
	}
	has_country_shield = yes
}
arawkelin_4 = {
	slot = 4
	generic = no
	ai = yes
	potential = {
		tag = Y65
	}
	has_country_shield = yes
	
	#Y65_spirittide_mission_1 = {
	#	icon = mission_have_manufactories
	#	required_missions = {
	#		Y65_countryside_conversions
	#	}
	#	position = 3
	#	
	#	trigger = {
	#
	#	}
	#	
	#	effect = {
	#
	#	}
	#}
	#
	#Y65_cspirittide_mission_2 = {
	#	icon = mission_have_manufactories
	#	required_missions = {
	#		Y65_welcome_their_missionaries
	#	}
	#	position = 4
	#	
	#	trigger = {
    #
	#	}
	#	
	#	effect = {
	#
	#	}
	#}
	
	Y65_a_stable_source_of_food= {
		icon = mission_a_million_rice_fields
		required_missions = {
			Y65_integrate_the_expedition
		}
		position = 7
		
		trigger = {
			num_of_owned_provinces_with = {
				value = 7
				OR = {
					has_building = workshop
					has_building = counting_house
				}
				OR = {
					trade_goods = grain
					trade_goods = livestock
				}
				NOT = {
					province_id = 4963
				}
			}
		}
		
		effect = {
			4963 = {
				change_trade_goods = paper
				add_base_tax = 1
				add_base_production = 1
				add_base_manpower = 1
				add_building_construction = {
					building = mills
					speed = 0.5
					cost = 0.5
				}
			}
		}
	}
	
	Y65_new_cities_of_the_lupulan = {
		icon = public_works
		required_missions = {
			Y65_a_stable_source_of_food
		}
		position = 8
		
		trigger = {
			num_of_owned_provinces_with = {
				value = 3
				development = 20
				OR = {
					has_building = workshop
					has_building = counting_house
				}
				OR = {
					has_building = temple
					has_building = cathedral
				}
				has_building = barracks
			}
		}
		
		effect = {
			every_owned_province = {
				limit = {
					development = 20
					OR = {
						has_building = workshop
						has_building = counting_house
					}
					OR = {
						has_building = temple
						has_building = cathedral
					}
					has_building = barracks
				}
				add_base_tax = 1
				add_base_production = 1
				add_base_manpower = 1
				random_list = {
					20 = {
						change_trade_goods = gems
					}
					20 = {
						change_trade_goods = paper
					}
					20 = {
						change_trade_goods = glass
					}
					20 = {
						change_trade_goods = silk
					}
					20 = {
						change_trade_goods = incense
					}
				}
				add_province_modifier = {
					name = arawkelin_burgeoning_city
					duration = -1
				}
			}
		}
	}
	
	Y65_teak_furniture = {
		icon = saxon_manufacturing
		required_missions = {
			Y65_new_cities_of_the_lupulan
		}
		position = 9
		
		trigger = {
			num_of_owned_provinces_with = {
				value = 3
				base_production = 5
				trade_goods = tropical_wood
				OR = {
					has_building = workshop
					has_building = counting_house
				}
				has_manufactory_trigger = yes
			}
		}
		
		effect = {
			every_owned_province = {
				limit = {
					base_production = 5
					trade_goods = tropical_wood
					OR = {
						has_building = workshop
						has_building = counting_house
					}
					has_manufactory_trigger = yes
				}
				add_base_tax = 1
				add_base_production = 1
				add_base_manpower = 1
				add_permanent_province_modifier = {
					name = arawkelin_furniture_manufactories
					duration = -1
				}
			}
		}
	}
	
	Y65_modernized_navy = {
		icon = mission_spanish_armada
		required_missions = {
			Y65_welcome_their_missionaries
		}
		position = 10
		
		trigger = {
			all_known_country = {
				OR = {
					NOT = {
						naval_forcelimit = 1
					}
					NOT = {
						naval_strength = {
							who = ROOT
							value = 1.0
						}
					}
				}
			}
		}
		
		effect = {
			add_country_modifier = {
				name = arawkelin_modernized_navy
				duration = -1
			}
		}
	}
	
	Y65_monopolized_shipping_lanes = {
		icon = mission_african_gold
		required_missions = {
			Y65_modernized_navy
		}
		
		trigger = {
			has_global_modifier_value = {
				which = global_ship_trade_power
				value = 1.2
			}
		}
		
		effect = {
			add_country_modifier = {
				name = arawkelin_monopolized_shipping_lanes
				duration = -1
			}
		}
	}
	
}
arawkelin_5 = {
	slot = 5
	generic = no
	ai = yes
	potential = {
		tag = Y65
	}
	has_country_shield = yes
	
	Y65_begin_deforestation = {
		icon = mission_jungle_pilgrim
		required_missions = {
			
		}
		position = 1
		
		trigger = {
			num_of_owned_provinces_with = {
				value = 3
				has_terrain = jungle
				region = lupulan_rainforest_region
				OR = {
					has_building = workshop
					has_building = counting_house
				}
			}
			has_estate_privilege = estate_burghers_tropical_nation
		}
		
		effect = {
			country_event = {
				id = flavor_arawkelin.9  #"Begin deforestation"
			}
		}
	}
	
	Y65_countryside_conversions = {
		icon = mission_che_the_cave_country
		required_missions = {
			Y65_begin_deforestation
		}
		position = 2
		
		trigger = {
			adm_power = 100
			dip_power = 100
			mil_power = 100
		}
		
		effect = {
			agluwadai_area = {
				add_province_modifier = {
					name = arawkelin_countryside_conversion
					duration = 9125
				}
			}
			lembiahar_area = {
				add_province_modifier = {
					name = arawkelin_countryside_conversion
					duration = 9125
				}
			}
		}
	}
	
	Y65_conquer_kuta = {
		icon = mission_portuguese_malacca
		required_missions = {
			Y65_countryside_conversions
		}
		position = 3
		
		trigger = {
			mesatulek_area = {
				type = all
				country_or_subject_holds = ROOT
			}
		}
		
		effect = {
			4774 = {
				add_center_of_trade_level = -1
			}
			4716 = {
				center_of_trade = 2
			}
			lupulan_rainforest_region = {
				limit = {
					owned_by = Y72
				}
				add_permanent_claim = ROOT
			}
		}
	}
	
	Y65_oust_the_binhrung = {
		icon = mission_cromandel_coast
		required_missions = {
			Y65_conquer_kuta
		}
		position = 4
		
		trigger = {
			lupulan_rainforest_region = {
				type = all
				NOT = {
					owned_by = Y72
				}
			}
		}
		
		effect = {
			add_power_projection = {
				type = mission_rewards_power_projection
				amount = 10
			}
			add_splendor = 100
			4955 = {
				add_permanent_claim = ROOT
			}
		}
	}
	
	Y65_our_link_east = {
		icon = mission_city_prosperity
		required_missions = {
			Y65_oust_the_binhrung
		}
		position = 5
		
		trigger = {
			any_known_country = {
				is_in_trade_league_with = ROOT
				owns = 4955
				has_reform = trading_city
			}
		}
		
		effect = {
			4570 = {
				add_permanent_claim = ROOT
			}
		}
	}
	
	Y65_our_link_west = {
		icon = mission_city_of_victory_vij
		required_missions = {
			Y65_our_link_east
		}
		position = 6
		
		trigger = {
			any_known_country = {
				is_in_trade_league_with = ROOT
				owns = 4570
				has_reform = trading_city
			}
		}
		
		effect = {
			1361 = {
				add_trade_modifier = {
					who = ROOT
					duration = 7300
					power = 10
					key = STRONG_MERCHANTS
				}
			}
		}
	}
	
	Y65_control_the_western_shipping_lanes = {
		icon = mission_grand_bengali_shipyards
		required_missions = {
			Y65_our_link_west
		}
		position = 7
		
		trigger = {
			1361 = {
				all_trade_node_member_province = {
					OR = {
						NOT = {	
							owned_by = ROOT
						}
						is_island = yes
					}
				}
			}
			1361 = {
				trade_share = {
					country = ROOT
					share = 65
				}
			}
		}
		
		effect = {
			add_country_modifier = {
				name = arawkelin_control_shipping_lanes
				duration = 7300
			}
		}
	}
	
	Y65_sarhal_stuff_1 = {
		icon = mission_west_african_ports
		required_missions = {
			Y65_control_the_western_shipping_lanes
		}
		position = 8
		
		trigger = {
	
		}
		
		effect = {
	
		}
	}
	
	#Y65_sarhal_stuff_2 = {
	#	icon = mission_have_manufactories
	#	required_missions = {
	#		Y65_sarhal_stuff_1
	#	}
	#	position = 9
	#	
	#	trigger = {
	#
	#	}
	#	
	#	effect = {
	#
	#	}
	#}
	#
	#Y65_sarhal_stuff_3 = {
	#	icon = mission_have_manufactories
	#	required_missions = {
	#		Y65_sarhal_stuff_2
	#	}
	#	position = 10
	#	
	#	trigger = {
	#
	#	}
	#	
	#	effect = {
	#
	#	}
	#}
}
