R51_missions_1 = {
	slot = 1
	generic = no
	ai = yes
	potential = {
		tag = R51
	}
	has_country_shield = yes
	
	R51_subdue_the_south = {
		icon = mission_end_arakan_piracy
 		position = 3
 		required_missions = { }
		
		provinces_to_highlight = {
			OR = {
				AND = {
					OR = {
						province_id = 4367
						province_id = 4380
					}
					NOT = { owned_by = ROOT }
				}
				AND = {
					OR = {
						area = avhavubhiya_area
						area = sarkhashabid_area
						province_id = 4369
						province_id = 4372
						province_id = 2913
					}
					NOT = { country_or_non_sovereign_subject_holds = ROOT }
				}
			}
		}
		
		trigger = {
			4367 = { owned_by = ROOT }
			4380 = { owned_by = ROOT }
			avhavubhiya_area = {
				type = all
				country_or_non_sovereign_subject_holds = ROOT
			}
			sarkhashabid_area = {
				type = all
				country_or_non_sovereign_subject_holds = ROOT
			}
			4369 = { country_or_non_sovereign_subject_holds = ROOT }
			4372 = { country_or_non_sovereign_subject_holds = ROOT }
			2913 = { country_or_non_sovereign_subject_holds = ROOT }
		}
		
		effect = {
			add_country_modifier = {
				name = R51_dockyards_southern_coast # -15% ship cost
				duration = 9125
			}
			2913 = { add_harimari_minority_size_effect = yes }
			4380 = { add_harimari_minority_size_effect = yes }
			country_event = {
				id = flavor_dhenijanraj.1 #Revenge for Ramapalar II
			}
		}
	}
	
	R51_dockyards_of_southern_rahen = {
		icon = mission_grand_bengali_shipyards
		position = 5
		required_missions = {
			R51_subdue_the_south
		}
		
		provinces_to_highlight = {
			province_id = 1350
			NOT = {
				trade_share = {
					country = ROOT
					share = 25
				}
			}
		}
		
		trigger = {
			naval_forcelimit = 20
			navy_size_percentage = 0.9
			num_of_admirals = 1
			1350 = {
				trade_share = {
					country = ROOT
					share = 25
				}
			}
		}
		
		effect = {
			add_country_modifier = {
				name = R51_burgeoning_navy # 0.5 yearly navy tradition
				duration = 9125
			}
			dhenbasana_estuary_area = {
				limit = {
					NOT = { is_permanent_claim = ROOT }
					NOT = { is_core = ROOT}
				}
				add_permanent_claim = ROOT
			}
			kharunyana_estuary_area = {
				limit = {
					NOT = { is_permanent_claim = ROOT }
					NOT = { is_core = ROOT }
				}
				add_permanent_claim = ROOT
			}
			4389 = {
				add_permanent_claim = ROOT
			}
		}
	}
	
	R51_retake_kharunyana_delta = {
		icon = mission_crush_delhi
		position = 7
		required_missions = {
			R51_dockyards_of_southern_rahen
		}
		
		provinces_to_highlight = {
			OR = {
				area = dhenbasana_estuary_area
				area = kharunyana_estuary_area
				province_id = 4389
			}
			NOT = { country_or_non_sovereign_subject_holds = ROOT }
		}
		
		trigger = {
			dhenbasana_estuary_area = {
				type = all
				country_or_non_sovereign_subject_holds = ROOT
			}
			kharunyana_estuary_area = {
				type = all
				country_or_non_sovereign_subject_holds = ROOT
			}
			4389 = { country_or_non_sovereign_subject_holds = ROOT }
		}
		
		effect = {
			4420 = {
				add_base_tax = -3
				add_base_production = -3
				add_base_manpower = -3
				add_harimari_minority_size_effect = yes
			}
			4411 = {
				add_base_tax = 2
				add_base_production = 2
				add_base_manpower = 2
			}
			li_btei_area = {
				limit = {
					NOT = { is_permanent_claim = ROOT }
					NOT = { is_core = ROOT}
					}
				add_permanent_claim = ROOT
			}
			reanthung_area = {
				limit = {
					NOT = { is_permanent_claim = ROOT }
					NOT = { is_core = ROOT}
				}
				add_permanent_claim = ROOT
			}
			lower_telebei_area = {
				limit = {
					NOT = { is_permanent_claim = ROOT }
					NOT = { is_core = ROOT}
				}
				add_permanent_claim = ROOT
			}
			cmor_krueng_area = {
				limit = {
					NOT = { is_permanent_claim = ROOT }
					NOT = { is_core = ROOT}
				}
				add_permanent_claim = ROOT
			}
		}
	}
	
	R51_end_bhuvauri_republic = {
		icon = mission_unite_bengal
		position = 8
		required_missions = {
			R51_retake_kharunyana_delta
		}
		
		provinces_to_highlight = {
			OR = {
				area = li_btei_area
				area = reanthung_area
				area = lower_telebei_area
				area = cmor_krueng_area
			}
			NOT = { country_or_non_sovereign_subject_holds = ROOT }
		}
		
		trigger = {
			li_btei_area = {
				type = all
				country_or_non_sovereign_subject_holds = ROOT
			}
			reanthung_area = {
				type = all
				country_or_non_sovereign_subject_holds = ROOT
			}
			lower_telebei_area = {
				type = all
				country_or_non_sovereign_subject_holds = ROOT
			}
			cmor_krueng_area= {
				type = all
				country_or_non_sovereign_subject_holds = ROOT
			}
		}
		
		effect = {
			add_country_modifier = {
				name = R51_trade_dominance_kharunyana #10% trade eff, 25% t.range
				duration = 9125
			}
			#country_event = {
			#	id = flavor_dhenijanraj.2 #End of Bhuvari
			#}
			set_country_flag = dhenijanraj_sramaya_pearlglaives
			custom_tooltip = dhenijanraj_sramaya_pearlglaives_reward_tt
			custom_tooltip = merc_elite_no_army_prof_tt
		}
	}
	
	R51_expand_raheni_slave_plantations = {
		icon = mission_a_million_rice_fields
		position = 10
		required_missions = {
			R51_end_bhuvauri_republic
		}
		
		trigger = {
			num_of_provinces_owned_or_owned_by_non_sovereign_subjects_with = {
				value = 5
				trade_goods = slaves
				has_building = tradecompany
				has_production_building_trigger = yes
			}
			num_of_provinces_owned_or_owned_by_non_sovereign_subjects_with = {
				value = 5
				trade_goods = spices
				has_building = tradecompany
				has_production_building_trigger = yes
			}
			num_of_provinces_owned_or_owned_by_non_sovereign_subjects_with = {
				value = 5
				trade_goods = silk
				has_building = textile
				has_production_building_trigger = yes
			}
			num_of_provinces_owned_or_owned_by_non_sovereign_subjects_with = {
				value = 5
				trade_goods = cotton
				has_building = plantations
				has_production_building_trigger = yes
			}
		}
		
		effect = {
			add_mercantilism = 2
			add_country_modifier = {
				name = R51_slave_plantations #+10% good produced, 20% nat tax
				duration = 9125
			}
		}
	}
	
	R51_raj_cannorian_relations = {
		icon = mission_embassy_to_the_west
		position = 11
		required_missions = {
			R51_expand_raheni_slave_plantations
		}
		
		trigger = {
			calc_true_if = {
				all_country = {
					capital_scope = {
						continent = europe
					}
					has_opinion = {
						who = ROOT
						value = 125
					}
				}
				amount = 2
			}
		}
		
		effect = {
			add_country_modifier = {
				name = R51_cannor_rahen_contact	#50% Trade Range, -10% Dip Tech Cost
				duration = 9125
			}
		}
	}
	
	R51_raj_cannorian_armaments = {
		icon = mission_gunpowder_warfare
		position = 12
		required_missions = {
			R51_raj_cannorian_relations
		}
		
		trigger = {
			any_ally = {
				capital_scope = {
					continent = europe
				}
			}
			army_professionalism = 0.50
			num_of_artillery = 50
		}
		
		effect = {
			add_country_modifier = {
				name = R51_cannor_mil_tech #-15% mil tech cost, -25% inst embrace cost
				duration = 9125
			}
		}
	}
	
	R51_raj_of_gods_and_gears = {
		icon = mission_runeforged_cannons
		position = 13
		required_missions = {
			R51_raj_cannorian_armaments
		}
		
		provinces_to_highlight = {
			province_id = 4384
			OR = {
				NOT = { owned_by = ROOT }
				NOT = { base_production = 10 }
				NOT = { has_province_modifier = temple_complex }
			}
		}
		
		trigger = {
			has_institution = manufactories
			4384 = {
				owned_by = ROOT
				base_production = 4
				has_province_modifier = temple_complex
			}
			treasury = 300
			adm_power = 100
			dip_power = 100
		}
		
		effect = {
			add_treasury = -300
			add_adm_power = -100
			add_dip_power = -100
			if = {
				limit = { 4384 = { NOT = { trade_goods = precursor_relics } } }
				4384 = { change_trade_goods = precursor_relics }
			}
			custom_tooltip = dhenijanraj_supervised_high_temple_study_tt
			debuff_artifice_points_2 = yes
		}
	}
}

R51_missions_2 = {
	slot = 2
	generic = no
	ai = yes
	potential = {
		tag = R51
	}
	has_country_shield = yes
	
	R51_reign_in_vizier = {
		icon = mission_indian_stateman
		position = 2
		required_missions = {
			R51_bloom_lotus_court
		}
		
		trigger = {
			custom_trigger_tooltip = {
				tooltip = dhenijanraj_reign_vizier_trigger_tt
				any_subject_country = {
					has_country_flag = raj_vizier
					has_opinion = {
						who = ROOT
						value = 200
					}
					OR = {
						adm = 5
						dip = 5
						mil = 5
					}
					NOT = { liberty_desire = 20 }
				}
			}
			4411 = { NOT = { check_variable = { which = vizierSway value = 25 } } }
		}
		
		effect = {
			add_country_modifier = {
				name = R51_subservient_vizierate #+1 monthly diplo power
				duration = 3650
			}
		}
	}
	
	R51_authority_lotus_throne = {
		icon = mission_rajput_mansabdars
		position = 3
		required_missions = {
			R51_reign_in_vizier
		}
		
		trigger = {
			4411 = { check_variable = { which = raj_cohesion value = 95 } }
			crown_land_share = 40
			grown_by_development = 50
			NOT = {
				has_estate_privilege = estate_raj_ministries_ceremonial_ruler_act
			}
		}
		
		effect = {
			add_country_modifier = {
				name = R51_authority_lotus_throne # -0.05 monthly autonomy
				duration = 9125
			}
		}
	}
	
	R51_reconstruct_golden_highway = {
		icon = mission_grand_trunk_road_mug
		position = 4
		required_missions = {
			R51_subdue_the_south
		}
		
		provinces_to_highlight = {
			OR = {
				AND = {
					OR = {
						province_group = golden_highway_rahen_coast
						province_group = golden_highway_dhujat
					}
					NOT = { has_province_modifier = golden_highway }
				}
				AND = {
					OR = {
						province_id = 4411
						province_id = 4409
						province_id = 4391
					}
					NOT = { province_has_center_of_trade_of_level = 2 }
				}
			}
		}
		
		trigger = {
			golden_highway_rahen_coast = {
				type = all
				has_province_modifier = golden_highway
			}
			golden_highway_dhujat = {
				type = all
				has_province_modifier = golden_highway
			}
			4411 = { province_has_center_of_trade_of_level = 2 }
			4409 = { province_has_center_of_trade_of_level = 2 }
			4391 = { province_has_center_of_trade_of_level = 2 }
		}
		
		effect = {
			add_country_modifier = {
				name = R51_trade_flow #20% trade efficiency
				duration = 18250
			}
		}
	}
	
	R51_across_far_salahad = {
		icon = mission_guarded_market
		position = 5
		required_missions = {
			R51_reconstruct_golden_highway
		}
		
		provinces_to_highlight = {
			province_id = 2913
			OR = {
				NOT = { country_or_non_sovereign_subject_holds = ROOT }
				NOT = { base_production = 10 }
				NOT = { has_trade_building_trigger = yes }
				NOT = { province_has_center_of_trade_of_level = 3 }
			}
		}
		
		trigger = {
			2913 = {
				country_or_non_sovereign_subject_holds = ROOT
				has_trade_building_trigger = yes
				base_production = 10
				province_has_center_of_trade_of_level = 3
			}
			calc_true_if = {
				all_country = {
					capital_scope = {
						superregion = bulwar_superregion
					}
					has_opinion = {
						who = ROOT
						value = 125
					}
				}
				amount = 2
			}
		}
		
		effect = {
			2901 = {
				add_trade_modifier = {
					who = ROOT
					duration = -1
					power = 25
					key = STRONG_MERCHANTS
				}
			}
			add_country_modifier = {
				name = R51_connections_west #50% institution spread
				duration = 18250
			}
		}
  	}
	
	R51_conquer_the_colonies = {
		icon = mission_zanzibari_trade
		position = 6
		required_missions = {
			R51_dockyards_of_southern_rahen
		}
		
		trigger = {
			always = yes
		}
		
		effect = {
			#WIP for Sarhal
		}
	}
	
	R51_peridot_king = {
		icon = mission_integrate_the_gonds
		position = 7
		required_missions = {
			R51_senaptia_banners
		}
		
		provinces_to_highlight = {
			OR = {
				province_id = 4435
				province_id = 4462
				province_id = 4493
			}
			OR = {
				NOT = { country_or_non_sovereign_subject_holds = ROOT }
				NOT = { has_courthouse_building_trigger = yes }
				NOT = { is_prosperous = yes }
				unrest = 1
			}
		}
		
		trigger = {
			has_country_modifier = racial_focus_dwarven
			high_tolerance_dwarven_race_trigger = yes
			4435 = {
				country_or_non_sovereign_subject_holds = ROOT
				has_courthouse_building_trigger = yes
				NOT = {
					unrest = 1
				}
				is_prosperous = yes
			}
			4462 = {
				country_or_non_sovereign_subject_holds = ROOT
				has_courthouse_building_trigger = yes
				NOT = {
					unrest = 1
				}
				is_prosperous = yes
			}
			4493 = {
				country_or_non_sovereign_subject_holds = ROOT
				has_courthouse_building_trigger = yes
				NOT = {
					unrest = 1
				}
				is_prosperous = yes
			}
		}
		
		effect = {
			country_event = {
				id = flavor_dhenijanraj.3 #Peridot Recolonize Grozumdihr
			}
			4411 = { add_dwarven_minority_size_effect = yes }
			4450 = { add_dwarven_minority_size_effect = yes }
		}
	}
	
	R51_dwarves_in_castes = {
		icon = mission_gujarati_textiles
		position = 8
		required_missions = {
			R51_peridot_king
		}
		
		provinces_to_highlight = {
			owned_by = ROOT
			has_dwarven_minority_trigger = yes
			OR = {
				NOT = { is_prosperous = yes }
				unrest = 1
			}
		}
		
		trigger = {
			high_tolerance_dwarven_race_trigger = yes
			estate_loyalty = {
		 		estate = estate_middlecastes
				loyalty = 60
			}
			custom_trigger_tooltip = {
				tooltip = dhenijanraj_dwarven_integration_tt
				all_owned_province = {
					OR = {
						NOT = { has_any_dwarven_pop_trigger = yes }
						AND = {
							is_prosperous = yes
							NOT = { unrest = 1 }
						}
					}
				}
			}
		}
		
		effect = {
			country_event = {
				id = flavor_dhenijanraj.4 #Dwarf Castes
			}
			custom_tooltip = dhenijanraj_dwarf_caste_integration_tt
			set_country_flag = dwarf_in_lowercastes
			set_country_flag = dwarf_in_middlecastes
			hidden_effect = {
				if = {
					limit = {
						has_country_flag = blood_lotus_happened
						has_country_flag = human_in_uppercastes
					}
					country_event = { # dwarves want into uppercastes, now that humans are there too
						id = flavor_dhenijanraj.12
						days = 30
					}
				}
			}
		}
	}
	
	R51_temples_of_south = {
		icon = mission_conquer_lower_burma_tau
		position = 9
		required_missions = {
			R51_end_bhuvauri_republic
		}
		
		provinces_to_highlight = {
			OR = {
				province_id = 4380
				province_id = 4384
				province_id = 4411
				province_id = 4417
				province_id = 4420
				province_id = 4438
				province_id = 4450
			}
			OR = {
				NOT = { country_or_non_sovereign_subject_holds = ROOT }
				NOT = { has_province_modifier = temple_complex }
				NOT = { has_tax_building_trigger = yes }
			}
		}
		
		trigger = {
			temple_province_group = {
				type = all
				OR = {
					NOT = {
						OR = {
							region = rahen_coast_region
							region = rakhadesh_region
						}
					}
					AND = {
						country_or_non_sovereign_subject_holds = ROOT
						has_province_modifier = temple_complex
						has_tax_building_trigger = yes
					}
				}
			}
		}
		
		effect = {
			custom_tooltip = dhenijanraj_mission_temples_south_tt
			hidden_effect = {
				temple_province_group = {
					limit = {
						OR = {
							region = rahen_coast_region
							region = rakhadesh_region
						}
					}
					add_permanent_province_modifier = {
						name = R51_high_temples_south
						duration = -1
					}
				}
			}
		}
	}
	
	R51_library_ghundagar = {
		icon = mission_fatehpur_sikri
		position = 10
		required_missions = {
			R51_united_stable_society
		}
		
		provinces_to_highlight = {
			province_id = 4417
			OR = {
				NOT = { owned_by = ROOT }
				NOT = { development = 25 }
				NOT = { is_prosperous = yes }
			}
		}
		
		trigger = {
			treasury = 1000
			has_institution = printing_press
			4417 = {
				owned_by = ROOT
				development = 25
				is_prosperous = yes
			}
			num_of_provinces_owned_or_owned_by_non_sovereign_subjects_with = {
				value = 2
				trade_goods = paper
				has_production_building_trigger = yes
				base_production = 10
			}
		}
		
		effect = {
			add_treasury = -1000
			4417 = {
				add_permanent_province_modifier = {
					name = R51_restored_ghundagar_library
					duration = -1
				}
			}
		}
	}
	
	R51_last_fortress_war = {
		icon = mission_conquer_lower_burma_ori
		position = 11
		required_missions = {
			R51_expand_raheni_slave_plantations
		}
		
		provinces_to_highlight = {
			region = bomdan_region
			NOT = { country_or_non_sovereign_subject_holds = ROOT }
		}
		
		trigger = {
			bomdan_region = {
				type = all
				country_or_non_sovereign_subject_holds = ROOT
			}
		}
		
	 	effect = {
			add_country_modifier = {
				name = R51_breaker_of_bomdan # 15% siege ability
				duration = -1
			}
			4560 = { add_harimari_minority_size_effect = yes }
			4570 = { add_harimari_minority_size_effect = yes }
			4580 = { add_harimari_minority_size_effect = yes }
			4600 = { add_harimari_minority_size_effect = yes }
			4941 = { add_harimari_minority_size_effect = yes }
		}
	}
	
	R51_rahenize_bomdan = {
		icon = mission_dominate_trade_in_bengal
		position = 12
		required_missions = {
			R51_last_fortress_war
		}
		
		provinces_to_highlight = {
			region = bomdan_region
			OR = {
				NOT = { country_or_non_sovereign_subject_holds = ROOT }
				NOT = { has_owner_religion = yes }
				local_autonomy = 50
				devastation = 1
				nationalism = 1
			}
		}
		
		trigger = {
			dip_power = 300
			bomdan_region = {
				type = all
				country_or_non_sovereign_subject_holds = ROOT
				has_owner_religion = yes
				NOT = {
					local_autonomy = 50
					devastation = 1
					nationalism = 1
				}
			}
		}
		
		effect = {
			add_dip_power = -300
			add_country_modifier = {
				name = R51_rahenization_of_bomdan # +2 promoted cultures
				duration = -1
			}
		}
	}
	
	R51_restore_bim_lau = {
		icon = mission_develop_the_capital
		position = 13
		required_missions = {
			R51_rahenize_bomdan
		}
		
		provinces_to_highlight = {
			province_id = 4565
			OR = {
				NOT = { has_owner_accepted_culture = yes }
				NOT = { development = 30 }
				NOT = { is_prosperous = yes }
				local_autonomy = 1
				unrest = 1
			}
		}
		
		trigger = {
			treasury = 1000
			adm_power = 200
			4565 = {
				has_owner_accepted_culture = yes
				development = 30
				is_prosperous = yes
				NOT = {
					local_autonomy = 1
					unrest = 1
				}
			}
		}
		
		effect = {
			add_treasury = -1000
			add_adm_power = -200
			4565 = {
				add_permanent_province_modifier = {
					name = R51_restored_bim_lau #-10% local dev cost, +20% defensivenes
					duration = -1
				}
			}
			custom_tooltip = dhenijanraj_ruler_burial_tt
			set_country_flag = R51_bim_lau_restorer_burial_flag #for burial event
		}
	}
}

R51_missions_3 = {
	slot = 3
	generic = no
	ai = yes
	potential = {
		tag = R51
	}
	has_country_shield = yes
	
	R51_bloom_lotus_court = {
		icon = mission_persianate_empire
		position = 1
		required_missions = { }
		
		trigger = {
			R51 = {
				has_reform = raja_reform
			}
			NOT = { has_disaster = rahen_corrupt_court }
			is_year = 1447
		}
		
		effect = {
			change_government_reform_progress = 50
			add_prestige = 25
			if = {
				limit = { has_country_modifier = R51_speedy_recovery_time_limit }
 				add_country_modifier = {
					name = R51_speedy_recovery # -15% liberty desire
					duration = 9125
				}
			}
		}
	}
	
	# R51_matter_of_suhan = {
		# icon = mission_harimar
		# position = 3
		# required_missions = {
			
		# }
		
		# trigger = {
			
		# }
		
		# effect = {
			
		# }
	# }
	
	R51_enforce_prabhia_loyalty = {
		icon = mission_prosperity_in_bengal
		position = 4
		required_missions = {
			R51_authority_lotus_throne
			# R51_matter_of_suhan
			R51_provincial_ministry
		}

		provinces_to_highlight = {
			owner = {
				is_subject_of_type = daimyo_vassal
				liberty_desire = 20
			}
		}
		
		trigger = {
			custom_trigger_tooltip = {
				tooltip = dhenijanraj_loyal_prabhi_trigger_tt
				all_subject_country = {
					OR = {
						NOT = { is_subject_of_type = daimyo_vassal }
						NOT = { liberty_desire = 20 }
					}
				}
			}
			custom_trigger_tooltip = {
				tooltip = dhenijanraj_annexed_subject_trigger_tt
				check_variable = { diplomaticAnnexations = 5 }
			}
		}
		
		effect = {
			add_country_modifier = {
				name = R51_loyal_prabhia
				duration = 9125
			}
		}
	}
	
	R51_senaptia_banners = {
		icon = mission_unite_the_deccan
		position = 6
		required_missions = {
			R51_enforce_prabhia_loyalty
		}
		
		provinces_to_highlight = {
			owner = {
				is_subject_of_type = great_daimyo_vassal
				OR = {
					NOT = {
						has_opinion = {
							who = ROOT
							value = 125
						}
					}
					NOT = { total_development = 50 }
					liberty_desire = 20
				}
			}
		}
		
		trigger = {
			great_daimyo_vassal = 6
			custom_trigger_tooltip = {
				tooltip = dhenijanraj_loyal_senaptia_trigger_tt
				all_subject_country = {
					OR = {
						NOT = { is_subject_of_type = great_daimyo_vassal }
						AND = {
							has_opinion = {
								who = ROOT
								value = 125
							}
							total_development = 50
							NOT = { liberty_desire = 20 }
						}
					}
				}
			}
		}
		
		effect = {
			add_country_modifier = {
				name = R51_senaptia_banners_raja
				duration = -1
			}
			custom_tooltip = dhenijanraj_mission_senaptia_banners_senaptia_tt
			every_subject_country = {
				limit = { is_subject_of_type = great_daimyo_vassal }
				add_country_modifier = {
					name = R51_senaptia_banners_senaptia
					duration = -1
				}
			}
		}
	}
	
	R51_raja_personal_estate = {
		icon = mission_secure_khandesh
		position = 7
		required_missions = {
			R51_senaptia_banners
		}
		
		provinces_to_highlight = {
			OR = {
				province_id = 4438
				province_id = 4401
				province_id = 4488
			}
			NOT = {
				AND = {
					country_or_non_sovereign_subject_holds = ROOT
					development = 20
					has_manufactory_trigger = yes
				}
			}
		}
		
		trigger = {
			total_development = 300
			num_of_cities = 25
			4438 = {
				country_or_non_sovereign_subject_holds = ROOT
				development = 20
				has_manufactory_trigger = yes
			}
			4401 = {
				country_or_non_sovereign_subject_holds = ROOT
				development = 20
				has_manufactory_trigger = yes
			}
			4488 = {
				country_or_non_sovereign_subject_holds = ROOT
				development = 20
				has_manufactory_trigger = yes
			}
		}
		
		effect = {
			#country_event = {
			#	id = flavor_dhenijanraj.5 #Shrine of Victory
			#}
			add_country_modifier = {
				name = R51_productive_crownlands
				duration = 9125
			}
		}
	}
	
	R51_harimraj_royal_army = {
		icon = mission_unite_rajputana
		position = 8
		required_missions = {
			R51_raja_personal_estate
		}
		
		trigger = {
			land_forcelimit = 200
			army_size_percentage = 1
			is_in_deficit = no
			mil_power = 200
		}
		
		effect = {
			add_mil_power = -200
			add_country_modifier = {
				name = R51_thousand_sashtabari
				duration = -1
			}
			#country_event = {
			#	id = flavor_dhenijanraj.6 #March of The Sashtabari
			#}
		}
	}
	
	R51_united_stable_society = {
		icon = mission_conquer_bengal_tau
		position = 9
		required_missions = {
			R51_dwarves_in_castes
			R51_harimraj_royal_army
			R51_settle_philosophical_disputes
		}
		
		trigger = {
			stability = 3
			legitimacy = 100
			prestige = 95
			NOT = {
				corruption = 1
			}
			4411 = { check_variable = { which = raj_cohesion value = 95 } }
		}
		
		effect = {
			add_adm_power = 250
			add_dip_power = 250
			add_mil_power = 250
		}
	}
	
	R51_golden_palace = {
		icon = mission_kanbawzathadi_palace
		position = 10
		required_missions = {
			R51_united_stable_society
		}
		
		trigger = {
			treasury = 2500
			4411 = {
				is_capital_of = ROOT
				development = 50
			}
			num_of_provinces_owned_or_owned_by_non_sovereign_subjects_with = {
				value = 2
				trade_goods = gold
				base_production = 10
			}
		}
		
		effect = {
			add_treasury = -2500
			4411 = {
				add_permanent_province_modifier = {
					name = R51_golden_palace_rebuilt #+1 yearly legitimacy, -1% yearly prestige decay
					duration = -1
				}
			}
		}
	}
	
	R51_centralize_rahen = {
		icon = mission_chakravarti
		position = 11
		required_missions = {
			R51_library_ghundagar
			R51_golden_palace
			R51_rhamirta_examination_hall
		}
		
		trigger = {
			total_development = 750
			absolutism = 30
			NOT = {
				num_of_subjects = 20
			}
			has_adm_advisor_5 = yes
			has_dip_advisor_5 = yes
			has_mil_advisor_5 = yes
			is_in_deficit = no
		}
		
		effect = {
			set_government_rank = 3
			add_country_modifier = {
				name = R51_internal_cohesion #+5%admin efficiency
				duration = -1
			}
		}
	}
	
	R51_second_final_harimraj = {
		icon = mission_sunset
		position = 13
		required_missions = {
			R51_rahenize_bomdan
			R51_centralize_rahen
			R51_tiger_on_yanhe
		}
		
		provinces_to_highlight = {
			superregion = rahen_superregion
			owned_by = ROOT
			OR = {
				NOT = { religion = ROOT }
				local_autonomy = 1
				unrest = 1
			}
		}
		
		trigger = {
			development_in_provinces = {
				value = 2800
				superregion = rahen_superregion 
			}
			all_owned_province = {
				OR = {
					AND = {
						religion = ROOT
						NOT = {
							local_autonomy = 1
							unrest = 1
						}
					}
					NOT = { superregion = rahen_superregion }
				}
			}
		}
		
		effect = {
			country_event = { id = flavor_dhenijanraj.11 }
			north_yanshen_region = {
				limit = {
					NOT = { is_permanent_claim = ROOT }
					NOT = { is_core = ROOT}
				}
				add_permanent_claim = ROOT
			}
			xianjie_region = {
				limit = {
					NOT = { is_permanent_claim = ROOT }
					NOT = { is_core = ROOT}
				}
				add_permanent_claim = ROOT
			}
		}
	}
}

R51_missions_4 = {
	slot = 4
	generic = no
	ai = yes
	potential = {
		tag = R51
	}
	has_country_shield = yes
	
	R51_new_ministerial_cadre = {
		icon = mission_reliable_allies
		position = 2
		required_missions = {
			R51_bloom_lotus_court
		}
		
	 	trigger = {
			NOT = {
				estate_influence = {
					estate = estate_raj_ministries
					influence = 70
				}
			}
			estate_loyalty = {
				estate = estate_raj_ministries
				loyalty = 60
			}
			has_adm_advisor_3 = yes
			has_dip_advisor_3 = yes
			has_mil_advisor_3 = yes
			is_in_deficit = no
	 	}
		
		effect = {
			add_country_modifier = {
				name = R51_subservient_ministry #+1 admin power
				duration = 3650
			}
		}
	}
	
	R51_provincial_ministry = {
		icon = mission_the_chola_campaigns
		position = 3
		required_missions = {
			R51_new_ministerial_cadre
		}
		
		trigger = {
			custom_trigger_tooltip = {
				tooltip = dhenijanraj_provincial_ministry_trigger_tt
				calc_true_if = {
					all_subject_country = {
						has_opinion_modifier = {
							who = ROOT
							modifier = great_power_influence
						}
					}
					amount = 10
				}
			}
			NOT = {
				has_estate_privilege = estate_raj_ministries_delegate_territorial_management
			}
		}
		
		effect = {
			add_country_modifier = {
				name = R51_improved_vassal_taxation
				duration = 9125
			}
		}
	}
	
	R51_restore_pilgrim_road = {
		icon = mission_southern_frontier
		position = 4
		required_missions = {
			R51_reunite_northern_lotus
		}
		
		provinces_to_highlight = {
			OR = {
				AND = {
					province_group = pilgrims_road_area
					NOT = { country_or_non_sovereign_subject_holds = ROOT }
				}
				AND = {
					OR = {
						province_id = 4466
						province_id = 4509
					}
					OR = {
						NOT = { development = 25 }
						NOT = { has_tax_building_trigger = yes }
					}
				}
			}
		}
		
		trigger = {
			pilgrims_road_area = {
				type = all
				country_or_non_sovereign_subject_holds = ROOT
			}
			treasury = 350
			adm_power = 100
			4466 = {
				development = 25
				has_tax_building_trigger = yes
			}
			4509 = {
				development = 25
				has_tax_building_trigger = yes
			}
		}
		
		effect = {
			every_province = {
				limit = {
					province_group = pilgrims_road_area
					country_or_non_sovereign_subject_holds = ROOT
				}
				add_permanent_province_modifier = {
					name = R51_pilgrims_road
					duration = -1
				}
			}
		}
	}
	
	R51_patronage_oracle = {
		icon = mission_restore_pagodas
		position = 5
		required_missions = {
			R51_restore_pilgrim_road
		}
		
		provinces_to_highlight = {
			province_id = 4527
			OR = {
				NOT = { country_or_non_sovereign_subject_holds = ROOT }
				NOT = { development = 25 }
			}
		}
		
		trigger = {
			treasury = 1000
			dip_power = 200
			4527 = {
				country_or_non_sovereign_subject_holds = ROOT
				development = 25
			}
		}
		
		effect = {
			add_treasury = -1000
			add_dip_power = -200
			add_country_modifier = {
				name = R51_wisdom_oracle
				duration = -1
			}
		}
	}
	
	R51_subjugate_sarisung = {
		icon = mission_seize_the_bengal_coast
		position = 6
		required_missions = {
			R51_fealty_sarnihanpur
		}
		
		provinces_to_highlight = {
			area = sarisung_area
			OR = {
				NOT = { country_or_non_sovereign_subject_holds = ROOT }
				NOT = { development = 15 }
				NOT = { has_courthouse_building_trigger = yes }
			}
		}
		
		trigger = {
			sarisung_area = {
				type = all
				country_or_non_sovereign_subject_holds = ROOT
				has_courthouse_building_trigger = yes
				development = 15
			}
			4500 = {
				development = 35
			}
		}
		
		effect = {
			country_event = {
				id = flavor_dhenijanraj.7 #Disempowering the gangs
			}
		}
	}
	
	R51_ministerial_philosophy_forum = {
		icon = mission_rule_the_garjats
		position = 7
		required_missions = {
			R51_senaptia_banners
		}
		
		provinces_to_highlight = {
			OR = {
				province_id = 4411
				province_id = 4435
				province_id = 4391
			}
			OR = {
				NOT = { renaissance = 100 }
				NOT = { country_or_non_sovereign_subject_holds = ROOT }
				NOT = { has_owner_religion = yes }
				NOT = { has_tax_building_trigger = yes }
			}
		}
		
		trigger = {
			adm_power = 100
			4411 = {
				renaissance = 100
				country_or_non_sovereign_subject_holds = ROOT
				has_owner_religion = yes
				has_tax_building_trigger = yes
			}
			4435 = {
				renaissance = 100
				country_or_non_sovereign_subject_holds = ROOT
				has_owner_religion = yes
				has_tax_building_trigger = yes
			}
			4391 = {
				renaissance = 100
				country_or_non_sovereign_subject_holds = ROOT
				has_owner_religion = yes
				has_tax_building_trigger = yes
			}
		}
		
		effect = {
			add_adm_power = -100
			add_country_modifier = {
				name = R51_forum_of_ideas
				duration = 7300
			}
		}
	}
	
	R51_settle_philosophical_disputes = {
		icon = mission_the_tamil_trade_guilds
		position = 8
		required_missions = {
			R51_ministerial_philosophy_forum
		}
		
		provinces_to_highlight = {
			OR = {
				province_id = 4409
				province_id = 4367
				province_id = 4383
				province_id = 4391
				province_id = 4500
				province_id = 4474
				province_id = 4859
			}
			NOT = { owned_by = ROOT }
		}
		
		trigger = {
			adm_power = 200
			custom_trigger_tooltip = {
				tooltip = dhenijanraj_scholarly_harmony_tt
				OR = {
					any_known_country = {
						religious_school = {
							group = raheni
							school = starry_eye_school
						}
						has_opinion = {
							who = ROOT
							value = 200
						}
					}
					4409 = {
						owned_by = ROOT
					}
				}
				OR = {
					any_known_country = {
						religious_school = {
							group = raheni
							school = silk_turban_school
						}
						has_opinion = {
							who = ROOT
							value = 200
						}
					}
					4367 = {
						owned_by = ROOT
					}
				}
				OR = {
					any_known_country = {
						religious_school = {
							group = raheni
							school = unbroken_claw_school
						}
						has_opinion = {
							who = ROOT
							value = 200
						}
					}
					4383 = {
						owned_by = ROOT
					}
				}
				OR = {
					any_known_country = {
						religious_school = {
							group = raheni
							school = golden_palace_school
						}
						has_opinion = {
							who = ROOT
							value = 200
						}
					}
					4391 = {
						owned_by = ROOT
					}
				}
				OR = {
					any_known_country = {
						religious_school = {
							group = raheni
							school = radiant_sun_school
						}
						has_opinion = {
							who = ROOT
							value = 200
						}
					}
					4500 = {
						owned_by = ROOT
					}
				}
				OR = {
					any_known_country = {
						religious_school = {
							group = raheni
							school = orange_sash_school
						}
						has_opinion = {
							who = ROOT
							value = 200
						}
					}
					4474 = {
						owned_by = ROOT
					}
				}
				OR = {
					any_known_country = {
						religious_school = {
							group = raheni
							school = ascendant_soul_school
						}
						has_opinion = {
							who = ROOT
							value = 200
						}
					}
					4859 = {
						owned_by = ROOT
					}
				}
			}
		}
		
		effect = {
			add_adm_power = -200
			set_country_flag = dhenijanraj_mission_free_invitations
			custom_tooltip = dhenijanraj_mission_free_invitations_tt
		}
	}
	
	R51_temples_of_north = {
		icon = mission_into_africa
		position = 9
		required_missions = {
			R51_shatter_the_chimera
		}
		
		provinces_to_highlight = {
			OR = {
				province_id = 4397
				province_id = 4469
				province_id = 4488
				province_id = 4499
				province_id = 4510
				province_id = 4527
				province_id = 4465
				province_id = 4633
				province_id = 4546
				province_id = 4630
			}
			OR = {
				NOT = { country_or_non_sovereign_subject_holds = ROOT }
				NOT = { has_province_modifier = temple_complex }
				NOT = { has_tax_building_trigger = yes }
			}
		}
		
		trigger = {
			temple_province_group = {
				type = all
				OR = {
					NOT = {
						OR = {
							region = dhujat_region
							region = shamakhad_region
						}
					}
					AND = {
						country_or_non_sovereign_subject_holds = ROOT
						has_province_modifier = temple_complex
						has_tax_building_trigger = yes
					}
				}
			}
		}
		
		effect = {
			custom_tooltip = dhenijanraj_mission_temples_north_tt
			hidden_effect = {
				temple_province_group = {
					limit = {
						OR = {
							region = dhujat_region
							region = shamakhad_region
						}
					}
					add_permanent_province_modifier = {
						name = R51_high_temples_north
						duration = -1
					}
				}
			}
		}
	}
	
	R51_rhamirta_examination_hall = {
		icon = interest_of_holland
		position = 10
		required_missions = {
			R51_united_stable_society
		}
		
		provinces_to_highlight = {
			province_id = 4394
			OR = {
				NOT = { owned_by = ROOT }
				NOT = { development = 25 }
				NOT = { is_prosperous = yes }
			}
		}
		
		trigger = {
			treasury = 1000
			university = 10
			4394 = {
				owned_by = ROOT
				development = 25
				is_prosperous = yes
			}
			estate_loyalty = {
			 	estate = estate_raj_ministries
				loyalty = 60
			}
		}
		
		effect = {
			add_treasury = -1000
			4394 = {
				add_permanent_province_modifier = {
					name = R51_rhamirta_examination_hall
					duration = -1
				}
			}
		}
	}
	
	R51_memories_of_yanhadesh = {
		icon = mission_the_tiger_triumphant
		position = 11
		required_missions = {
			R51_liberate_jade_mines
		}
		
		provinces_to_highlight = {
			OR = {
				region = upper_yanshen_region
				area = mogutian_area
				area = tietyuan_area
				province_id = 4827
				province_id = 4901
			}
			NOT = { country_or_non_sovereign_subject_holds = ROOT }
		}
		
		trigger = {
			upper_yanshen_region = {
				type = all
				country_or_non_sovereign_subject_holds = ROOT
			}
			mogutian_area = {
				type = all
				country_or_non_sovereign_subject_holds = ROOT
			}
			tietyuan_area = {
				type = all
				country_or_non_sovereign_subject_holds = ROOT
			}
			4827 = { country_or_non_sovereign_subject_holds = ROOT }
			4901 = { country_or_non_sovereign_subject_holds = ROOT }
		}
		
		effect = {
			add_country_modifier = {
				name = R51_subjugate_yanshen
				duration = 9125
			}
		}
	}
	
	R51_tiger_on_yanhe = {
		icon = mission_defy_the_dragon
		position = 12
		required_missions = {
			R51_memories_of_yanhadesh
		}
		
		provinces_to_highlight = {
			OR = {
				region = upper_yanshen_region
				area = mogutian_area
				area = tietyuan_area
				province_id = 4827
				province_id = 4901
			}
			OR = {
				NOT = { country_or_non_sovereign_subject_holds = ROOT }
				NOT = { has_owner_religion = yes }
				local_autonomy = 50
				devastation = 1
			}
		}
		
		trigger = {
			dip_power = 300
			upper_yanshen_region = {
				type = all
				country_or_non_sovereign_subject_holds = ROOT
				has_owner_religion = yes
				NOT = {
					local_autonomy = 50
					devastation = 1
					nationalism = 1
				}
			}
			mogutian_area = {
				type = all
				country_or_non_sovereign_subject_holds = ROOT
				has_owner_religion = yes
				NOT = {
					local_autonomy = 50
					devastation = 1
					nationalism = 1
				}
			}
			tietyuan_area = {
				type = all
				country_or_non_sovereign_subject_holds = ROOT
				has_owner_religion = yes
				NOT = {
					local_autonomy = 50
					devastation = 1
					nationalism = 1
				}
			}
			4827 = {
				country_or_non_sovereign_subject_holds = ROOT
				has_owner_religion = yes
				NOT = {
					local_autonomy = 50
					devastation = 1
					nationalism = 1
				}
			}
			4901 = {
				country_or_non_sovereign_subject_holds = ROOT
				has_owner_religion = yes
				NOT = {
					local_autonomy = 50
					devastation = 1
					nationalism = 1
				}
			}
		}
		
		effect = {
			add_dip_power = -300
			add_country_modifier = {
				name = R51_tiger_upon_yanhe # +2 promoted cultures
				duration = -1
			}
		}
	}
	
	R51_eunuch_ministers = {
		icon = mission_scholar_officials
		position = 13
		required_missions = {
			R51_tiger_on_yanhe
		}
		
		trigger = {
			estate_loyalty = {
				estate = estate_raj_ministries
				loyalty = 70
			}
			num_of_provinces_owned_or_owned_by_non_sovereign_subjects_with = {
				value = 3
				superregion = yanshen_superregion
				development = 40
				has_building = university
				has_courthouse_building_trigger = yes
				NOT = {
					local_autonomy = 1
				}
			}
		}
		
		effect = {
			set_country_flag = dhenijanraj_ministry_eunuch_integration
			set_estate_privilege = estate_raj_ministries_eunuch_integration
		}
	}
}

R51_missions_5 = {
	slot = 5
	generic = no
	ai = yes
	potential = {
		tag = R51
	}
	has_country_shield = yes
	
	R51_reunite_northern_lotus = {
		icon = mission_city_of_victory_bah
		position = 3
		required_missions = { }
		
		provinces_to_highlight = {
			OR = {
				area = bidhilar_area
				area = tilathi_area
				province_id = 4467
				province_id = 4474
				province_id = 4475
			}
			NOT = { country_or_non_sovereign_subject_holds = ROOT }
		}
		
		trigger = {
			bidhilar_area = {
				type = all
				country_or_non_sovereign_subject_holds = ROOT
			}
			tilathi_area = {
				type = all
				country_or_non_sovereign_subject_holds = ROOT
			}
			4467 = { country_or_non_sovereign_subject_holds = ROOT }
			4474 = { country_or_non_sovereign_subject_holds = ROOT }
			4475 = { country_or_non_sovereign_subject_holds = ROOT }
		}
		
		effect = {
			add_country_modifier = {
				name = R51_lotus_dynasty_reunion #+1 yearly prestige
				duration = 9125
			}
			4510 = { add_harimari_minority_size_effect = yes }
			west_rajnadhaga_area = {
				limit = {
					NOT = { is_permanent_claim = ROOT }
					NOT = { is_core = ROOT}
				}
				add_permanent_claim = ROOT
			}
 			east_rajnadhaga_area = {
				limit = {
					NOT = { is_permanent_claim = ROOT }
					NOT = { is_core = ROOT}
				}
				add_permanent_claim = ROOT
			}
			khadirnadi_area = {
				limit = {
					NOT = { is_permanent_claim = ROOT }
					NOT = { is_core = ROOT}
				}
				add_permanent_claim = ROOT
			}
			4465 = {
				add_permanent_claim = ROOT
			}
			4476 = {
				add_permanent_claim = ROOT
			}
			4515 = {
				add_permanent_claim = ROOT
			}
		}
	}
	
	R51_fealty_sarnihanpur= {
		icon = mission_gwalior_and_rathambore
		position = 5
		required_missions = {
			R51_reunite_northern_lotus
		}
		
		provinces_to_highlight = {
			OR = {
				area = west_rajnadhaga_area
				area = east_rajnadhaga_area
				area = khadirnadi_area
				province_id = 4465
				province_id = 4476
				province_id = 4515
			}
			NOT = { country_or_non_sovereign_subject_holds = ROOT }
		}
		
	 	trigger = {
			west_rajnadhaga_area = {
				type = all
				country_or_non_sovereign_subject_holds = ROOT
			}
			east_rajnadhaga_area = {
				type = all
				country_or_non_sovereign_subject_holds = ROOT
			}
			khadirnadi_area = {
				type = all
				country_or_non_sovereign_subject_holds = ROOT
			}
			4465 = { country_or_non_sovereign_subject_holds = ROOT }
			4476 = { country_or_non_sovereign_subject_holds = ROOT }
			4515 = { country_or_non_sovereign_subject_holds = ROOT }
	 	}
		
		effect = {
			# add_country_modifier = {
			# 	name = R51_ruin_warriors
			# 	duration = 9125
			# }
			# 4460 = { add_harimari_minority_size_effect = yes }
			# sarisung_area = {
			# 	limit = {
			# 		NOT = { is_permanent_claim = ROOT }
			# 		NOT = { is_core = ROOT }
			# 	}
			# 	add_permanent_claim = ROOT
			# }
			# sir_area = {
			# 	limit = {
			# 		NOT = { is_permanent_claim = ROOT }
			# 		NOT = { is_core = ROOT }
			# 	}
			# 	add_permanent_claim = ROOT
			# }
			# nakara_area = {
			# 	limit = {
			# 		NOT = { is_permanent_claim = ROOT }
			# 		NOT = { is_core = ROOT }
			# 	}
			# add_permanent_claim = ROOT
			# }
			# ghilapur_area = {
			# 	limit = {
			# 		NOT = { is_permanent_claim = ROOT }
			# 		NOT = { is_core = ROOT }
			# 	}
			# 	add_permanent_claim = ROOT
			# }
			# pharata_area = {
			# 	limit = {
			# 		NOT = { is_permanent_claim = ROOT }
			# 		NOT = { is_core = ROOT }
			# 	}
			# 	add_permanent_claim = ROOT
			# }
			# nadida_area = {
			# 	limit = {
			# 		NOT = { is_permanent_claim = ROOT }
			# 		NOT = { is_core = ROOT }
			# 	}
			# 	add_permanent_claim = ROOT
			# }
			# yodhilakra_area = {
			# 	limit = {
			# 		NOT = { is_permanent_claim = ROOT }
			# 		NOT = { is_core = ROOT }
			# 	}
			# 	add_permanent_claim = ROOT
			# }
			country_event = { id = flavor_tiltaghar.21 } #Fealty of Sarnihanpur
		}
	}
	
	R51_liberate_sir = {
		icon = mission_abu_saids_dream
		position = 7
		required_missions = {
			R51_fealty_sarnihanpur
		}
		
		provinces_to_highlight = {
			OR = {
				area = sir_area
				area = nakara_area
				area = ghilapur_area
				area = pharata_area
				area = nadida_area
				area = yodhilakra_area
			}
			NOT = { country_or_non_sovereign_subject_holds = ROOT }
		}
		
		trigger = {
			sir_area = {
				type = all
				country_or_non_sovereign_subject_holds = ROOT
			}
			nakara_area = {
				type = all
				country_or_non_sovereign_subject_holds = ROOT
			}
			ghilapur_area = {
				type = all
				country_or_non_sovereign_subject_holds = ROOT
			}
			pharata_area = {
				type = all
				country_or_non_sovereign_subject_holds = ROOT
			}
			nadida_area = {
				type = all
				country_or_non_sovereign_subject_holds = ROOT
			}
			yodhilakra_area = {
				type = all
				country_or_non_sovereign_subject_holds = ROOT
			}
		}
		
		effect = {
			if = {
				limit = {
					has_country_flag = tiltaghar_fealty_sarnihapur
				}
				R08 = {
					add_country_modifier = {
						name = R51_triumph_at_sir
						duration = 9125
					}
					munlanan_area = {
						limit = {
							NOT = { is_permanent_claim = R08 }
							NOT = { is_core = R08 }
						}
						add_permanent_claim = R08
					}
					khasardul_area = {
						limit = {
							NOT = { is_permanent_claim = R08 }
							NOT = { is_core = R08 }
						}
						add_permanent_claim = R08
					}
					ghatasak_area = {
						limit = {
							NOT = { is_permanent_claim = R08 }
							NOT = { is_core = R08 }
						}
						add_permanent_claim = R08
					}
					marudhoj_area = {
						limit = {
							NOT = { is_permanent_claim = R08 }
							NOT = { is_core = R08 }
						}
						add_permanent_claim = R08
					}
					raghajandi_area = {
						limit = {
							NOT = { is_permanent_claim = R08 }
							NOT = { is_core = R08 }
						}
						add_permanent_claim = R08
					}
					kradhungur_area = {
						limit = {
							NOT = { is_permanent_claim = R08 }
							NOT = { is_core = R08 }
						}
						add_permanent_claim = R08
					}
					khamarutar_area = {
						limit = {
							NOT = { is_permanent_claim = R08 }
							NOT = { is_core = R08 }
						}
						add_permanent_claim = R08
					}
					tamvihar_area = {
						limit = {
							NOT = { is_permanent_claim = R08 }
							NOT = { is_core = R08 }
						}
						add_permanent_claim = R08
					}
					4518 = {
						add_permanent_claim = R08
					}
				}
			}
			else = {
				add_country_modifier = {
					name = R51_triumph_at_sir
					duration = 9125
				}
				munlanan_area = {
					limit = {
						NOT = { is_permanent_claim = ROOT }
						NOT = { is_core = ROOT }
					}
					add_permanent_claim = ROOT
				}
				khasardul_area = {
					limit = {
						NOT = { is_permanent_claim = ROOT }
						NOT = { is_core = ROOT }
					}
					add_permanent_claim = ROOT
				}
				ghatasak_area = {
					limit = {
						NOT = { is_permanent_claim = ROOT }
						NOT = { is_core = ROOT }
					}
					add_permanent_claim = ROOT
				}
				marudhoj_area = {
					limit = {
						NOT = { is_permanent_claim = ROOT }
						NOT = { is_core = ROOT }
					}
					add_permanent_claim = ROOT
				}
				raghajandi_area = {
					limit = {
						NOT = { is_permanent_claim = ROOT }
						NOT = { is_core = ROOT }
					}
					add_permanent_claim = ROOT
				}
				kradhungur_area = {
					limit = {
						NOT = { is_permanent_claim = ROOT }
						NOT = { is_core = ROOT }
					}
					add_permanent_claim = ROOT
				}
				khamarutar_area = {
					limit = {
						NOT = { is_permanent_claim = ROOT }
						NOT = { is_core = ROOT }
					}
					add_permanent_claim = ROOT
				}
				tamvihar_area = {
					limit = {
						NOT = { is_permanent_claim = ROOT }
						NOT = { is_core = ROOT }
					}
					add_permanent_claim = ROOT
				}
				4518 = {
					add_permanent_claim = ROOT
				}
			}
		}
	}
	
	R51_shatter_the_chimera = {
		icon = mission_subdue_rajputana
		position = 8
		required_missions = {
			R51_liberate_sir
		}
		
		provinces_to_highlight = {
			OR = {
				area = munlanan_area
				area = khasardul_area
				area = ghatasak_area
				area = marudhoj_area
				area = raghajandi_area
				area = kradhungur_area
				area = khamarutar_area
				area = tamvihar_area
				province_id = 4518
			}
			NOT = { country_or_non_sovereign_subject_holds = ROOT }
		}
		
		trigger = {
			munlanan_area = {
				type = all
				country_or_non_sovereign_subject_holds = ROOT
			}
			khasardul_area = {
				type = all
				country_or_non_sovereign_subject_holds = ROOT
			}
			ghatasak_area = {
				type = all
				country_or_non_sovereign_subject_holds = ROOT
			}
			marudhoj_area = {
				type = all
				country_or_non_sovereign_subject_holds = ROOT
			}
			raghajandi_area = {
				type = all
				country_or_non_sovereign_subject_holds = ROOT
			}
			kradhungur_area = {
				type = all
				country_or_non_sovereign_subject_holds = ROOT
			}
			tamvihar_area = {
				type = all
				country_or_non_sovereign_subject_holds = ROOT
			}
			khamarutar_area = {
				type = all
				country_or_non_sovereign_subject_holds = ROOT
			}
			4518 = { country_or_non_sovereign_subject_holds = ROOT }
		}
		
		effect = {
			add_mil_power = 300
			4311 = {
				add_permanent_claim = ROOT
			}
			country_event = {
				id = flavor_dhenijanraj.8 #Chimera Banner Broken
			}
		}
	}
	
	R51_liberate_jade_mines = {
		icon = mission_spoils_of_war
		position = 10
		required_missions = {
			R51_shatter_the_chimera
		}
		
		provinces_to_highlight = {
			OR = {
				AND = {
					province_id = 4311
					NOT = { country_or_non_sovereign_subject_holds = ROOT }
				}
				AND = {
					OR = {
						superregion = rahen_superregion
						region = jade_mines_region
					}
					owned_by = R62
				}
				AND = {
					owned_by = ROOT
					has_any_hobgoblin_pop_trigger = yes
					OR = {
						local_autonomy = 50
						unrest = 1
					}
				}
			}
		}
		
		trigger = {
			4311 = {
				country_or_non_sovereign_subject_holds = ROOT
			}
			rahen_superregion = {
				type = all
				NOT = { owned_by = R62 }
			}
			jade_mines_region = {
				type = all
				NOT = { owned_by = R62 }
			}
			custom_trigger_tooltip = {
				tooltip = dhenijanraj_hobgoblin_subjugation_tt
				all_owned_province = {
					OR = {
						NOT = { has_any_hobgoblin_pop_trigger = yes }
						NOT = {
							local_autonomy = 50
							unrest = 1
						}
					}
				}
			}
		}
		
		effect = {
			add_stability = 1
			add_country_modifier = {
				name = R51_triumph_over_the_command #-5 national unrest
				duration = 18250
			}
			4311 = { add_dwarven_minority_size_effect = yes }
		}
	}
	
	R51_integrate_hobgoblins = {
		icon = mission_rice_farming
		position = 11
		required_missions = {
			R51_liberate_jade_mines
		}
		
		trigger = {
			estate_loyalty = {
				estate = estate_lowercastes
			 	loyalty = 60
	 	 	}
			has_country_modifier = racial_focus_hobgoblin
			OR = {
				medium_tolerance_hobgoblin_race_trigger = yes
				high_tolerance_hobgoblin_race_trigger = yes
			}
			custom_trigger_tooltip = {
				tooltip = dhenijanraj_hobgoblin_integration_1_tt
				num_of_provinces_owned_or_owned_by_non_sovereign_subjects_with = {
					value = 15
					has_any_hobgoblin_pop_trigger = yes
					has_manufactory_trigger = yes
					NOT = {
						unrest = 1
						devastation = 1
					}
				}
			}
		}
		
		effect = {
			medium_increase_of_hobgoblin_tolerance_effect = yes
			4530 = { change_culture = tiger_command }
			4531 = { change_culture = tiger_command }
			4630 = { change_culture = tiger_command }
		}
	}
	
	R51_hobgoblin_industry = {
		icon = mission_industrialize_bengal
		position = 12
		required_missions = {
			R51_integrate_hobgoblins
		}
		
		trigger = {
			estate_loyalty = {
				estate = estate_middlecastes
				loyalty = 60
			}
			high_tolerance_hobgoblin_race_trigger = yes
			accepted_culture = tiger_command
			num_of_provinces_owned_or_owned_by_non_sovereign_subjects_with = {
				value = 8
				culture = tiger_command
			}
			custom_trigger_tooltip = {
				tooltip = dhenijanraj_hobgoblin_integration_2_tt
				all_owned_province = {
					OR = {
						NOT = { culture_group = hobgoblin }
						culture = tiger_command
					}
				}
			}
		}
		
		effect = {
			4411 = { add_hobgoblin_minority_size_effect = yes }
			custom_tooltip = dhenijanraj_hobgoblin_middle_caste_tt
			set_country_flag = hobgoblin_in_middlecastes
		}
	}
	
	R51_hobgoblin_military = {
		icon = mission_order_in_the_domain
		position = 13
		required_missions = {
			R51_hobgoblin_industry
		}
		
		trigger = {
			estate_loyalty = {
		 	 	estate = estate_uppercastes
		 	 	loyalty = 60
			}
			high_tolerance_hobgoblin_race_trigger = yes
			army_professionalism = 0.80
			army_tradition = 80
			custom_trigger_tooltip = {
				tooltip = dhenijanraj_hobgoblin_integration_3_tt
				has_country_flag = blood_lotus_happened
			}
		}
		
		effect = {
			4397 = { add_hobgoblin_minority_size_effect = yes }
			4485 = { add_hobgoblin_minority_size_effect = yes }
			4435 = { add_hobgoblin_minority_size_effect = yes }
			set_country_flag = hobgoblin_in_uppercastes
			set_country_flag = dhenijanraj_tiger_command
			custom_tooltip = dhenijanraj_hobgoblin_upper_caste_tt
			custom_tooltip = dhenijanraj_tiger_command_reward_tt
			custom_tooltip = merc_elite_no_army_prof_tt
		}
	}
}
