hammerhome_1 = { 
	slot = 1
	generic = no
	ai = yes 
	potential = { 
		tag = Z36 # Hammerhome
	}
    has_country_shield = yes  
	
	Z36_the_castonath_survey = {
        icon = renovate_berlin     
		position = 3
		required_missions = { 
			Z36_securing_castonath_from_all_sides
		}
		
		provinces_to_highlight = {
			area = castonath_area
			NOT = { owned_by = ROOT }
		}

		trigger = {
			castonath_area = {
				type = all
				owned_by = ROOT
				is_city = yes
			}
			treasury = 500
			adm_power = 100
		}
		
		effect = {
			add_treasury = -500
			add_adm_power = -100
			country_event = { id = flavor_hammerhome.20 }
		}
	}

	Z36_irrigate_the_nath = {
        icon = mission_rb_import_potatoes 
		position = 6
		required_missions = { 
			Z36_the_castonath_survey
		}
		
		provinces_to_highlight = {
			OR = {
				province_id = 837
				province_id = 839
				province_id = 841
				province_id = 853
				province_id = 855
				province_id = 865
				province_id = 872
				province_id = 873
				province_id = 879
			}
		}

		trigger = {
			treasury = 1000
			adm_power = 50
			has_country_flag = castonath_excursion_done
			custom_trigger_tooltip = {
				tooltip = Z36_irrigate_the_nath_trigger_tt
				owns = 837
				owns = 839
				owns = 841
				owns = 853
				owns = 855
				owns = 865
				owns = 872
				owns = 873
				owns = 879
			}
		}
		
		effect = {
			add_treasury = -1000
			add_adm_power = -50
			837 = {
				add_permanent_province_modifier	= { 
					name = Z36_dwarven_irrigation
					duration = -1  
				}
			}				
			custom_tooltip = Z36_irrigate_the_nath_tt
			hidden_effect = {
				every_owned_province = {
					limit = {
						OR = {
							province_id = 839
							province_id = 841
							province_id = 853
							province_id = 855
							province_id = 865
							province_id = 872
							province_id = 873
							province_id = 879
						}
					}
					add_permanent_province_modifier	= { 
						name = Z36_dwarven_irrigation
						duration = -1  
					}
				}
			}
			hidden_effect = {
				every_owned_province = {
					limit = {
						OR = {
							province_id = 837
							province_id = 839
							province_id = 841
							province_id = 853
							province_id = 855
							province_id = 865
							province_id = 872
							province_id = 873
							province_id = 879							
						}
						NOT = { 
							OR = {
								trade_goods = cloth
								trade_goods = glass
								trade_goods = paper						
							} 
						}
					}
					change_trade_goods = grain	
				}
			}
		}
	}

	Z36_the_iron_hold = {
        icon = public_works
		position = 7
		required_missions = { 
			Z36_irrigate_the_nath
		}

		provinces_to_highlight = {
			area = castonath_area
			NOT = { owned_by = ROOT }
		}

		trigger = {
			castonath_area = {
				type = all
				owned_by = ROOT
				is_city = yes
			}
			treasury = 1500
			adm_power = 100
		}
		
		effect = {
			add_treasury = -1500
			add_adm_power = -100
			castonath_area = {
				add_permanent_province_modifier = { name = Z36_iron_hold duration = -1 }
			}
		}
	}

	Z36_excavate_marrhold = {
        icon = mission_mechanical_mining    
		position = 8
		required_missions = { 
			Z36_the_iron_hold
		}
		
		trigger = {
			owns = 4097
			treasury = 2000
			adm_power = 150
		}
		
		effect = {
			add_treasury = -2000
			add_adm_power = -150
			4097 = {
				add_permanent_province_modifier	 = { 
					name = Z36_balgaric_strip_mine
					duration = -1  
				}
			}
			country_event = { id = flavor_hammerhome.30 }
		}
	}

	Z36_a_river_of_smog = {
		icon = mission_rb_build_furnaces
		position = 9
		required_missions = { 
			Z36_excavate_marrhold
		}
		
		provinces_to_highlight = {
			OR = {
				province_id = 229
				province_id = 725
				province_id = 726
				province_id = 729
				province_id = 749
				province_id = 751
				province_id = 753				
			}			
		}

		trigger = {
			treasury = 3000
			adm_power = 200
			custom_trigger_tooltip = {
				tooltip = Z36_a_river_of_smog_trigger_tt_1
				owns = 229
				owns = 725
				owns = 726
				owns = 729
				owns = 749
				owns = 751
				owns = 753				
			}
			custom_trigger_tooltip = {
				tooltip = Z36_a_river_of_smog_trigger_tt_2
				OR = {
					has_institution	= manufactories
					all_owned_province = {
						OR = {
							NOT = {
								OR = {
									province_id = 229
									province_id = 725
									province_id = 726
									province_id = 729
									province_id = 749
									province_id = 751
									province_id = 753				
								}
							}			
							AND = {
								base_production = 8
								has_manufactory_trigger = yes
							}
						}
					}
				}
			}
		}
		
		effect = {
			add_treasury = -3000
			add_adm_power = -200
			
			229 = {
				add_permanent_province_modifier	= { 
					name = Z36_river_of_smog
					duration = -1  
				}
			}				
			custom_tooltip = Z36_a_river_of_smog_tt
			hidden_effect = {
				every_owned_province = {
					limit = {
						OR = {
							province_id = 725
							province_id = 726
							province_id = 729
							province_id = 749
							province_id = 751
							province_id = 753				
						}
					}
					add_permanent_province_modifier	= { 
						name = Z36_river_of_smog
						duration = -1  
					}
				}
			}
		}
	}
}

hammerhome_2 = {
    slot = 2            
    generic = no           
    ai = yes                 
	potential = { 
		tag = Z36 # Hammerhome
	}
    has_country_shield = yes  
	
	Z36_friends_below_ground = {
        icon = mission_monarch_diplomacy
        position = 3      
        required_missions = {
            Z36_securing_castonath_from_all_sides
		}
		
		trigger = {
			OR = { 
				I07 = { has_opinion = { who = ROOT value = 150 } }
				owns = 2863
			}
		}
		
		effect = {
			if = {
				limit = {
					I07 = {
						owns_core_province = 2863
					}
				}
				add_country_modifier = { 
					name = Z36_friends_below_ground_modifier
					duration = 9125
				}
			}
			if = {
				limit = {
					owns = 2863
				}
				khugdihr_area = {
					hidden_effect = {
						remove_core = ROOT
						add_core = I07
					}
					cede_province = I07
				}
				create_subject = {
					subject_type = autonomous_vassal
					subject = I07
				}
			}
		}
	}
	
	Z36_serpentspine_trade = {
        icon = sources_of_trade   
        position = 4  
        required_missions = {
            Z36_friends_below_ground
			Z36_take_northern_mines
		}
		
		trigger = {
			dip_power = 200
			home_trade_node = {
				trade_share = {
					country = ROOT
					share = 35
				}
			}
			2868 = {
				trade_share = {
					country = I07
					share = 35
				}
			}
		}
		
		effect = {
			add_dip_power = -200
			add_country_modifier = {
				name = Z36_revived_serpentspine_trade
				duration = 18250
			}
			I07 = {
				add_country_modifier = {
					name = Z36_revived_serpentspine_trade
					duration = 18250
				}
			}
			if = {
				limit = { 846 = { province_has_center_of_trade_of_level = 3 } }
				add_treasury = 250
			}
			else_if = {
				limit = { 846 = { province_has_center_of_trade_of_level = 2 } }
				846 = { add_center_of_trade_level = 1}
			}
			else = {
				846 = { add_center_of_trade_level = 1 }
			}
			if = {
				limit = {
					I07 = { 
						exists = yes 
						ai = yes 
					} 
				}
				I07 = { 
					add_treasury = 500 
					add_manpower = 10
				}
			}
		}
	}
	Z36_adventurers_north = {
        icon = mission_landsknecht_soldier
        position = 5
        required_missions = {
            Z36_serpentspine_trade
		}
		
		trigger = {
			estate_loyalty = { estate = estate_adventurers loyalty = 60 }
			has_estate_privilege = estate_adventurers_generous_quest_rewards
		}
		
		effect = {
			add_country_modifier = {
				name = Z36_adventurers_north_modifier_1
				duration = 9125
			}
			I07 = {
				add_country_modifier = {
					name = Z36_adventurers_north_modifier_2
					duration = 9125
				}
			}
		}
	}
	
	Z36_friendship_unbound = {
		icon = mission_nah_ravine_dwellers
		position = 6
		required_missions = {
			Z36_adventurers_north
		}
		
		trigger = {
			I07 = { has_opinion = { who = ROOT value = 200 } }
			OR = {
				AND = {
					I07 = { religion = regent_court }
					religion = regent_court
				}
				AND = {
					I07 = { religion = ancestor_worship  }
					religion = ancestor_worship 
				}
				dip_power = 100
			}
		}
		
		effect = {
			if = {
				limit = {
					religion = regent_court
					I07 = { religion = ancestor_worship }
				}
				add_dip_power = -100
			}
		
			I07 = { add_historical_friend = ROOT }
			ROOT = { add_historical_friend = I07 }
			add_country_modifier = {
				name = Z36_balgaric_friendship
				duration = 18250
			}
			I07 = {
				add_country_modifier = {
					name = Z36_balgaric_friendship
					duration = 18250
				}
			}
		}
	}
	
	Z36_hold_migrants = {
		icon = mission_homeless_children
		position = 7
		
		required_missions = {
			Z36_friendship_unbound
		}

		trigger = {
			dip_power = 100
			2863 = {
				development = 60
			}
		}

		effect = {
			add_dip_power = -100
			840 = {
				if = {
					limit = { 840 = { NOT = { culture = ROOT } } }
					change_culture = ROOT
				}
				if = {
					limit = { 840 = { NOT = { religion = ROOT } } }
					change_religion = ROOT
				}
				add_province_modifier = {
					name = Z36_hold_migrants_road
					duration = 9125
				}
			}
			847 = {
				if = {
					limit = { 847 = { NOT = { culture = ROOT } } }
					change_culture = ROOT
				}
				if = {
					limit = { 847 = { NOT = { religion = ROOT } } }
					change_religion = ROOT
				}
				add_province_modifier = {
					name = Z36_hold_migrants_road
					duration = 9125
				}
			}
			849 = {
				if = {
					limit = { 849 = { NOT = { culture = ROOT } } }
					change_culture = ROOT
				}
				if = {
					limit = { 849 = { NOT = { religion = ROOT } } }
					change_religion = ROOT
				}
				add_province_modifier = {
					name = Z36_hold_migrants_road
					duration = 9125
				}
			}
		}
	}
	
	Z36_dwarovar_industralization = {
		icon = mission_rb_prospect_for_coal
		position = 8
		required_missions = {
			Z36_hold_migrants
		}
		trigger = {
			num_of_owned_provinces_with = {
				value = 10
				has_manufactory_trigger = yes
			}
			I07 = {
				num_of_owned_provinces_with = {
					value = 10
					has_manufactory_trigger = yes
				}
			}
			adm_power = 300
		}
		effect = {
			add_adm_power = -300
			every_owned_province = {
				limit = {
					AND = {
						has_dwarven_minority_trigger = yes
						culture_group = dwarven
					}
				}
				add_province_modifier = {
					name = Z36_dwarovar_industralization_modifier
					duration = 18250
				}
			}
		}
	}
	
	Z36_balgaric_union = {
		icon = mission_diplomacy_missive
		position = 9
		required_missions = {
			Z36_dwarovar_industralization
		}
		trigger = {
			OR = {
				I07 = { 
					trust = { who = ROOT value = 100 }
				}
				AND = {
					I07 = {
						ai = no
					}
					I07 = {
						alliance_with = ROOT
					}
				}
				I07 = {
					is_subject_of = ROOT
				}
			}
		}
		effect = {
			if = {
				limit = {
					I07 = {
						is_subject_of = ROOT
					}
				}
				add_prestige = 25
			}
			else = {
				country_event = { id = flavor_hammerhome.2 }
			}
		}
	}
}

hammerhome_3 = {
    slot = 3            
    generic = no           
    ai = yes                 
	potential = { 
		tag = Z36 # Hammerhome
	}
    has_country_shield = yes  
	
	Z36_new_home_for_dwarves = {
        icon = mission_colonial      
        position = 1      
		
		provinces_to_highlight = {
			area = castonath_area
			NOT = { owned_by = ROOT }
		}

		trigger = {
			castonath_area = {
				type = all
				owned_by = ROOT
				is_city = yes
			}
		}
		
		effect = {
			add_country_modifier = { 
				name = Z36_new_home_for_dwarves 
				duration = 7300
			}
			set_capital = 833	
		}
	}
	
	Z36_securing_castonath_from_all_sides = {
        icon = mission_city_of_the_world's_desire    
        position = 2      
        required_missions = {
            Z36_new_home_for_dwarves
		}
		
		provinces_to_highlight = {
			area = castonath_area
			NOT = { has_fort_building_trigger  = yes }
		}

		trigger = {
			castonath_area = {
				type = all
				has_fort_building_trigger = yes
			}
		}

		effect = {
			castonath_area = {
				add_permanent_province_modifier	 = { 
					name = Z36_protecting_the_ancient_capital
					duration = -1  
				}
			}
			nortmere_area = {
				limit = {
					NOT = { is_core = ROOT }
					NOT = { owned_by = ROOT }
				}
				add_permanent_claim = ROOT 
			}
			southgate_area = {
				limit = {
					NOT = { is_core = ROOT }
					NOT = { owned_by = ROOT }
				}
				add_permanent_claim = ROOT 
			}
			trialmount_area = {
				limit = {
					NOT = { is_core = ROOT }
					NOT = { owned_by = ROOT }
				}
				add_permanent_claim = ROOT 
			}
			upper_nath_area = {
				limit = {
					NOT = { is_core = ROOT }
					NOT = { owned_by = ROOT }
				}
				add_permanent_claim = ROOT 
			}
			lower_nath_area = {
				limit = {
					NOT = { is_core = ROOT }
					NOT = { owned_by = ROOT }
				}
				add_permanent_claim = ROOT 
			}
		}
	}

	Z36_take_northern_mines = {
        icon = dalmatian_conquest
        position = 3 
        required_missions = {
            Z36_securing_castonath_from_all_sides
		}
		
		provinces_to_highlight = {
			OR = {
				area = upper_nath_area
				area = trialmount_area
			}
			NOT = { country_or_non_sovereign_subject_holds = ROOT }
		}

		trigger = {
			upper_nath_area = {
				type = all
				country_or_non_sovereign_subject_holds = ROOT
			}
			trialmount_area = {
				type = all
				country_or_non_sovereign_subject_holds = ROOT
			}
		}

		effect = {
			serpentsmarck_area = {
				limit = {
					NOT = { is_core = ROOT }
					NOT = { owned_by = ROOT }
				}
				add_permanent_claim = ROOT 
			}
			bradescker_area = {
				limit = {
					NOT = { is_core = ROOT }
					NOT = { owned_by = ROOT }
				}
				add_permanent_claim = ROOT 
			}
			steelhyl_area = {
				limit = {
					NOT = { is_core = ROOT }
					NOT = { owned_by = ROOT }
				}
				add_permanent_claim = ROOT 
			}
			coalwoud_area = {
				limit = {
					NOT = { is_core = ROOT }
					NOT = { owned_by = ROOT }
				}
				add_permanent_claim = ROOT 
			}
			clouded_wood_area = {
				limit = {
					NOT = { is_core = ROOT }
					NOT = { owned_by = ROOT }
				}
				add_permanent_claim = ROOT 
			}
		}
	}
	
	Z36_seize_the_white_walls = {
        icon = mission_great_wall      
        position = 4  
        required_missions = {
			Z36_take_northern_mines
		}
		
		provinces_to_highlight = {
			OR = {
				area = serpentsmarck_area
				area = bradescker_area
				area = steelhyl_area
				area = coalwoud_area
				area = clouded_wood_area
			}
			NOT = { country_or_non_sovereign_subject_holds = ROOT }
		}

		trigger = {
			serpentsmarck_area = {
				type = all
				country_or_non_sovereign_subject_holds = ROOT
			}
			bradescker_area = {
				type = all
				country_or_non_sovereign_subject_holds = ROOT
			}
			steelhyl_area = {
				type = all
				country_or_non_sovereign_subject_holds = ROOT
			}
			coalwoud_area = {
				type = all
				country_or_non_sovereign_subject_holds = ROOT
			}
			clouded_wood_area = {
				type = all
				country_or_non_sovereign_subject_holds = ROOT
			}
		}

		effect = {
			westgate_area = {
				limit = {
					NOT = { is_core = ROOT }
					NOT = { owned_by = ROOT }
				}
				add_permanent_claim = ROOT 
			}
			northyl_area = {
				limit = {
					NOT = { is_core = ROOT }
					NOT = { owned_by = ROOT }
				}
				add_permanent_claim = ROOT 
			}
			oldhaven_area = {
				limit = {
					NOT = { is_core = ROOT }
					NOT = { owned_by = ROOT }
				}
				add_permanent_claim = ROOT 
			}
			ardent_glade_area = {
				limit = {
					NOT = { is_core = ROOT }
					NOT = { owned_by = ROOT }
				}
				add_permanent_claim = ROOT 
			}
			756 = {
				if = {
					limit = {
						NOT = { is_core = ROOT }
						NOT = { owned_by = ROOT }
					}
					add_permanent_claim = ROOT				
				}
			}
		}
	}

	Z36_secure_the_eastern_woods = {
        icon = mission_alone_in_the_wood     
        position = 5 
        required_missions = {
			Z36_seize_the_white_walls
		}
		
		provinces_to_highlight = {
			OR = {
				province_id = 828
				province_id = 829
				province_id = 830
				province_id = 855
				province_id = 860
				province_id = 862
				province_id = 865
				province_id = 866
				province_id = 869
				province_id = 873
				province_id = 874
			} 
		}

		trigger = {
			custom_trigger_tooltip = {
				tooltip = Z36_secure_the_eastern_woods_trigger_tt
				owns = 828
				owns = 829
				owns = 830
				owns = 855
				owns = 860
				owns = 862
				owns = 865
				owns = 866
				owns = 869
				owns = 873
				owns = 874
			}		
		}

		effect = {
			sarwood_area = {
				limit = {
					NOT = { is_core = ROOT }
					NOT = { owned_by = ROOT }
				}
				add_permanent_claim = ROOT 
			}
			nortessord_area = {
				limit = {
					NOT = { is_core = ROOT }
					NOT = { owned_by = ROOT }
				}
				add_permanent_claim = ROOT 
			}
			esshyl_area = {
				limit = {
					NOT = { is_core = ROOT }
					NOT = { owned_by = ROOT }
				}
				add_permanent_claim = ROOT 
			}
		}
	}
	
	Z36_bulwark_against_the_north = {
        icon = mission_duel_snow   
        position = 6
        required_missions = {
			Z36_secure_the_eastern_woods
		}
		
		provinces_to_highlight = {
			province_group = white_walls # Huzzah, no need to make a new one.
			NOT = { owned_by = ROOT }			
		}

		trigger = {
			white_walls = {
				type = all
				country_or_non_sovereign_subject_holds = ROOT
			}
		}

		effect = {
			athfork_area = {
				limit = {
					NOT = { is_core = ROOT }
					NOT = { owned_by = ROOT }
				}
				add_permanent_claim = ROOT 
			}
			westwall_approach_area = {
				limit = {
					NOT = { is_core = ROOT }
					NOT = { owned_by = ROOT }
				}
				add_permanent_claim = ROOT 
			}
			ebonmarck_area = {
				limit = {
					NOT = { is_core = ROOT }
					NOT = { owned_by = ROOT }
				}
				add_permanent_claim = ROOT 
			}
		}
	}
	
	Z36_end_the_marrodic_reign = {
        icon = mission_conquer_50_development
        position = 7
        required_missions = {
			Z36_bulwark_against_the_north
		}
		
		provinces_to_highlight = {
			OR = {
				area = clouded_wood_area
				area = sarwood_area
				area = nortessord_area
				area = esshyl_area
			}
			NOT = { country_or_non_sovereign_subject_holds = ROOT }
		}

		trigger = {
			clouded_wood_area = {
				type = all
				country_or_non_sovereign_subject_holds = ROOT
			}
			sarwood_area = {
				type = all
				country_or_non_sovereign_subject_holds = ROOT
			}
			nortessord_area = {
				type = all
				country_or_non_sovereign_subject_holds = ROOT
			}
			esshyl_area = {
				type = all
				country_or_non_sovereign_subject_holds = ROOT
			}
		}

		effect = {
			marrhold_area = {
				limit = {
					NOT = { is_core = ROOT }
					NOT = { owned_by = ROOT }
				}
				add_permanent_claim = ROOT 
			}
			doewood_area = {
				limit = {
					NOT = { is_core = ROOT }
					NOT = { owned_by = ROOT }
				}
				add_permanent_claim = ROOT 
			}
			hornwood_area = {
				limit = {
					NOT = { is_core = ROOT }
					NOT = { owned_by = ROOT }
				}
				add_permanent_claim = ROOT 
			}
			dryadsdale_area = {
				limit = {
					NOT = { is_core = ROOT }
					NOT = { owned_by = ROOT }
				}
				add_permanent_claim = ROOT 
			}
		}
	}
	Z36_take_back_bal_mire = {
        icon = mission_fortify_rajputana       
        position = 8
        required_missions = {
			Z36_end_the_marrodic_reign
		}
		
		provinces_to_highlight = {
			OR = {
				area = athfork_area
				area = ebonmarck_area
				area = westwall_approach_area
			}
			NOT = { country_or_non_sovereign_subject_holds = ROOT }
		}

		trigger = {
			athfork_area = {
				type = all
				country_or_non_sovereign_subject_holds = ROOT
			}
			ebonmarck_area = {
				type = all
				country_or_non_sovereign_subject_holds = ROOT
			}
			westwall_approach_area = {
				type = all
				country_or_non_sovereign_subject_holds = ROOT
			}
		}

		effect = {
			cannwood_area = {
				limit = {
					NOT = { is_core = ROOT }
					NOT = { owned_by = ROOT }
				}
				add_permanent_claim = ROOT 
			}
			silvervord_area = {
				limit = {
					NOT = { is_core = ROOT }
					NOT = { owned_by = ROOT }
				}
				add_permanent_claim = ROOT 
			}
			falsemire_area = {
				limit = {
					NOT = { is_core = ROOT }
					NOT = { owned_by = ROOT }
				}
				add_permanent_claim = ROOT 
			}
			adenica_area = {
				limit = {
					NOT = { is_core = ROOT }
					NOT = { owned_by = ROOT }
				}
				add_permanent_claim = ROOT 
			}
			balmire_area = {
				limit = {
					NOT = { is_core = ROOT }
					NOT = { owned_by = ROOT }
				}
				add_permanent_claim = ROOT 
			}
		}
	}

	Z36_settling_balgars_marsh = {
        icon = mission_settlers_north_america
        position = 9
        required_missions = {
			Z36_take_back_bal_mire
		}
		
		provinces_to_highlight = {
			province_id = 229
			OR = {
				NOT = { country_or_non_sovereign_subject_holds = ROOT }
				has_province_modifier = ruined_castanorian_citadel
				NOT = { has_fort_building_trigger  = yes }
				if = {
					limit = { has_dlc = "Leviathan" }
					NOT = {
						has_great_project = {
							type = bal_mire
							tier = 1
						}
					}
				}
			}
		}

		trigger = {
			owns_core_province = 229
			mil_power = 50
			229 = {
				if = {
					limit = { has_dlc = "Leviathan" }
					OR = {
						has_great_project = {
							type = bal_mire
							tier = 1
						}
						has_great_project = {
							type = bal_mire
							tier = 2
						}
						has_great_project = {
							type = bal_mire
							tier = 3
						}
					}
				}
				NOT = {	has_province_modifier = ruined_castanorian_citadel }
				has_fort_building_trigger  = yes
			}
		}

		effect = {
			add_mil_power = -50
			229 = {
				if = {
					limit = { 
						NOT = { culture = ROOT }
					}
					change_culture = ROOT
				}
				if = {
					limit = { 
						NOT = { religion = ROOT }
					}
					change_religion = ROOT
				}
			}
		}
	}
	
	Z36_balgar_would_be_proud = {
		# TODO, need to do bypasses and such.
        icon = mission_feast
        position = 10
        required_missions = {
			Z36_a_river_of_smog
			Z36_balgaric_union
			Z36_a_city_of_all_dwarves_desire
			Z36_settling_balgars_marsh
			Z36_balgar_of_hammerhome
		}
		
		provinces_to_highlight = {
			OR = {
				province_id = 229
				province_id = 840
			}
			OR = {
				NOT = { country_or_non_sovereign_subject_holds = ROOT }
				has_province_modifier = ruined_castanorian_citadel
				NOT = { has_fort_building_trigger  = yes }
				if = {
					limit = { has_dlc = "Leviathan" }
					OR = {
						NOT = {
							has_great_project = {
								type = bal_mire
								tier = 3
							}
						}
						NOT = {
							has_great_project = {
								type = the_north_citadel
								tier = 3
							}
						}					
					}
				}
			}
		}

		trigger = {
			owns_core_province = 229
			229 = {
				if = {
					limit = { has_dlc = "Leviathan" }
					has_great_project = {
						type = bal_mire
						tier = 3
					}
				}
				NOT = {	has_province_modifier = ruined_castanorian_citadel }
				has_fort_building_trigger  = yes
			}
			owns_core_province = 840
			840 = {
				if = {
					limit = { has_dlc = "Leviathan" }
					has_great_project = {
						type = the_north_citadel
						tier = 3
					}
				}
				NOT = {	has_province_modifier = ruined_castanorian_citadel }
				has_fort_building_trigger  = yes
			}
			custom_trigger_tooltip = {
				tooltip = Z36_balgar_would_be_proud_trigger_tt
				has_country_modifier = escanni_wars_escanni_peace
			}
		}

		effect = {
			country_event = { id = flavor_hammerhome.6 } # Notification, upgrades Balgar.
			set_country_flag = Z36_expanded_missions
			override_country_name = BALGARIC_EMPIRE
			swap_non_generic_missions = yes
			if = {
				limit = { religion = regent_court }
				custom_tooltip = Z36_balgar_would_be_proud_balgar_upgrade
				hidden_effect = {
					set_country_flag = Z36_balgar_upgrade				
				}
				change_personal_deity = balgar_khug
			}
			else_if = {
				limit = { religion = corinite } # Heretic!
				add_country_modifier = { 
					name = Z36_corinite
					duration = -1
				}
			}
		}
	}	
}

hammerhome_4 = {
    slot = 4            
    generic = no           
    ai = yes                 
	potential = { 
		tag = Z36 # Hammerhome
	}
    has_country_shield = yes  
	
	Z36_bring_in_the_balgarsmiths = {
        icon = mission_priest_church      
        position = 3 
        required_missions = {
            Z36_securing_castonath_from_all_sides
		}
		
		provinces_to_highlight = {
			OR = {
				area = castonath_area
				province_id = 840
			}
			NOT = { has_building = temple }
			NOT = { owned_by = ROOT }			
		}

		trigger = {
			castonath_area = {
				type = all
				country_or_non_sovereign_subject_holds = ROOT
				has_building = temple
			}
			840 = {
				country_or_non_sovereign_subject_holds = ROOT
				has_building = temple
			}
		}

		effect = {
			hidden_effect = {
				set_country_flag = has_balgarsmiths			
			}
			country_event = { id = flavor_hammerhome.5 } # Bringing in the Balgarsmiths.
		}
	}
	
	Z36_erect_the_highforge = {
        icon = mission_smith   
        position = 4 
        required_missions = {
            Z36_bring_in_the_balgarsmiths
		}
		
		trigger = {
			estate_influence = { estate = estate_church influence = 45 }
			treasury = 1000
			adm_power = 200
			has_estate_privilege = estate_church_clerical_oversight
		}

		effect = {
			add_treasury = -1000
			add_adm_power = -200
			831 = {
				change_trade_goods = iron
				add_permanent_province_modifier	 = { 
					name = Z36_highforge
					duration = -1  
				}				
			}
		}
	}
	
	Z36_invite_the_asra_bankers = {
        icon = medici_bank_ledgers    
        position = 5
        required_missions = {
            Z36_erect_the_highforge
		}
		
		provinces_to_highlight = {
			OR = {
				AND = {
					province_id = 832
					AND = {
						NOT = { development = 40 }
						NOT = { province_has_center_of_trade_of_level = 3 }
						owned_by = ROOT
					}
				
				}
				AND = {
					AND = {
						province_id = 8
						NOT = {
							owner = { 
								has_opinion = { who = ROOT value = 150 } 
							}
						}
					}
					
				}
			}
		}
		
		trigger = {
			treasury = 1000
			832	= {
				OR = {
					development = 40
					province_has_center_of_trade_of_level = 3
				}
			}
			8 = {
				owner = { has_opinion = { who = ROOT value = 150 } }
			}
		}

		effect = {
			add_treasury = -1000
			832 = {
				add_permanent_province_modifier	 = { 
					name = Z36_asra_escanni_hq
					duration = -1  
				}				
			}
		}
	}
	
	Z36_balgarsmiths_in_the_administration = {
        icon = hand-picked_bureaucrats
        position = 6
        required_missions = {
            Z36_invite_the_asra_bankers
		}

		trigger = {
			adm_power = 100
			estate_loyalty = { estate = estate_church loyalty = 60 }
			religious_unity = 0.9
		}

		effect = {
			add_adm_power = -100
			if = {
				limit = {
					OR = {
						government = monarchy
						government = theocracy
					}
				}
				add_government_reform = balgarsmiths_administration
			}
			else = {
				add_country_modifier = {
					name = Z36_balgarsmiths_administration_republic # Not sure about this.
					duration = -1 
				}
			}
		}
	}

	Z36_administrating_a_dwarven_empire = {
        icon = mission_rb_monopolize_the_channel
        position = 7
        required_missions = {
            Z36_balgarsmiths_in_the_administration
		}

		trigger = {
			833 = {
				has_building = state_house
			}
			courthouse = 10
			development_in_provinces = {
				value = 100
				NOT = { culture_group = dwarven }
			}

		}

		effect = {
			custom_tooltip = Z36_administrating_a_dwarven_empire_tt
			hidden_effect = {
				every_owned_province = {
					limit = { 
						has_building = courthouse
						NOT = { culture_group = dwarven }
					}
					if = {
						limit = {
							has_dwarven_minority_trigger = yes
						}
						add_province_modifier = {
							name = Z36_reduced_state_maintenance
							duration = 18250
						}
					}
					else = {
						add_dwarven_minority_size_effect = yes
					}
				}
			}
		}
	}

	Z36_the_surface_clans = {
        icon = mission_rb_rein_in_the_highland_clans      
        position = 8
        required_missions = {
            Z36_administrating_a_dwarven_empire
		}

		trigger = {
			government_reform_progress = 50
		}

		effect = {
			if = {
				limit = {
					government = monarchy
				}
				add_government_reform = surface_clan_government # Why doesn't this work? Probably because I'm a doofus who didn't put in the actual name.
			}
			else = {
				add_country_modifier = {
					name = Z36_surface_clans_non_monarchy # Play around with values?
					duration = -1 
				}
			}
		}
	}
	
	Z36_a_city_of_all_dwarves_desire = {
        icon = mission_city_prosperity      
        position = 9
        required_missions = {
            Z36_the_surface_clans
		}
		
		provinces_to_highlight = {
			area = castonath_area
			NOT = { development = 50 }
			NOT = { has_province_modifier = Z36_iron_hold }
		}

		trigger = {
			castonath_area = {
				type = all
				has_province_modifier = Z36_iron_hold
			}
		}

		effect = {
			add_country_modifier = {
				name = Z36_dwarf_influx
				duration = 9125
			}
			castonath_area = {
				add_dwarven_minority_size_effect = yes #Change
			}
		}
	}
}

hammerhome_5 = {
	slot = 5
	generic = no
	ai = yes 
	potential = { 
		tag = Z36 # Hammerhome
	}
    has_country_shield = yes  
	
	Z36_revere_balgar = {
        icon = mission_hands_praying         
		position = 1

		trigger = {
			temple = 3
		}
		
		effect = {
			if = {
				limit = {
					NOT = { has_personal_deity = balgar }
				}
				change_personal_deity = balgar
			}
			else = {
				add_adm_power = 100
			}
		}
	}

	Z36_balgars_secret_stash = {
        icon = mission_build_up_to_force_limit    
		position = 3
		required_missions = { 
			Z36_revere_balgar
			Z36_securing_castonath_from_all_sides
		}
		
		provinces_to_highlight = {
			province_id = 843
			NOT = { owned_by = ROOT }
		}

		trigger = {
			owns_core_province = 843
			treasury = 500
			mil_power = 100
		}
		
		effect = {
			add_treasury = -500
			add_mil_power = -100
			country_event = { id = flavor_hammerhome.40 }
		}
	}

	Z36_revitalizing_the_white_walls = {
        icon = mission_great_wall   
		position = 6
		required_missions = { 
			Z36_balgars_secret_stash
		}
		
		provinces_to_highlight = {
			province_group = white_walls
			NOT = { owned_by = ROOT }			
		}

		trigger = {
			white_walls = {
				type = all
				owned_by = ROOT
				is_city = yes
			}
			treasury = 1000
			mil_power = 50
		}
		
		effect = {
			add_treasury = -1000
			add_mil_power = -50
			white_walls = {
				add_permanent_province_modifier	 = { 
					name = Z36_white_forts
					duration = -1  
				}
			}				
		}
	}

	Z36_rebuild_the_great_gates = {
        icon = fortress_of_belgrade   
		position = 7
		required_missions = { 
			Z36_revitalizing_the_white_walls
		}

		provinces_to_highlight = {
			OR = {
				province_id = 754
				province_id = 830
			}
			NOT = { owned_by = ROOT }
		}

		trigger = {
			owns_core_province = 754
			owns_core_province = 830
			treasury = 1500
			mil_power = 100
		}
		
		effect = {
			add_treasury = -1500
			add_mil_power = -100
			754 = { 
				if = {
					limit = { 754 = { NOT = { culture = ROOT } } }
					change_culture = ROOT
				}
				if = {
					limit = { 754 = { NOT = { religion = ROOT } } }
					change_religion = ROOT
				}
				add_permanent_province_modifier = { name = Z36_the_white_gates duration = -1 } 

			}
			830 = { 
				if = {
					limit = { 830 = { NOT = { culture = ROOT } } }
					change_culture = ROOT
				}
				if = {
					limit = { 830 = { NOT = { religion = ROOT } } }
					change_religion = ROOT
				}
				add_permanent_province_modifier = { name = Z36_the_white_gates duration = -1 }
			}
		}
	}

	Z36_create_the_serpents_hall = {
        icon = mission_guilds_of_barcelona       
		position = 8
		required_missions = { 
			Z36_rebuild_the_great_gates
		}
		
		trigger = {
			owns = 849
			treasury = 2000
			mil_power = 150
		}
		
		effect = {
			add_treasury = -2000
			add_mil_power = -150
			849 = {
				add_permanent_province_modifier = { 
					name = Z36_serpents_hall
					duration = -1  
				}
			} 
		}
	}

	Z36_balgar_of_hammerhome = {
        icon = mission_cathedral_cities 
		position = 9
		required_missions = { 
			Z36_create_the_serpents_hall
		}
		
		provinces_to_highlight = {
			province_id = 792
			NOT = { owned_by = ROOT }			
		}

		trigger = {
			owns_core_province = 792
			treasury = 3000
			adm_power = 200
		}
		
		effect = {
			add_treasury = -3000
			add_adm_power = -200
			792 = {
				add_permanent_province_modifier	 = { 
					name = Z36_balgar_of_hammerhome
					duration = -1  
				}
			}				
		}
	}
}

hammerhome_1b = { 
	slot = 1
	generic = no
	ai = yes 
	potential = { 
		tag = Z36 # Hammerhome
		has_country_flag = Z36_expanded_missions
	}
    has_country_shield = yes  
	
	Z36_balgars_masterwork = {
        icon = mission_grand_trunk_road_mug
		position = 11
		required_missions = { 
			Z36_balgar_would_be_proud
		}
		
		trigger = {
			I07 = {
				num_of_owned_provinces_with	= {
					value = 10
					has_terrain = dwarven_road
				}
			}
			2864 = {
				OR = {
					has_province_modifier = restored_rail
					has_province_modifier = advanced_rail
				}
			}
		}
		
		effect = {
			add_country_modifier = { 
				name = Z36_balgars_dream
				duration = 18250 			
			}
		}
	}

	Z36_contact_the_rail_masters = {
        icon = catholic_confraternity      
		position = 12
		required_missions = { 
			Z36_balgars_masterwork
		}
		
		provinces_to_highlight = {
			province_id = 2931
		}

		trigger = {
			OR = {
				I07 = {
					owns = 2931
				}
				2931 = {
					owner = {
						has_opinion = { who = ROOT value = 150 }
					}
				}
				2931 = {
					owner = {
						has_spy_network_from = {
							who = ROOT
							value = 50
						}
					}
				}				
			}
		}
		
		effect = {
			add_country_modifier = { 
				name = Z36_rail_dwarf_advice
				duration = 18250 			
			}
		}
	}
	Z36_the_castonath_trams = {
        icon = mission_renovate_kannauj      
		position = 13
		required_missions = { 
			Z36_contact_the_rail_masters
		}
		
		provinces_to_highlight = {
			area = castonath_area
			NOT = { development = 50 }
		}

		trigger = {
			treasury = 5000
		}
		
		effect = {
			add_treasury = -5000
			castonath_area = {
				add_permanent_province_modifier	 = { 
					name = Z36_horse_rail
					duration = -1  
				}
			}				
		}
	}

	Z36_dwarven_intercontinental = {
        icon = the_alpine_wall    
		position = 14
		required_missions = { 
			Z36_the_castonath_trams
		}

		provinces_to_highlight = {
			OR = {
				province_id = 229
				province_id = 232
				province_id = 756
				province_id = 757
				province_id = 759
				province_id = 760
				province_id = 774
				province_id = 776
				province_id = 777
				province_id = 778
				province_id = 782
				province_id = 783
				province_id = 785
				province_id = 834
				province_id = 835
				province_id = 840
				province_id = 847
				province_id = 849
			}
		}

		trigger = {
			custom_trigger_tooltip  = {
				tooltip = Z36_dwarven_intercontinental_trigger_tt
				owns = 229
				owns = 232
				owns = 756
				owns = 757
				owns = 759
				owns = 760
				owns = 774
				owns = 776
				owns = 777
				owns = 778
				owns = 782
				owns = 783
				owns = 785
				owns = 834
				owns = 835
				owns = 840
				owns = 847
				owns = 849
			}
			treasury = 20000
			manpower = 20
		}
		
		effect = {
			add_treasury = -20000
			add_manpower = -20
			756 = {
				add_permanent_province_modifier	 = { 
					name = Z36_horse_rail
					duration = -1  
				}
			}				
			custom_tooltip = Z36_dwarven_intercontinental_tt
			hidden_effect = {
				every_owned_province = {
					limit = {
						OR = {
							province_id = 229
							province_id = 232
							province_id = 756
							province_id = 757
							province_id = 759
							province_id = 760
							province_id = 774
							province_id = 776
							province_id = 777
							province_id = 778
							province_id = 782
							province_id = 783
							province_id = 785
							province_id = 834
							province_id = 835
							province_id = 840
							province_id = 847
							province_id = 849
						}
					}
					add_permanent_province_modifier	= { 
						name = Z36_horse_rail
						duration = -1  
					}
				}
			}
		}
	}

	Z36_the_marrodic_express = {
        icon = prosper_in_piedmont
		position = 15
		required_missions = { 
			Z36_dwarven_intercontinental
		}

		provinces_to_highlight = {
			OR = {
				province_id = 800
				province_id = 802
				province_id = 808
				province_id = 813
				province_id = 815
				province_id = 818
				province_id = 819
				province_id = 824
				province_id = 826
				province_id = 827
				province_id = 828
				province_id = 829
				province_id = 830
				province_id = 876
				province_id = 885
				province_id = 888
				province_id = 891
				province_id = 895
				province_id = 896
				province_id = 4097
			}
		}

		trigger = {
			custom_trigger_tooltip  = {
				tooltip = Z36_the_marrodic_express_trigger_tt
				owns = 800
				owns = 802
				owns = 808
				owns = 813
				owns = 815
				owns = 818
				owns = 819
				owns = 824
				owns = 826
				owns = 827
				owns = 828
				owns = 829
				owns = 830
				owns = 876
				owns = 885
				owns = 888
				owns = 891
				owns = 895
				owns = 896
				owns = 4097
			}
			treasury = 10000
			manpower = 20
			has_global_flag = marrhold_canal
		}
		
		effect = {
			add_treasury = -10000
			add_manpower = -20
			4097 = {
				add_permanent_province_modifier	 = { 
					name = Z36_horse_rail
					duration = -1  
				}
			}
			custom_tooltip = Z36_the_marrodic_express_tt
			hidden_effect = {
				every_owned_province = {
					limit = {
						OR = {
							province_id = 800
							province_id = 802
							province_id = 808
							province_id = 813
							province_id = 815
							province_id = 818
							province_id = 819
							province_id = 824
							province_id = 826
							province_id = 827
							province_id = 828
							province_id = 829
							province_id = 830
							province_id = 876
							province_id = 885
							province_id = 888
							province_id = 891
							province_id = 895
							province_id = 896
						}
					}
					add_permanent_province_modifier	= { 
						name = Z36_horse_rail
						duration = -1  
					}
				}
			}
		}
	}

	Z36_the_steam_tram = {
		icon = industrialized_rhineland
		position = 16
		required_missions = { 
			Z36_the_marrodic_express
			Z36_kraigs_forges_mission
		}
		
		provinces_to_highlight = {
			OR = {
				province_id = 730
				province_id = 802
				province_id = 848
				province_id = 862
			}
			NOT = { base_production = 15 }
		}

		trigger = {
			estate_loyalty = { estate = estate_artificers loyalty = 60 }
			treasury = 25000
			artifice_has_points_for_basic = yes # Might be too much?
			730 = {
				base_production = 15
			}
			802 = {
				base_production = 15
			}
			848 = {
				base_production = 15
			}
			862 = {
				base_production = 15
			}
		}
		
		effect = {
			add_treasury = -25000
			castonath_area = {
				remove_province_modifier = Z36_horse_rail
				add_permanent_province_modifier	 = { 
					name = Z36_surface_rail
					duration = -1  
				}
			}
			custom_tooltip = Z36_the_steam_tram_tt
			hidden_effect = {
				every_owned_province = {
					limit = {
						has_province_modifier = Z36_horse_rail
					}
					remove_province_modifier = Z36_horse_rail
					add_permanent_province_modifier	 = {
						name = Z36_surface_rail
						duration = -1
					}
				}
			}
			artifice_granted_basic = yes
			hidden_effect = {
				country_event = { id = flavor_hammerhome.7 days = 3650 }			
			}
		}
	}
}

hammerhome_2b = { 
	slot = 2
	generic = no
	ai = yes 
	potential = { 
		tag = Z36 # Hammerhome
		has_country_flag = Z36_expanded_missions
	}
    has_country_shield = yes  
	
	Z36_the_surface_rams = {
        icon = mission_rb_conquer_wales  
		position = 11
		required_missions = { 
			Z36_balgar_would_be_proud
		}
		
		provinces_to_highlight = {
			owned_by = ROOT
			trade_goods = livestock
		}

		trigger = {
			any_owned_province = {
				trade_goods = livestock
				base_production = 15	
			}
		}
		
		effect = {
			every_owned_province = {
				limit = {
					OR = {
						region = west_castanor_region
						region = south_castanor_region
						region = inner_castanor_region
					}
					trade_goods = livestock
				}
				add_permanent_province_modifier	 = { 
					name = Z36_surface_rams
					duration = -1  
				}
			}
		}
	}

	Z36_import_stone_paper = {
        icon = standardize_relazioni     
		position = 12
		required_missions = { 
			Z36_the_surface_rams
		}
		
		trigger = {
			OR = {
				I07 = {
					any_owned_province = {
						OR = {
							has_terrain = dwarven_hold 						
							has_terrain = dwarven_hold_surface  						
						}
						trade_goods = paper
					}
				}
				any_owned_province = {
					OR = {
						region = west_castanor_region
						region = south_castanor_region
						region = inner_castanor_region
					}
					trade_goods = paper
					base_production = 15
				}
				I07 = {
					owns = 4128
				}				
			}
		}
		
		effect = {
			833 = { 
				change_trade_goods = paper 
			}
			castonath_area = {
				add_permanent_province_modifier	 = { 
					name = Z36_stone_paper_reduced_maint
					duration = -1  
				}
			}
			add_country_modifier = { 
				name = Z36_imported_stone_paper
				duration = -1
			}
		}
	}
	Z36_begin_mass_mithril_imports = {
        icon = mission_mithril_cannons       
		position = 13
		required_missions = { 
			Z36_import_stone_paper
		}
		
		trigger = {
			I07 = {
				OR = {
					owns = 4236
					num_of_owned_provinces_with = {
						value = 3
						trade_goods = mithril
					}
				}
			}
			mil_power = 100
		}
		
		effect = {
			add_mil_power = -100
			849 = {
				add_permanent_province_modifier	= { 
					name = Z36_mithril_gates
					duration = -1  
				}
			}				
		}
	}


	Z36_the_twin_empires = {
		icon = mission_alliances
		position = 16
		required_missions = { 
			Z36_begin_mass_mithril_imports
		}
		
		trigger = {
			total_development = 1000
			I07 = {
				total_development = 1000
			}
		}
		
		effect = {
			custom_tooltip = Z36_the_twin_empires_tt
			hidden_effect = {
				if = { 
					limit = { I07 = { is_subject_of = ROOT } }
					create_subject = {
						subject_type = twin_empire
						subject = I07
					}
				}
				else = {
					I07 = {
						add_country_modifier = { 
							name = Z36_balgaric_union_strengthened
							duration = -1
						}
					}
					ROOT = {
						add_country_modifier = { 
							name = Z36_balgaric_union_strengthened
							duration = -1
						}
					}
				}
			}
		}
	}
}

hammerhome_3b = { 
	slot = 3
	generic = no
	ai = yes 
	potential = { 
		tag = Z36 # Hammerhome
		has_country_flag = Z36_expanded_missions
	}
    has_country_shield = yes  
	
	Z36_stone_stacking = {
        icon = mission_rb_college_of_justice     
		position = 11
		required_missions = {
			Z36_balgar_would_be_proud
		}
		
		trigger = {
			OR = {
				any_owned_province = {
					culture_group = halfling
				}
				any_known_country = {
					culture_group = halfling
					has_opinion = { who = ROOT value = 150 }
				}
			}
			treasury = 1000
			num_of_owned_provinces_with = {
				value = 5
				trade_goods = iron
			}
		}
		
		effect = {
			add_treasury = -1000
			832 = {
				add_halfling_minority_size_effect = yes
				add_permanent_province_modifier	= { 
					name = Z36_stone_stacking
					duration = -1  
				}
			}
		}
	}

	Z36_stripmine_the_north = {
        icon = mission_zambezi_gold     
		position = 12
		required_missions = {
			Z36_stone_stacking
		}
		
		provinces_to_highlight = {
			OR = {
				province_id = 742
				province_id = 743
				province_id = 849
				province_id = 850
				province_id = 852
				province_id = 858
				province_id = 860
				province_id = 861
				province_id = 863
				province_id = 871
				province_id = 881
				province_id = 884
				province_id = 894
				province_id = 895
				province_id = 896
				province_id = 897
			}
		}

		trigger = {
			manpower = 20
			treasury = 5000
			adm_power = 50
			custom_trigger_tooltip = {
				tooltip = Z36_stripmine_the_north_trigger_tt
				owns = 742
				owns = 743
				owns = 849
				owns = 850
				owns = 852
				owns = 858
				owns = 860
				owns = 861
				owns = 863
				owns = 871
				owns = 881
				owns = 884
				owns = 894
				owns = 895
				owns = 896
				owns = 897				
			}
		}
		
		effect = {
			add_manpower = -20
			add_treasury = -5000
			add_adm_power = -50
			custom_tooltip = Z36_stripmine_the_north_tt
			hidden_effect = {
				every_owned_province = {
					limit = {
						OR = {
							province_id = 742
							province_id = 743
							province_id = 849
							province_id = 850
							province_id = 852
							province_id = 858
							province_id = 860
							province_id = 861
							province_id = 863
							province_id = 871
							province_id = 881
							province_id = 884
							province_id = 894
							province_id = 895
							province_id = 896
							province_id = 897
						}
					}
					add_permanent_province_modifier	 = { 
						name = Z36_stripmine_goods_bonnus
						duration = -1  
					}
				}
			}
			hidden_effect = {
				every_owned_province = {
					limit = { 
						OR = {
							province_id = 742
							province_id = 743
							province_id = 849
							province_id = 850
							province_id = 852
							province_id = 858
							province_id = 860
							province_id = 861
							province_id = 863
							province_id = 871
							province_id = 881
							province_id = 884
							province_id = 894
							province_id = 895
							province_id = 896
							province_id = 897
						}
						NOT = { trade_goods = gold } 				
					}
					random_list = {
						65 = {
							change_trade_goods = iron
						}
						30 = {
							change_trade_goods = copper
						}
						5 = {
							change_trade_goods = gold
						}
					}
				}
			}
		}
	}
	Z36_relocate_the_half_orcs = {
        icon = mission_cope_with_refugees  
		position = 13
		required_missions = { 
			Z36_stripmine_the_north
		}
		
		trigger = {
			any_owned_province = {
				has_half_orcish_minority_trigger = yes			
			} 
			dip_power = 200
		}
		
		effect = {
			add_dip_power = -200
			custom_tooltip = Z36_relocate_the_half_orcs_tt
			hidden_effect = {
				every_owned_province = {
					limit = {
						has_half_orcish_minority_trigger = yes
					}
					remove_half_orcish_minority_size_effect = yes
					remove_half_orcish_minority_size_effect = yes
					829 = {
						add_base_production = 1
					}
				}
			}
			829 = {
				add_permanent_province_modifier	 = { 
					name = Z36_half_orc_slum
					duration = -1  
				}
				add_half_orcish_minority_size_effect = yes
				add_half_orcish_minority_size_effect = yes
			}				
		}
	}

	Z36_the_escanni_dark = {
        icon = mission_wine_monopolies       
		position = 14
		required_missions = { 
			Z36_relocate_the_half_orcs
		}
		trigger = {
			OR = {
				num_of_owned_provinces_with = {
					value = 5
					OR = {
						trade_goods = fungi
						trade_goods = serpentbloom 
					}
				}
				I07 = {
					num_of_owned_provinces_with = {
						value = 5
						OR = {
							trade_goods = fungi
							trade_goods = serpentbloom 
						}
					}
				}
				#any_known_country = { 	Doesn't seem to work?
					#OR = {
					#	production_leader = fungi
					#	production_leader = serpentbloom
					#}
					#has_opinion = { who = ROOT value = 150 }
				#}
			}
			dip_power = 100
			manpower = 5
		}
		
		effect = {
			add_dip_power = -100
			add_manpower = -5
			854 = {
				add_base_production = 4
				change_trade_goods = wine
				add_permanent_province_modifier	 = { 
					name = Z36_escanni_dark_prov_mod
					duration = -1  
				}
			}				
		}
	}

	Z36_kraigs_forges_mission = {
        icon = mission_rb_central_belt_coal_mining    
		position = 15
		required_missions = { 
			Z36_the_escanni_dark
		}

		provinces_to_highlight = {
			OR = {
				province_id = 730
				province_id = 802
				province_id = 848
				province_id = 862
			}
			NOT = { owned_by = ROOT }
			NOT = { has_building = furnace }
		}

		trigger = {
			estate_loyalty = { estate = estate_artificers loyalty = 50 }
			treasury = 25000
			730 = {
				owned_by = ROOT
				has_building = furnace
			}
			802 = {
				owned_by = ROOT
				has_building = furnace
			}
			848 = {
				owned_by = ROOT
				has_building = furnace
			}
			862 = {
				owned_by = ROOT
				has_building = furnace
			}
		}
		
		effect = {
			add_treasury = -25000
			730 = {
				add_permanent_province_modifier	 = { 
					name = Z36_kraig_forge_prov_mod
					duration = -1  
				}
				athfork_area = {
					add_permanent_province_modifier	 = { 
						name = Z36_kraig_forge_area_mod
						duration = -1  
					}
					
				}
			}				
			802 = {
				add_permanent_province_modifier	 = { 
					name = Z36_kraig_forge_prov_mod
					duration = -1  
				}
				dostans_way_area = {
					add_permanent_province_modifier	 = { 
						name = Z36_kraig_forge_area_mod
						duration = -1  
					}
					
				}
			}				
			848 = {
				add_permanent_province_modifier	 = { 
					name = Z36_kraig_forge_prov_mod
					duration = -1  
				}
				westgate_area = {
					add_permanent_province_modifier	 = { 
						name = Z36_kraig_forge_area_mod
						duration = -1  
					}
					
				}
			}				
			862 = {
				add_permanent_province_modifier	 = { 
					name = Z36_kraig_forge_prov_mod
					duration = -1  
				}
				coalwoud_area = {
					add_permanent_province_modifier	 = { 
						name = Z36_kraig_forge_area_mod
						duration = -1  
					}
				}
			}				
		}
	}

	Z36_rise_of_the_dirt_dwarf = {
		icon = mission_rice_farming
		position = 16
		required_missions = { 
			Z36_kraigs_forges_mission
		}
		
		provinces_to_highlight = {
			OR = {
				trade_goods = livestock
				trade_goods = grain
			}
			OR = {
				region = west_castanor_region
				region = south_castanor_region
				region = inner_castanor_region
			}
			NOT = { base_production = 10 }
		}

		trigger = {
			num_of_owned_provinces_with = {
				value = 15
				OR = {
					trade_goods = livestock
					trade_goods = grain
				}
				OR = {
					region = west_castanor_region
					region = south_castanor_region
					region = inner_castanor_region
				}
				base_production = 10
			}
		}
		
		effect = {
			custom_tooltip = Z36_rise_of_the_dirt_dwarf_tt
			hidden_effect = {
				every_owned_province = {
					limit = {
						OR = {
							trade_goods = livestock
							trade_goods = grain
						}
						base_production = 10
						OR = {
							region = west_castanor_region
							region = south_castanor_region
							region = inner_castanor_region
						}
					}
					add_dwarven_minority_size_effect = yes
					add_permanent_province_modifier	 = { 
						name = Z36_dirt_dwarf_expertise
						duration = -1  
					}
				}
			}
		}
	}
	
	Z36_in_the_citadel_of_the_surface_king = {
		icon = mission_thinking_king
		position = 16
		required_missions = { 
			Z36_the_steam_tram
			Z36_the_twin_empires
			Z36_rise_of_the_dirt_dwarf
			Z36_a_second_upheaval
			Z36_the_steel_walls
		}
		
		trigger = {
			# Nothing.
		}
		
		effect = {
			country_event = { id = flavor_hammerhome.8 }
		}
	}
}

hammerhome_4b = {
	slot = 4
	generic = no
	ai = yes 
	potential = { 
		tag = Z36 # Hammerhome
		has_country_flag = Z36_expanded_missions
	}
    has_country_shield = yes  
	
	Z36_balgars_gifts_regiven = {
        icon = mission_mal_riches_of_trade      
		position = 11
		required_missions = { 
			Z36_balgar_would_be_proud
		}
		
		trigger = {
			num_of_owned_provinces_with = {
				value = 25
				NOT = { culture_group = dwarven }
				OR = {
					has_manufactory_trigger = yes
					has_production_building_trigger = yes
				}
			}
			num_of_owned_provinces_with = {
				value = 100
				NOT = { culture_group = dwarven }
			}
			dip_power = 200
		}
		
		effect = {
			add_dip_power = -200
			custom_tooltip = Z36_balgars_gifts_regiven_tt
			hidden_effect = {
				every_owned_province = {
					limit = {
						NOT = { culture_group = dwarven }
					}
					add_province_modifier = { 
						name = Z36_balgars_gifts
						duration = 18250
					}
				}
			}
		}
	}

	Z36_kraigs_bravery_reignited = {
        icon = mission_rb_unite_the_clans
		position = 12
		required_missions = { 
			Z36_balgars_gifts_regiven
		}
		
		trigger = {
			num_of_owned_provinces_with = {
				value = 30
				has_human_majority_trigger = yes
				base_manpower = 10
			}
			mil_power = 100
		}
		
		effect = {
			add_mil_power = -100
			add_country_modifier = { 
				name = Z36_human_auxiliaries
				duration = -1  
			}
		}
	}
	
	Z36_uplift_the_smallkin = {
        icon = mission_have_manufactories
		position = 13
		required_missions = { 
			Z36_kraigs_bravery_reignited
		}
		
		provinces_to_highlight = {
			owned_by = ROOT
			has_halfling_majority_trigger = yes
			NOT = {
				OR = {
					has_manufactory_trigger = yes
					has_production_building_trigger = yes
				}
			}
		}
		
		trigger = {
			OR = {
				any_owned_province = { 
					has_halfling_majority_trigger = yes
				}
				owns = 766
			}
			custom_trigger_tooltip = {
				tooltip = Z36_uplift_the_smallkin_trigger_tt
				all_owned_province = {
					OR = {
						NOT = { has_halfling_majority_trigger = yes }
						has_manufactory_trigger = yes
						has_production_building_trigger = yes
					}
				}
			}
		}
		
		effect = {
			766 = {
				add_province_modifier = { 
					name = Z36_halfling_industrialism
					duration = -1
				}				
			}
			custom_tooltip = Z36_uplift_the_smallkin_tt
			hidden_effect = {
				every_owned_province = {
					limit = {
						AND = {
							has_halfling_majority_trigger = yes
							not = { province_id = 766 }
						}
					}
					add_province_modifier = {
						name = Z36_halfling_industrialism
						duration = -1
					}
				}
			}
		}
	}

	Z36_a_second_upheaval = {
		icon = mission_industria_sedera
		position = 16
		required_missions = { 
			Z36_kraigs_forges_mission
			Z36_uplift_the_smallkin
		}
		trigger = {
			num_of_owned_provinces_with = {
				value = 50
				NOT = { culture_group = dwarven }
				OR = {
					has_manufactory_trigger = yes
					has_production_building_trigger = yes
				}
			}
			num_of_owned_provinces_with = {
				value = 100
				NOT = { culture_group = dwarven }
			}
			dip_power = 500
		}
		
		effect = {
			add_dip_power = -500
			custom_tooltip = Z36_a_second_upheaval_tt
			hidden_effect = {
				every_owned_province = {
					limit = {
						NOT = { has_human_majority_trigger = yes }
						OR = {
							has_manufactory_trigger = yes
							has_production_building_trigger = yes
						}
					}
					add_human_minority_size_effect = yes
				}
			}
			add_country_modifier = { 
				name = Z36_the_second_upheaval
				duration = -1
			}
		}
	}
}

hammerhome_5b = { 
	slot = 5
	generic = no
	ai = yes 
	potential = { 
		tag = Z36 # Hammerhome
		has_country_flag = Z36_expanded_missions
	}
    has_country_shield = yes  
	
	Z36_kraigs_masterwork = {
        icon = fortify_the_passes     
		position = 11
		required_missions = { 
			Z36_balgar_would_be_proud
		}
		
		provinces_to_highlight = {
			OR = {
				province_id = 230
				province_id = 229
				province_id = 231
				province_id = 248
				province_id = 355
				province_id = 358
				province_id = 710
				province_id = 725
				province_id = 726
				province_id = 730
				province_id = 732
				province_id = 741
				province_id = 742
				province_id = 778
				province_id = 779
			}
		}
		
		trigger = {
			treasury = 5000
			adm_power = 50
			OR = {
				dynasty = "Balgarsblood"
				num_of_owned_provinces_with = {
					value = 8
					province_group = white_walls
					has_fort_building_trigger = yes
				}
			}
			custom_trigger_tooltip = {
				tooltip = Z36_kraigs_masterwork_trigger_tt
				owns = 230
				owns = 229
				owns = 231
				owns = 248
				owns = 355
				owns = 358
				owns = 710
				owns = 725
				owns = 726
				owns = 730
				owns = 732
				owns = 741
				owns = 742
				owns = 778
				owns = 779
			}
		}
		
		effect = {
			add_treasury = -5000
			add_adm_power = -50
			229 = {
				add_permanent_province_modifier	 = { 
					name = Z36_steel_walls_1
					duration = -1  
				}				
			}
			custom_tooltip = Z36_kraigs_masterwork_tt
			hidden_effect = {
				every_owned_province = {
					limit = {
						OR = {
							province_id = 230
							province_id = 229
							province_id = 231
							province_id = 248
							province_id = 355
							province_id = 358
							province_id = 710
							province_id = 725
							province_id = 726
							province_id = 730
							province_id = 732
							province_id = 741
							province_id = 742
							province_id = 778
							province_id = 779
						}
					}
					add_permanent_province_modifier	= { 
						name = Z36_steel_walls_1
						duration = -1  
					}
				}
			}
		}
	}

	Z36_supply_the_construction = {
        icon = mission_machine_of_war    
		position = 13
		required_missions = { 
			Z36_kraigs_masterwork
			Z36_stripmine_the_north
		}

		provinces_to_highlight = {
			OR = {
				province_id = 230
				province_id = 229
				province_id = 231
				province_id = 248
				province_id = 355
				province_id = 358
				province_id = 710
				province_id = 725
				province_id = 726
				province_id = 730
				province_id = 732
				province_id = 741
				province_id = 742
				province_id = 778
				province_id = 779
			}
		}
		
		trigger = {
			OR = {
				AND = {
					num_of_owned_provinces_with = {
						value = 10
						base_production = 10
						trade_goods = iron
					}
					treasury = 5000
				}
				treasury = 10000
			}
		}
		
		effect = {
			229 = {
				remove_province_modifier = Z36_steel_walls_1
				add_permanent_province_modifier	 = { 
					name = Z36_steel_walls_2
					duration = -1  
				}				
			}			
			custom_tooltip = Z36_supply_the_construction_tt
			hidden_effect = {
				every_owned_province = {
					limit = {
						has_province_modifier = Z36_steel_walls_1
					}
					remove_province_modifier = Z36_steel_walls_1
					add_permanent_province_modifier = { 
						name = Z36_steel_walls_2
						duration = -1  
					}
				}			
			}
			if = {
				limit = {
					num_of_owned_provinces_with = {
						value = 10
						base_production = 10
						trade_goods = iron
					}
				}
				add_treasury = -5000
			}
			else = {
				add_treasury = -10000
			}
		}
	}

	Z36_begin_the_initial_foundations = {
        icon = mission_pue_chaco_roads   
		position = 15
		required_missions = { 
			Z36_supply_the_construction
		}

		trigger = {
			treasury = 10000
			adm_power = 400
			dip_power = 200
			manpower = 25
		}
		
		effect = {
			add_treasury = -10000
			add_adm_power = -400
			add_dip_power = -200
			add_manpower = -25
			custom_tooltip = Z36_begin_the_initial_foundations_tt
			every_owned_province = {
				limit = {
					has_province_modifier = Z36_steel_walls_2
				}
				remove_province_modifier = Z36_steel_walls_2
				add_province_modifier = {				
					name = Z36_steel_walls_2
					duration = 7300 
				}
				add_dwarven_minority_size_effect = yes
			}
		}
	}

	Z36_the_steel_walls = {
		icon = mission_portuguese_oman
		position = 16
		required_missions = { 
			Z36_begin_the_initial_foundations
		}

		provinces_to_highlight = {
			OR = {
				province_id = 230
				province_id = 229
				province_id = 231
				province_id = 248
				province_id = 355
				province_id = 358
				province_id = 710
				province_id = 725
				province_id = 726
				province_id = 730
				province_id = 732
				province_id = 741
				province_id = 742
				province_id = 778
				province_id = 779
			}
		}
		
		trigger = {
			custom_trigger_tooltip = {
				tooltip = Z36_the_steel_walls_trigger_tt
				all_owned_province = {
					OR = {
						NOT = {
							OR = {
								province_id = 230
								province_id = 229
								province_id = 231
								province_id = 248
								province_id = 355
								province_id = 358
								province_id = 710
								province_id = 725
								province_id = 726
								province_id = 730
								province_id = 732
								province_id = 741
								province_id = 742
								province_id = 778
								province_id = 779
							}
						}
						AND = {
							owned_by = ROOT
							NOT = { devastation = 1 } # Does this work like this?
							NOT = { has_province_modifier = Z36_steel_walls_2 }
						}
					}
				}
			}
			manpower = 50
			treasury = 25000
		}
		
		effect = {
			add_manpower = -50
			add_treasury = -25000
			229 = {
				add_permanent_province_modifier	 = { 
					name = Z36_steel_walls_fin
					duration = -1  
				}				
			}
			custom_tooltip = Z36_the_steel_walls_tt
			hidden_effect = {
				every_owned_province = {
					limit = {
						OR = {
							province_id = 230
							province_id = 229
							province_id = 231
							province_id = 248
							province_id = 355
							province_id = 358
							province_id = 710
							province_id = 725
							province_id = 726
							province_id = 730
							province_id = 732
							province_id = 741
							province_id = 742
							province_id = 778
							province_id = 779
						}
					}
					add_permanent_province_modifier	= { 
						name = Z36_steel_walls_fin
						duration = -1  
					}
				}
			}
		}
	}
}