################################################
##               Creator: Tators              ##
################################################

HonSai_1 = {
	slot = 1
	generic = no
	ai = yes
	has_country_shield = yes
	potential = {
		tag = Y66
	}
	
	Y66_the_coalition_victory = {
		icon = mission_rajendras_ambition
		required_missions = {
			Y66_the_internal_strife
		}
		position = 2
		
		provinces_to_highlight = {
			OR = {
				AND = {
					OR = {
						province_id = 4699
						province_id = 4701
						province_id = 4961
					}
					NOT = { owned_by = ROOT }
				}
				AND = { 
					area = harumbasai_area
					NOT = { owned_by = Y76 }
				}
			}
		}
		
		trigger = {
			OR = {
				alliance_with = Y76
				Y76 = { is_subject_of = ROOT }
			}
			4699 = { owned_by = ROOT } #cores owned by pinghoi from hon sai and hebat hari
			4701 = { owned_by = ROOT }
			4961 = { owned_by = ROOT }
			harumbasai_area = {
				type = all
				owned_by = Y76
			}
		}
		
		effect = {
			add_trust = {
				who = Y76
				value = 10
				mutual = yes
			}
		}
	}
	
	Y66_the_solemn_oath = {
		icon = mission_rajput_mansabdars
		required_missions = {
			Y66_the_coalition_victory
		}
		position = 3
		
		provinces_to_highlight = {
			owned_by = Y76
			OR = {
				NOT = { Y76 = { trust = { who = ROOT value = 80 } } }
				NOT = { ROOT = { has_spy_network_in = { who = Y76 value = 50 } } }
			}
			NOT = { Y76 = { is_subject_of = ROOT } }
		}
		
		trigger = {
			OR = {
				AND = {
					Y76 = { 
						trust = { 
							who = ROOT 
							value = 80 
						} 
					}	
					has_spy_network_in = {
						who = Y76
						value = 50
					}
					alliance_with = Y76
				}
				Y76 = { is_subject_of = ROOT }
			}
		}
		
		effect = {
			if = {
				limit = {
					Y76 = { 
						NOT = { 
							is_subject_of = ROOT
						}
					}
				}
				custom_tooltip = the_solemn_oath_tt
				hidden_effect = {
					Y76 = {
						country_event = { 
							id = flavor_honsai.9 #asking hebat hari to be a vassal
						}
					}
				}
			}
			else = {
				add_prestige = 10
			}
			custom_tooltip = new_decision_ghostemperor_tt
			set_country_flag = hebat_hari_practitioner
		}
	}
	
	Y66_the_coastal_defense_network = {
		icon = mission_occupy_alexandria
		required_missions = {
			Y66_the_reborn_kingdom
		}
		position = 6
		
		trigger = {
			4701 = { 
				has_coastal_defence_building = yes
			}
			navy_size_percentage = 0.75
		}
		
		effect = {
			country_event = { 
				id = flavor_honsai.18 #Choose the pirate to atack
				days = 0
			}
			custom_tooltip = honsai_reward_tt
			hidden_effect = {
				change_variable = {            
					which = honsai_reward
					value = 1
				}
			}
		}
	}
	
	Y66_the_pirates = {
		icon = mission_coromandel_expansion
		required_missions = {
			Y66_the_coastal_defense_network
		}
		position = 7
		
		trigger = {
			OR = {
				Y53 = { is_subject_of = ROOT } #pruhakin
				Y64 = { is_subject_of = ROOT } #pinghoi
			}			
		}
		effect = {
			if = { #pruhakin
				limit = {
					has_country_flag = pruhakin_chosen
				}
				custom_tooltip = the_pirates_1_tt
				hidden_effect = {
					south_haless_superregion = {
						limit = {
							NOT = { is_core = Y53 }
							NOT = { is_permanent_claim = Y53 }
							owned_by = Y64
						}
						add_permanent_claim = Y53
					}
				}
			}
			else_if = {
				limit = { #pinghoi
					has_country_flag = pinghoi_chosen
				}
				custom_tooltip = the_pirates_2_tt
				hidden_effect = {
					bomdan_region = {
						limit = {
							NOT = { is_core = Y64 }
							NOT = { is_permanent_claim = Y64 }
							owned_by = Y53
						}
						add_permanent_claim = Y64
					}
				}
			}
			4701 = { #Cay cam sinh
				add_province_modifier = { 
					name = honsai_friendly_pirate_outpost 
					duration = -1
				}
			}
			custom_tooltip = honsai_reward_tt
			hidden_effect = {
				change_variable = {            
					which = honsai_reward
					value = 1
				}
			}
		}
	}
	
	Y66_the_pirate_wars = {
		icon = mission_sponsor_piracy
		required_missions = {
			Y66_the_pirates
		}
		position = 8
		trigger = {
			if = {
				limit = {
					has_country_flag = pruhakin_chosen
				}
				NOT = { exists = Y64 }
			}
			else_if = {
				limit = {
					has_country_flag = pinghoi_chosen
				}
				NOT = { exists = Y53 }
			}
		}
		effect = {
			add_country_modifier = {
				name = honsai_pirate_free_waters
				duration = -1
			}
			add_country_modifier = {
				name = honsai_pirate_expertise
				duration = 18250
			}
			custom_tooltip = the_pirate_wars_tt
			hidden_effect  = {
				bomdan_region = { 
					limit = {
						culture = gon
						NOT = { is_core = ROOT }
						NOT = { is_permanent_claim = ROOT }
					}
					add_permanent_claim = ROOT
				}
			}
			if = {
				limit = {
					has_country_flag = pruhakin_chosen
				}
				Y53 = {
					add_country_modifier = {
						name = honsai_loyal_pirate_subject
						duration = -1
					}
					add_country_modifier = {
						name = honsai_colonize_the_ringlet_isles
						duration = 18250
					}
				}
			}
			else_if = {
				limit = {
					has_country_flag = pinghoi_chosen
				}
				Y64 = {
					add_country_modifier = {
						name = honsai_loyal_pirate_subject
						duration = -1
					}
					add_country_modifier = {
						name = honsai_colonize_the_ringlet_isles
						duration = 18250
					}					
				}
			}
			custom_tooltip = honsai_reward_tt
			hidden_effect = {
				change_variable = {            
					which = honsai_reward
					value = 1
				}
			}
		}
	}
	
	Y66_the_fate_of_the_gon = {
		icon = mission_consume_the_baghels
		required_missions = {
			Y66_the_pirate_wars
		}
		position = 9
		
		provinces_to_highlight = {
			region = bomdan_region
			culture = gon
			NOT = { country_or_non_sovereign_subject_holds = ROOT }
		}	
		
		trigger = {
			bomdan_region = { 
				type = all
				OR = {
					country_or_non_sovereign_subject_holds = ROOT
					NOT = { culture = gon }
				}
			}
		}
		
		effect = {
			custom_tooltip = the_fate_of_the_gon_tt
			hidden_effect = {
				bomdan_region = {
					limit = {
						culture = gon
						owner = { is_subject_of = ROOT }
					}
					cede_province = ROOT
				}
				every_owned_province = {
					limit = {
						culture = gon
					}
					add_nationalism = -5
					add_province_modifier = { 
						name = honsai_accelerated_integration
						duration = 3650 
					}
					add_core = ROOT
					if = {
						limit = {
							Y53 =  { is_subject_of = ROOT }
							is_core = Y53
						}
						remove_core = Y53
					}
					if = {
						limit = {
							Y64 =  { is_subject_of = ROOT }
							is_core = Y64
						}
						remove_core = Y64
					}
					if = {
						limit = {
							Y58 =  { is_subject_of = ROOT }
							is_core = Y58
						}
						remove_core = Y58
					}
					if = {
						limit = {
							Y51 =  { is_subject_of = ROOT }
							is_core = Y51
						}
						remove_core = Y51
					} 
				}
			}
			banhlubei_area = {
				limit = {
					NOT = { is_core = ROOT }
					NOT = { is_permanent_claim = ROOT }
				}
				add_permanent_claim = ROOT
			}
			4802 = { #Risrong
				if = {
					limit = {
						NOT = { is_core = ROOT }
						NOT = { is_permanent_claim = ROOT }
					}
					add_permanent_claim = ROOT
				}
			}
			custom_tooltip = honsai_reward_tt
			hidden_effect = {
				change_variable = {            
					which = honsai_reward
					value = 1
				}
			}
		}
	}
	
	Y66_the_defense_act = {
		icon = mission_fortifying_the_plain
		required_missions = {
			Y66_the_protector
		}
		position = 11
		trigger = {
			mil_power = 100
			treasury = 750			
		}
		effect = {
			add_mil_power = -100
			add_treasury = -750
			4698 = {
				add_province_modifier = {
					name = honsai_taibo_construction
					duration = -1
				}			
			}
			custom_tooltip = the_defense_act_tt
			hidden_effect = {
				country_event = {
					id = flavor_honsai.26
					days = 1825	
				}
			}
		}
	}
	
	Y66_the_artillery_doctrine = {
		icon = mission_cannons_firing
		required_missions = {
			Y66_the_defense_act
		}
		position = 12
		trigger = {
			army_professionalism = 0.5
			has_global_modifier_value = {
				which = artillery_power
				value = 0.25
			}
		}
		effect = {
			add_country_modifier = {
				name = honsai_militaryreform_training
				duration = -1
			}
			custom_tooltip = the_arillery_tt
			hidden_effect = {
				country_event = {
					id = flavor_honsai.27 #Armyreform 2 completed
					days = 1825
				}
			}
		}
	}
	Y66_the_subjugation = {
		icon = mission_mnd_siam_subjugate_vietnam
		required_missions = {
			Y66_the_western_welfare_zone
		}
		position = 13
		
		provinces_to_highlight = {
			region = bomdan_region
			OR = {
				AND = {
					OR = { 
						area = banhlubei_area
						culture = gon
						province_id = 4802 #Risrong
					}
					NOT = { owned_by = ROOT }
				}
				AND = {
					NOT = { area = banhlubei_area }
					NOT = { culture = gon }
					NOT = { province_id = 4802 }
					NOT = { owner = { is_subject_of = ROOT } }
				}
			}
		}
		
		trigger = {
			bomdan_region = {
				type = all
				OR = {
					AND = {
						OR = { 
							area = banhlubei_area
							culture = gon
							province_id = 4802 #Risrong
						}
						owned_by = ROOT
					}
					AND = {
						NOT = { area = banhlubei_area }
						NOT = { culture = gon }
						NOT = { province_id = 4802 }
						owner = { is_subject_of = ROOT }
					}
				}
			}
		}
		effect = {
			custom_tooltip = the_subjugation2_tt
			hidden_effect = {
				every_owned_province = { 
					limit = {
						culture = sikai
					}
					add_province_modifier = {
						name = honsai_postal_network
						duration = -1
					}
				}
			}
			custom_tooltip = the_subjugation_tt			
		}
	}
}

HonSai_2 = {
	slot = 2
	generic = no
	ai = yes
	has_country_shield = yes
	potential = {
		tag = Y66
	}
	
	Y66_the_reconquest = {
		icon = mission_conquer_siam
		required_missions = {
			Y66_the_internal_strife
		}
		position = 2
		
		provinces_to_highlight = {
			area = nagon_area
			NOT = { owned_by = ROOT }
		}
		
		trigger = {
			nagon_area = {
				type = all
				owned_by = ROOT
			}
		}
		effect = {
			nagon_area = { 
				add_nationalism = -5
				add_province_modifier = { 
					name = honsai_accelerated_integration
					duration = 3650 
				} 
			}
		}
	}
	
	Y66_the_unity = {
		icon = mission_rajput_trade_guilds
		required_missions = {
			Y66_the_reconquest
		}
		position = 3
		
		trigger = {
			accepted_culture = khom 
			accepted_culture = phonan
			accepted_culture = gon			
		}
		effect = {
			4703 = { #Tuan Caoban
				add_base_tax = 1
				add_base_production = 1
				add_base_manpower = 1
			}
			4771 = { #Mariuk
				add_base_tax = 1
				add_base_production = 1
				add_base_manpower = 1
			}
			4763 = { #Hubai Mong
				add_base_tax = 1
				add_base_production = 1
				add_base_manpower = 1
			}
		}
	}
	
	Y66_the_succession = {
		icon = mission_restore_trade_superiority
		required_missions = {
			Y66_the_reborn_kingdom
		}
		position = 6
		trigger = {
			adm_power = 200
			dip_power = 200
			mil_power = 200
		}
		effect = {
			add_adm_power = -200
			add_dip_power = -200
			add_mil_power = -200
			country_event = {
				id = flavor_honsai.19 #Prepare_for_Succession
				days = 0
			}
			custom_tooltip = the_succession_tt
			set_country_flag = honsai_succession
		}
	}
	
	Y66_the_navy = {
		icon = mission_to_the_south_china_sea
		required_missions = {
			Y66_the_coastal_defense_network
		}
		position = 7
		trigger = {
			num_of_owned_provinces_with = {
				value = 5
				has_shipyard_building_trigger  = yes
			}
			num_of_heavy_ship = 5	
			num_of_light_ship = 20

		}
		effect = {
			add_country_modifier = {
				name = honsai_trade_fleet
				duration = 18250
			}
			4701 = { #Cay cam sinh
				add_center_of_trade_level = 1
			}
			custom_tooltip = honsai_reward_tt
			hidden_effect = {
				change_variable = {            
					which = honsai_reward
					value = 1
				}
			}			
		}
	}
	
	Y66_the_retribution = {
		icon = mission_raid_on_iceland
		required_missions = {
			Y66_the_dwarves
		}
		position = 8
		
		provinces_to_highlight = {
			OR = {
				area = sawuladan_area
				area = loratana_area
				area = sirtan_area
			}
			NOT = { owned_by = Y76 }
		}
			
		trigger = {
			sawuladan_area = {
				type = all
				owned_by = Y76
			}
			loratana_area = {
				type = all
				owned_by = Y76
			}
			sirtan_area = {
				type = all
				owned_by = Y76
			}
		}
		effect = {
			Y76 = {
				add_country_modifier = {
					name = honsai_loyal_march_1
					duration = 7300
				}
			}
			define_advisor = {
				type = statesman
				skill = 3
				cost_multiplier = 0.5
			}
			custom_tooltip = honsai_reward_tt
			hidden_effect = {
				change_variable = {            
					which = honsai_reward
					value = 1
				}
			}
		}
	}
	
	Y66_the_vassal_reforms = {
		icon = mission_mnd_dai_examination_system
		required_missions = {
			Y66_the_retribution
		}
		position = 9
		
		provinces_to_highlight = {
			is_capital_of = Y76 
			NOT = { has_courthouse_building_trigger = yes }
		}
		
		trigger = {
			adm_power = 300
			statesman = 3
			num_of_diplomats = 1
			Y76 = {
				capital_scope = {
					has_courthouse_building_trigger = yes
				}
			}
		}
		effect = {
			custom_tooltip = the_vassal_reforms_tt
			hidden_effect = {
				country_event = {
					id = flavor_honsai.22
					days = 1825
				}
			}
			add_country_modifier = {
				name = honsai_diplomatic_mission_1
				duration = -1				
			}
			custom_tooltip = honsai_reward_tt
			hidden_effect = {
				change_variable = {            
					which = honsai_reward
					value = 1
				}
			}
		}
	}

	Y66_the_vassal_act = {
		icon = mission_vedic_education
		required_missions = {
			Y66_the_protector
		}
		position = 11
		trigger = {
			dip_power = 300
			num_of_subjects = 3
		}
		effect = {
			if = {
				limit = {
					government = monarchy
				}
				add_government_reform = honsai_the_commonwealth_mon
			}
			if = {
				limit = {
					government = republic
				}
				add_government_reform = honsai_the_commonwealth_rep
			}
			country_event = {
				id = flavor_honsai.28
				days = 0
			}
		}
	}

	Y66_the_western_welfare_zone = {
		icon = mission_conquer_burma
		required_missions = {
			Y66_the_vassal_act
		}
		position = 12
		trigger = {
			Y58 = { is_subject_of = ROOT }
		}
		effect = {
			lupulan_rainforest_region  = {
				limit = {
					NOT = { is_core = ROOT }
					NOT = { is_core = Y76 }
					NOT = { is_permanent_claim = Y76 }
					NOT = { is_permanent_claim = ROOT }
				}
				add_permanent_claim = Y76
			}
			bomdan_region = {
				limit = {
					NOT = { area = khindi_area }
					NOT = { area = cmor_krueng_area  }
					NOT = { area = lower_telebei_area }
					NOT = { area = reanthung_area }
					NOT = { is_core = ROOT }
					NOT = { is_core = Y58 }
					NOT = { is_permanent_claim = Y58 }
					NOT = { is_permanent_claim = ROOT }
				}
				add_permanent_claim = Y58
			}
			if = {
				limit = { has_country_flag = pruhakin_chosen }
				bomdan_region = {
					limit = {
						OR  ={
							area = khindi_area
							area = cmor_krueng_area
							area = lower_telebei_area
							area = reanthung_area
						}
						NOT = { is_core = ROOT }
						NOT = { is_core = Y53 }
						NOT = { is_permanent_claim = Y53 }
						NOT = { is_permanent_claim = ROOT }
					}
					add_permanent_claim = Y53
				}
			}
			if = {
				limit = { has_country_flag = pinghoi_chosen }
				bomdan_region = {
					limit = {
						OR = {
							area = khindi_area
							area = cmor_krueng_area
							area = lower_telebei_area
							area = reanthung_area
						}
						NOT = { is_core = ROOT }
						NOT = { is_core = Y64 }
						NOT = { is_permanent_claim = Y64 }
						NOT = { is_permanent_claim = ROOT }
					}
					add_permanent_claim = Y64
				}
			}
		}
	}

	Y66_the_jungle_wars = {
		icon = mission_hills_of_gondwana
		required_missions = {
			Y66_the_western_welfare_zone
		}
		position = 13
		
		provinces_to_highlight = {
			region = lupulan_rainforest_region
			NOT = { area = hoangdesinh_area }
			NOT = { area = amkamsek_area }
			NOT = { culture = binhrung}
			NOT = { owned_by = Y76 }
		}

		trigger = {
			lupulan_rainforest_region  = {
				type = all
				OR = {
					AND = {
						OR = {
							area = hoangdesinh_area
							area = amkamsek_area
							culture = binhrung
						}
						country_or_non_sovereign_subject_holds = ROOT
					}
					owned_by = Y76
				}
			}
		}
		effect = {
			custom_tooltip = the_jungle_wars_tt
			hidden_effect = {
				every_owned_province = { 
					limit = {
						OR = {
							culture = bokai
							culture = binhrung
						}
					}
					add_province_modifier = {
						name = honsai_postal_network
						duration = -1
					}
				}
			}
			Y76 = {
				add_country_modifier = {
					name = honsai_hebat_hari_jungle_rule
					duration = -1
				}
			}
		}
	}
}

HonSai_3 = {
	slot = 3
	generic = no
	ai = yes
	has_country_shield = yes
	potential = {
		tag = Y66
	}
	
	Y66_the_internal_strife = {
		icon = mission_the_battle_for_raichur
		position = 1
		trigger = {
			is_at_war = no
		}
		effect = {
			add_country_modifier = {
				name = honsai_recover_from_the_civil_war
				duration = 3650
			}
		}
	}
	
	Y66_the_ghost_congress = {
		icon = mission_unite_the_princes
		required_missions = {
			Y66_the_solemn_oath
			Y66_the_unity
			Y66_the_spirit_network
			Y66_the_anchor_to_reality
		}
		position = 4
		
		provinces_to_highlight = {
			OR = {
				AND = {
					province_id = 4764
					NOT = { has_tax_building_trigger = yes }
					NOT = { religion = righteous_path }
				}
				AND = {
					province_id = 4701
					NOT = { has_trade_building_trigger = yes }
					NOT = { province_has_center_of_trade_of_level = 2 }
				}

			}

		}
		trigger = {
			OR = {
				has_estate_privilege = estate_nobles_supremacy_over_crown
				manpower_percentage = 0.90
			}
			4764 = { #Ma Hoang, starts HP
				has_tax_building_trigger = yes
				religion = righteous_path
			}
			4701 = { #Cay cam sinh
				has_trade_building_trigger = yes
				province_has_center_of_trade_of_level = 2
			}
			has_estate_privilege = estate_mages_patronage_of_the_magical_arts
			any_owned_province = {
				has_building = mage_tower
			}
			has_estate_privilege = estate_adventurers_generous_quest_rewards

			
		}
		effect = {
			country_event = {
				id = flavor_honsai.10 #Ghost Congress
				days = 0
			}
			custom_tooltip = the_ghost_congress_tt
		}
	}

	Y66_the_reborn_kingdom = {
		icon = mission_baihon_xinh_bland
		required_missions = {
			Y66_the_ghost_congress
		}
		position = 5
		trigger = {
			is_at_war = no
			tag = Y97
			Y76 = { is_subject_of = ROOT }
		}
		effect = {
			hinphat_area = {
				limit = {
					NOT = { is_core = ROOT }
					NOT = { is_permanent_claim = ROOT }
					NOT = { province_id = 5424 }
				}
				add_permanent_claim = ROOT
			}
			custom_tooltip = a_kingdom_reborn_tt
			phaktai_area = {
				limit = {
					NOT = { is_core = ROOT }
					NOT = { is_permanent_claim = ROOT }
				}
				add_permanent_claim = ROOT
			}
			custom_tooltip = new_decision_ghostemperor_tt
			set_country_flag = empire_proclamation
		}
	}

	Y66_the_northern_granary = {
		icon = mission_secure_khandesh
		required_missions = {
			Y66_the_reborn_kingdom
		}
		position = 6
		
		provinces_to_highlight = {
			OR = {
				area = hinphat_area
				area = phaktai_area
			}
			NOT = { owned_by = ROOT }
			NOT = { province_id = 5424 }
		}
		
		trigger = {
			phaktai_area = {
				type = all
				owned_by = ROOT
			}
			4942 = { owned_by = ROOT }
			4775 = { owned_by = ROOT }
			4776 = { owned_by = ROOT }
			4759 = { owned_by = ROOT }
		}
		effect = {
			hinphat_area = { 
				limit = {
					NOT = { province_id = 5424 }
				}
				add_nationalism = -5
				add_province_modifier = { 
					name = honsai_accelerated_integration
					duration = 3650 
				} 
			}
			phaktai_area = {
				add_nationalism = -5
				add_province_modifier = { 
					name = honsai_accelerated_integration
					duration = 3650 
				} 
			}
			custom_tooltip = honsai_reward_tt
			hidden_effect = {
				change_variable = {            
					which = honsai_reward
					value = 1
				}
			}
		}
	}
	
	Y66_the_dwarves = {
		icon = mission_oceania_assemble_an_army
		required_missions = {
			Y66_the_northern_granary
		}
		position = 7
		
		provinces_to_highlight = {
			province_id = 4775
			OR = {
				NOT = {
					owner = {
						has_spy_network_in = { 
							who = Y63 
							value = 50 
						}
					}
				}
				NOT = { 
					num_of_units_in_province = {
						who = ROOT
						amount = 20
					}
				}
			}
			NOT = { Y63 = { is_subject_of = ROOT } }
		}
		
		trigger = {
			OR = {
				AND = {
					has_spy_network_in = {
						who = Y63
						value = 50
					}
					4775 = { 
						num_of_units_in_province = {
							who = ROOT
							amount = 20
						}
					}
					army_size = Y63
				}
				Y63 = { is_subject_of = ROOT }
			}
		}
		effect = {
			if = {
				limit = {
					Y63 = { 
						NOT = { 
							is_subject_of = ROOT
						}
					}
				}
				custom_tooltip = the_dwarves_tt
				hidden_effect  = {
					Y63 = {
						country_event = { 
							id = flavor_honsai.12 #pressuring the dwarves
							days = 0
						}
					}
				}			
			}

			else = {
				add_country_modifier = {
					name = honsai_cheap_artillery
					duration = 7300 
				}				
			}
			custom_tooltip = the_dwarves_2_tt
			hidden_effect  = {
				south_haless_superregion = { 
					limit = {
						OR = {
							culture = bokai
							culture = sikai
						}
						NOT = { is_core = ROOT }
						NOT = { is_permanent_claim = ROOT }
					}
					add_permanent_claim = ROOT
				}
			}
			country_event = {
				id = flavor_honsai.21
				days = 0
			}
			custom_tooltip = honsai_reward_tt
			hidden_effect = {
				change_variable = {            
					which = honsai_reward
					value = 1
				}
			}
		}
	}
	
	Y66_the_kai_people = {
		icon = mission_rice_field
		required_missions = {
			Y66_the_dwarves
		}
		position = 8
		
		provinces_to_highlight = {
			OR = {
				AND = {
					region = thidinkai_region
					OR = {
						culture = sikai
						culture = bokai
					}
				}
				AND = {
					region = xianjie_region
					OR = {
						culture = sikai
						culture = bokai
					}
				}
			}
			NOT = { owned_by = ROOT }
		}
		
		trigger = {
			south_haless_superregion = { 
				type = all
				OR = {
					owned_by = ROOT
					NOT = {
						OR = {
							culture = bokai
							culture = sikai
						}
					}
				}
			}
		}
		effect = {
			custom_tooltip = the_kai_people_tt
			hidden_effect = {
				every_owned_province = {
					limit = {
						OR = {
							culture = bokai
							culture = sikai
						}
					}
					add_nationalism = -5
					add_province_modifier = { 
						name = honsai_accelerated_integration
						duration = 3650 
					} 
				}
			}
			custom_tooltip = the_kai_people2_tt
			hidden_effect  = {
				south_haless_superregion = { 
					limit = {
						culture = binhrung
						NOT = { is_core = ROOT }
						NOT = { is_permanent_claim = ROOT }
					}
					add_permanent_claim = ROOT
				}
			}
			custom_tooltip = honsai_reward_tt
			hidden_effect = {
				change_variable = {            
					which = honsai_reward
					value = 1
				}
			}
		}
	}

	Y66_the_binhrung_campaign = {
		icon = mission_rajputana_frontier
		required_missions = {
			Y66_the_kai_people
		}
		position = 9
		
		provinces_to_highlight = {
			OR = {
				AND = {
					region = thidinkai_region
					culture = binhrung
				}
				AND = {
					region = lupulan_rainforest_region
					culture = binhrung
					}
				}
			NOT = { owned_by = ROOT }
			}
			
		trigger = {
			south_haless_superregion = { 
				type = all
				OR = {
					owned_by = ROOT
					NOT = { culture = binhrung }
				}
			}
		}
		effect = {
			custom_tooltip = the_binhrung_campaign_tt
			hidden_effect = {
				every_owned_province = {
					limit = {
						culture = binhrung
					}
					add_nationalism = -5
					add_province_modifier = { 
						name = honsai_accelerated_integration
						duration = 3650 
					} 
				}
			}
			custom_tooltip = honsai_reward_tt
			hidden_effect = {
				change_variable = {            
					which = honsai_reward
					value = 1
				}
			}
		}
	}

	Y66_the_protector = {
		icon = mission_baihon_xinh_silver
		required_missions = {
			Y66_the_fate_of_the_gon
			Y66_the_vassal_reforms
			Y66_the_binhrung_campaign
			Y66_the_artillery
			Y66_the_jewel_of_the_south
		}
		position = 10
		trigger = {
			custom_trigger_tooltip = {
				tooltip = the_protector_tt
				NOT = { has_country_flag = honsai_ghostemperor_alive }
			}
			prestige = 90			
		}
		effect = {
			add_country_modifier = {
				name = honsai_the_protector
				duration = 7300
			}
			add_country_modifier = {
				name = honsai_vassal_focus
				duration = -1
			}
			set_government_rank = 3
			remove_country_modifier = honsai_false_empire
		}
	}
	
	Y66_the_ascendency = {
		icon = mission_baihon_xinh_gold
		required_missions = {
			Y66_the_subjugation
			Y66_the_jungle_wars
			Y66_the_economy_reforms
			Y66_the_artificers
		}
		position = 14
		trigger = {
			is_at_war = no
			Y76 = { is_subject_of = ROOT }
			OR = {
				Y58 = { is_subject_of = ROOT }
				Y51 = { is_subject_of = ROOT }
			}
			OR = {
				Y53 = { is_subject_of = ROOT } #pruhakin
				Y64 = { is_subject_of = ROOT } #pinghoi
			}		
		}
		
		effect = {
			country_event = {
				id = flavor_honsai.29
				days = 0
			}
		}
	}
}

HonSai_4 = {
	slot = 4
	generic = no
	ai = yes
	has_country_shield = yes
	potential = {
		tag = Y66
	}
	
	Y66_the_omniopticum = {
		icon = mission_reclaim_dehli
		required_missions = {
			Y66_the_internal_strife
		}
		position = 2
		trigger = {
			adm_power = 150
			treasury = 150
		}
		effect = {
			add_adm_power = -150
			add_treasury = -150
			4703 = { #Tuan Caoban
				add_province_modifier = { 
					name = honsai_working_day_and_night 
					duration = -1
					desc = honsai_working_day_and_night_tt
				} 
			}
		}
	}
	
	Y66_the_spirit_network = {
		icon = mission_mnd_maj_enforce_loyalty
		required_missions = {
			Y66_the_omniopticum
		}
		position = 3
		trigger = {
			num_of_owned_provinces_with = {
				value = 5
				has_tax_building_trigger = yes
			}			
		}
		
		effect = {
			country_event = {
				id = flavor_honsai.7
				days = 0
			}	
		}
	}
	
	Y66_the_fort = {
		icon = mission_mnd_siam_revolution
		required_missions = {
			Y66_the_reborn_kingdom
		}
		position = 6
		
		provinces_to_highlight = {
			province_id = 4698 #Taibo
			OR = {
				NOT = { base_manpower = 8 }
				NOT = { has_fort_building_trigger = yes }
				NOT = { has_manpower_building_trigger = yes }
			}
		}
		
		trigger = {
			treasury = 250
			4698 = { #Taibo
				base_manpower = 8
				has_fort_building_trigger = yes
				has_manpower_building_trigger = yes				
			}
		}
		effect = {
			add_treasury = -250
			4698 = {
				add_building_construction = {
					building = ramparts
					speed = 0.5
					cost = 0
				}	
				add_permanent_province_modifier = {
					name = honsai_fort_taibo_1
					duration = -1
				}
			}
			custom_tooltip = honsai_reward_tt
			hidden_effect = {
				change_variable = {            
					which = honsai_reward
					value = 1
				}
			}
		}
	}
	
	Y66_the_silk_moths = {
		icon = mission_son_own_develop_clothes_and_salt
		required_missions = {
			Y66_the_fort
		}
		provinces_to_highlight = {
			province_id = 4702 #Suronvuag
			OR = {
				NOT = { base_production = 10 }
				NOT = { has_production_building_trigger = yes }
			}
		}
		
		position = 7
		trigger = {
			treasury = 200
			adm_power = 100
			4702 = { #Suronvuag
				base_production = 10
				has_production_building_trigger = yes
			}
		}
		effect = {
			add_treasury = -200
			add_adm_power = -100
			4702 = { #Suronvuag
				change_trade_goods = silk
				add_base_production = 2
			}
			4703 = { #Tuan Caoban
				add_base_production = 2
			}
			4701 = { #Cay Cam Sinh
				add_base_production = 2
			}
			custom_tooltip = honsai_reward_tt
			hidden_effect = {
				change_variable = {            
					which = honsai_reward
					value = 1
				}
			}
		}
	}
	
	Y66_the_army = {
		icon = mission_mnd_dai_control_the_army
		required_missions = {
			Y66_the_silk_moths
		}
		position = 8
		trigger = {
			num_of_owned_provinces_with = {
				value = 10
				has_manpower_building_trigger = yes
			}
			num_of_owned_provinces_with = {
				value = 2
				has_building = farm_estate
			}
			army_size_percentage = 0.75
		}
		effect = {
			custom_tooltip = the_army_tt
			hidden_effect = {
				every_owned_province = { 
					limit = {
						has_manpower_building_trigger = yes
					}
				add_base_manpower = 2
				}
			}
			custom_tooltip = honsai_reward_tt
			hidden_effect = {
				change_variable = {            
					which = honsai_reward
					value = 1
				}
			}
		}
	}
	
	Y66_the_artillery = {
		icon = mission_asian_cannon
		required_missions = {
			Y66_the_army
		}
		position = 9
		trigger = {
			army_professionalism = 0.25
			num_of_artillery = 20
		}
		effect = {
			add_country_modifier = {
				name = honsai_militaryreform_training
				duration = -1
			}
			custom_tooltip = the_arillery_tt
			hidden_effect = {
				country_event = {
					id = flavor_honsai.17 #Armyreform completed
					days = 1825
				}
			}
			custom_tooltip = honsai_reward_tt
			hidden_effect = {
				change_variable = {            
					which = honsai_reward
					value = 1
				}
			}
		}
	}

	Y66_the_post_act = {
		icon = mission_rb_monopolize_the_channel
		required_missions = {
			Y66_the_protector
		}
		position = 11
		
		provinces_to_highlight = {
			province_id = 4764
			OR = {
				NOT = { has_production_building_trigger = yes }
				NOT = { base_production = 15 }
			}
		}
		
		trigger = {
			treasury = 500
			4764 = { #Ma Hoang
				has_production_building_trigger = yes
				base_production = 15
			}
		}
		effect = {
			add_treasury = -500
			custom_tooltip = the_post_act_tt
			hidden_effect = {
				every_owned_province = { 
					limit = {
						OR = {
							culture = gon
							culture = khom
							culture = phonan
							culture = hinphat
						}
					}
					add_province_modifier = {
						name = honsai_postal_network
						duration = -1
					}
				}
			}
			4764 = {
				add_province_modifier = {
					name = honsai_largescale_paper_production
					duration = -1
				}
			}
		}
	}

	Y66_the_great_canal = {
		icon = mission_steer_trade_to_bengal
		required_missions = {
			Y66_the_post_act
		}
		position = 12
		trigger = {
			adm_power = 200
			treasury = 1000
			manpower = 50
		}
		effect = {
			add_adm_power = -200
			add_treasury = -1000
			add_manpower = -50
			4764 = { #Ma Hoang
				add_province_modifier = {
					name = honsai_great_canal_build
					duration = -1
				}
			}
			custom_tooltip = the_great_canal_tt
			hidden_effect = {
				country_event = {
					id = flavor_honsai.30
					days = 3650				
				}
			}			
		}
	}

	Y66_the_economy_reforms = {
		icon = mission_high_income
		required_missions = {
			Y66_the_great_canal
		}
		position = 13
		trigger = {
			treasury = 500
			calc_true_if = {
				custom_trigger_tooltip = {
					tooltip = the_economy_reforms2_tt
					all_known_country = {
						capital_scope = { continent = europe }
						has_opinion = {
							who = ROOT
							value = 100
						}
					}
				}				
				amount = 2
			}
		}
		effect = {
			add_treasury = -500
			add_country_modifier = {
				name = honsai_economy_reorganisation
				duration = -1
			}
			custom_tooltip = the_economy_reforms_tt
			hidden_effect = {
				country_event = {
					id = flavor_honsai.31
					days = 3650				
				}
			}
			
		}
	}
}

HonSai_5 = {
	slot = 5
	generic = no
	ai = yes
	has_country_shield = yes
	potential = {
		tag = Y66
	}
	
	Y66_the_great_survey = {
		icon = mission_sw_torquoise_mining
		required_missions = {
			Y66_the_internal_strife
		}
		position = 2
		
		provinces_to_highlight = {
			OR = {
				AND = {
					province_id = 4704
					NOT = { infantry_in_province = 2 }
				}
				AND = {
					province_id = 4760
					NOT = { infantry_in_province = 2 }
				}
				AND = {
					province_id = 4762
					NOT = { infantry_in_province = 2 }
				}
				AND = {
					province_id = 4763
					NOT = { infantry_in_province = 2 }
				}
				AND = {
					province_id = 5429
					NOT = { infantry_in_province = 2 }
				}
			}
		}
		trigger = {
			treasury = 50
			4704 = { infantry_in_province = 2 } #Santhun (will be the place of the deposit)
			4760 = { infantry_in_province = 2 } #Ananhu Hai
			4762 = { infantry_in_province = 2 } #Honoc Tran
			4763 = { infantry_in_province = 2 } #Hubai Mong
			5429 = { infantry_in_province = 2 } #Keanupho
		}
		effect = {
			add_treasury = -50
			4704 = {
				kill_units = {
					who = ROOT
					type = infantry
					amount = 2
				}
			}
			4760 = {
				kill_units = {
					who = ROOT
					type = infantry
					amount = 2
				}
			}
			4762 = {
				kill_units = {
					who = ROOT
					type = infantry
					amount = 2
				}
			}
			4763 = {
				kill_units = {
					who = ROOT
					type = infantry
					amount = 2
				}
			}
			5429 = {
				kill_units = {
					who = ROOT
					type = infantry
					amount = 2
				}
			}
			country_event = {
				id = flavor_honsai.5 #Damestar in Santhun
				days = 20
			}			
		}
	}
	
	Y66_the_anchor_to_reality = {
		icon = mission_scepter_of_scepters
		required_missions = {
			Y66_the_great_survey
		}
		position = 3
		
		provinces_to_highlight = {
			region = thidinkai_region
			country_or_non_sovereign_subject_holds = ROOT
			trade_goods = damestear
			NOT = { base_production = 8 }
		}
		trigger = {
			treasury = 200
			any_owned_province = { 
				trade_goods = damestear
				base_production = 8	
			}
		}
		effect = {
			add_treasury = -200
			4703 = { #tuan caoban
				add_building_construction = {
					building = mage_tower
					speed = 0.1
					cost = 0
				}
			}
			country_event = {
				id = flavor_honsai.8 #Giving access to the ghostemperor decision menu
				days = 0
			}	
			custom_tooltip = honsai_anchor_to_reality_tt
			custom_tooltip = new_decision_ghostemperor_tt
			set_country_flag = search_for_practitioner
			set_country_flag = search_for_artefact
			set_country_flag = honsai_god_emperor_2
		}
	}

	Y66_the_ghost_epic = {
		icon = mission_subdue_malwa
		required_missions = {
			Y66_the_reborn_kingdom
		}
		position = 6
		trigger = {
			treasury = 250
			dip_power = 100
			artist = 2			
		}
		effect = {
			add_treasury = -250
			add_dip_power = -100
			4703 = {
				add_building_construction = {
					building = university
					speed = 0.2
					cost = 0
				}
			}
			custom_tooltip = honsai_reward_tt
			hidden_effect = {
				change_variable = {            
					which = honsai_reward
					value = 1
				}
			}
		}	
	}
	
	Y66_the_first_dissemination = {
		icon = mission_merchant_of_gujarat
		required_missions = {
			Y66_the_ghost_epic
		}
		position = 7
		trigger = {
			treasury = 250
			num_of_diplomats = 1
			estate_loyalty = {
				estate = estate_adventurers
				loyalty = 50
			}
		}
		
		effect = {
			custom_tooltip = the_first_dissemination_tt
			add_estate_loyalty = {
				estate = estate_adventurers
				loyalty = -20
			}
			add_country_modifier = {
				name = honsai_diplomatic_mission_2
				duration = -1
			}
			hidden_effect = {
				country_event = {
					id = flavor_honsai.23
					days = 	1825				
				}
			}
			custom_tooltip = honsai_reward_tt
			hidden_effect = {
				change_variable = {            
					which = honsai_reward
					value = 1
				}
			}
		}
	}
	
	Y66_the_pilgrims = {
		icon = mission_forest_pilgrim
		required_missions = {
			Y66_the_first_dissemination
		}
		position = 8
		provinces_to_highlight = {
			province_id = 4764
			NOT = { has_province_modifier = temple_complex }
		}
		
		trigger = {
			dip_power = 100
			4764 = {
				has_province_modifier = temple_complex
			}
		}
		effect = {
			add_dip_power = -100
			hidden_effect = { 
				country_event = {
					id = flavor_honsai.24
					days = 0
				}
			}
			4764 = {
				add_base_tax = 5
				add_province_modifier = {
					name = honsai_influx_of_pilgrims	
					duration = 3650
				}
			}
			custom_tooltip = honsai_reward_tt
			hidden_effect = {
				change_variable = {            
					which = honsai_reward
					value = 1
				}
			}
		}
	}
	
	Y66_the_jewel_of_the_south = {
		icon = mission_city_of_victory_bah
		required_missions = {
			Y66_the_pilgrims
		}
		position = 9
		
		provinces_to_highlight = {
			province_id = 4703
			OR = {
				NOT = { development = 60 }
				NOT = { has_tax_building_trigger = yes }
				NOT = { has_courthouse_building_trigger = yes }
				NOT = { has_production_building_trigger = yes }
				NOT = { has_manpower_building_trigger = yes }
			}
		}
		
		trigger = {
			4703 = { #Tuan Caoban
				development = 60
				has_tax_building_trigger = yes
				has_courthouse_building_trigger = yes
				has_production_building_trigger = yes
				has_manpower_building_trigger = yes
			}
		}
		effect = {
			4703 = {
				add_province_modifier = {
					name = honsai_jewel_of_the_south
					duration = -1
				}
				center_of_trade = 2
			}
			custom_tooltip = honsai_reward_tt
			hidden_effect = {
				change_variable = {            
					which = honsai_reward
					value = 1
				}
			}			
		}
	}
	
	Y66_the_tolerance_act = {
		icon = mission_writing_book
		required_missions = {
			Y66_the_protector
		}
		position = 11
		trigger = {
			full_idea_group = humanist_ideas
		}
		effect = {
			add_country_modifier = {
				name = honsai_tolerant_state
				duration = -1
			}	
			define_advisor = {
				type = artist
				skill = 3
				cost_multiplier = 0.5
			}
		}
	}
	
	Y66_the_second_dissemination = {
		icon = mission_establish_high_seas_navy
		required_missions = {
			Y66_the_tolerance_act
		}
		position = 12
		trigger = {
			artist = 3
			treasury = 1000
			num_of_owned_provinces_with = {
				value = 5
				has_building = university
			}
			num_of_diplomats = 2
		}
		effect = {
			country_event = {
				id = flavor_honsai.32
				days = 0				
			}
		}
	}
	
	Y66_the_artificers = {
		icon = mission_runeforged_cannons
		required_missions = {
			Y66_the_second_dissemination
		}
		position = 13
		trigger = {
			treasury = 1000
			4703 = { #Tuan Caoban
				OR = {
					has_coexisting_gnomish_minority_trigger = yes
					has_integrated_gnomish_minority_trigger = yes
				}
			}
			has_estate = estate_artificers
			precursor_relics = 1
			any_known_country = { 
				precursor_relics = 1
				has_opinion = {
					who = ROOT
					value = 100
				}
			}
		}
		effect = {
			add_treasury = -1000
			country_event = {
				id = flavor_honsai.34
				days = 0				
			}			
		}
	}
}
