defined_text = {
	name = YnnRiverWorshipReform1
	random = no
	
	text = {
		localisation_key = ynn_river_worship_reform_1_0_tt
		trigger = {
			NOT = {
				has_country_flag = yrw_1a
				has_country_flag = yrw_1b
				has_country_flag = yrw_1a_reform
				has_country_flag = yrw_1b_reform
			}
		}
	}

	text = {
		localisation_key = ynn_river_worship_reform_1a_tt
		trigger = {
			has_country_flag = yrw_1a
		}
	}

	text = {
		localisation_key = ynn_river_worship_reform_1b_tt
		trigger = {
			has_country_flag = yrw_1b
		}
	}

	text = {
		localisation_key = ynn_river_worship_reform_1a_modifier_tt
		trigger = { has_country_flag = yrw_1a_reform }
	}

	text = {
		localisation_key = ynn_river_worship_reform_1b_modifier_tt
		trigger = { has_country_flag = yrw_1b_reform }
	}
}

defined_text = {
	name = YnnRiverWorshipReform2
	random = no
	
	text = {
		localisation_key = ynn_river_worship_reform_2_0_tt
		trigger = {
			NOT = {
				has_country_flag = yrw_2a
				has_country_flag = yrw_2b
				has_country_flag = yrw_2a_reform
				has_country_flag = yrw_2b_reform
			}
		}
	}

	text = {
		localisation_key = ynn_river_worship_reform_2a_tt
		trigger = {
			has_country_flag = yrw_2a
		}
	}

	text = {
		localisation_key = ynn_river_worship_reform_2b_tt
		trigger = {
			has_country_flag = yrw_2b
		}
	}

	text = {
		localisation_key = ynn_river_worship_reform_2a_modifier_tt
		trigger = { has_country_flag = yrw_2a_reform }
	}

	text = {
		localisation_key = ynn_river_worship_reform_2b_modifier_tt
		trigger = { has_country_flag = yrw_2b_reform }
	}
}

defined_text = {
	name = YnnRiverWorshipReform3
	random = no
	
	text = {
		localisation_key = ynn_river_worship_reform_3_0_tt
		trigger = {
			NOT = {
				has_country_flag = yrw_3a
				has_country_flag = yrw_3b
				has_country_flag = yrw_3a_reform
				has_country_flag = yrw_3b_reform
			}
		}
	}

	text = {
		localisation_key = ynn_river_worship_reform_3a_tt
		trigger = {
			has_country_flag = yrw_3a
		}
	}

	text = {
		localisation_key = ynn_river_worship_reform_3b_tt
		trigger = {
			has_country_flag = yrw_3b
		}
	}

	text = {
		localisation_key = ynn_river_worship_reform_3a_modifier_tt
		trigger = { has_country_flag = yrw_3a_reform }
	}

	text = {
		localisation_key = ynn_river_worship_reform_3b_modifier_tt
		trigger = { has_country_flag = yrw_3b_reform }
	}
}

defined_text = {
	name = YnnRiverWorshipReform4
	random = no
	
	text = {
		localisation_key = ynn_river_worship_reform_4_0_tt
		trigger = {
			NOT = {
				has_country_flag = yrw_4a
				has_country_flag = yrw_4b
				has_country_flag = yrw_4a_reform
				has_country_flag = yrw_4b_reform
			}
		}
	}

	text = {
		localisation_key = ynn_river_worship_reform_4a_tt
		trigger = {
			has_country_flag = yrw_4a
		}
	}

	text = {
		localisation_key = ynn_river_worship_reform_4b_tt
		trigger = {
			has_country_flag = yrw_4b
		}
	}

	text = {
		localisation_key = ynn_river_worship_reform_4a_modifier_tt
		trigger = { has_country_flag = yrw_4a_reform }
	}

	text = {
		localisation_key = ynn_river_worship_reform_4b_modifier_tt
		trigger = { has_country_flag = yrw_4b_reform }
	}
}

defined_text = {
	name = YnnRiverWorshipReformTooltip
	random = no
	
	text = {
		localisation_key = ynn_river_worship_debate_start_tt
		trigger = {
			NOT = {
				has_country_flag = yrw_debate_1
				has_country_flag = yrw_debate_2
				has_country_flag = yrw_debate_3
				has_country_flag = yrw_debate_4
				has_country_flag = yrw_solo_debate
			}
		}
	}

	text = {
		localisation_key = ynn_river_worship_debate_end_tt
		trigger = {
			OR = {
				has_country_flag = yrw_debate_1
				has_country_flag = yrw_debate_2
				has_country_flag = yrw_debate_3
				has_country_flag = yrw_debate_4
				has_country_flag = yrw_solo_debate
			}
		}
	}
}

defined_text = {
	name = YnnDebate10Bloc0
	random = no
	
	text = {
		localisation_key = YnnDebate10Bloc0_1
		trigger = {
			NOT = {
				has_country_modifier = yrw_1a
				has_country_modifier = yrw_1b
			}
		}
	}

	text = {
		localisation_key = YnnDebate10Bloc0_2
		trigger = {
			has_country_modifier = yrw_1a
		}
	}

	text = {
		localisation_key = YnnDebate10Bloc0_3
		trigger = {
			has_country_modifier = yrw_1b
		}
	}
}

defined_text = {
	name = YnnDebate10Bloc1
	random = no
	
	text = {
		localisation_key = YnnDebate10Bloc1_1
		trigger = {
			NOT = {
				has_country_modifier = yrw_3a
				has_country_modifier = yrw_3b
			}
		}
	}

	text = {
		localisation_key = YnnDebate10Bloc1_2
		trigger = {
			has_country_modifier = yrw_3a
		}
	}

	text = {
		localisation_key = YnnDebate10Bloc1_3
		trigger = {
			has_country_modifier = yrw_3b
		}
	}
}

defined_text = {
	name = YnnDebate10Bloc2
	random = no
	
	text = {
		localisation_key = YnnDebate10Bloc2_1
		trigger = {
			NOT = {
				has_country_modifier = yrw_2a
				has_country_modifier = yrw_2b
			}
		}
	}

	text = {
		localisation_key = YnnDebate10Bloc2_2
		trigger = {
			has_country_modifier = yrw_2a
		}
	}

	text = {
		localisation_key = YnnDebate10Bloc2_3
		trigger = {
			has_country_modifier = yrw_2b
		}
	}
}

defined_text = {
	name = YnnDebate10Bloc3
	random = no
	
	text = {
		localisation_key = YnnDebate10Bloc3_1
		trigger = {
			NOT = {
				has_country_modifier = yrw_4a
				has_country_modifier = yrw_4b
			}
		}
	}

	text = {
		localisation_key = YnnDebate10Bloc3_2
		trigger = {
			has_country_modifier = yrw_4a
		}
	}

	text = {
		localisation_key = YnnDebate10Bloc3_3
		trigger = {
			has_country_modifier = yrw_4b
		}
	}
}

defined_text = {
	name = Arverynn8Bloc0
	random = no
	
	text = {
		localisation_key = Arverynn8Bloc0_1
		trigger = {
			NOT = { yrw_has_settled_first_debate_we_embrace = yes }
		}
	}

	text = {
		localisation_key = Arverynn8Bloc0_2
		trigger = {
			yrw_has_settled_first_debate_we_embrace = yes
		}
	}
}

defined_text = {
	name = Arverynn8Bloc1
	random = no
	
	text = {
		localisation_key = Arverynn8Bloc1_1
		trigger = {
			NOT = { 
				yrw_has_settled_first_debate_we_embrace = yes
				yrw_has_settled_first_debate_we_alone = yes
			}
		}
	}

	text = {
		localisation_key = Arverynn8Bloc1_2
		trigger = {
			yrw_has_settled_first_debate_we_embrace = yes
		}
	}

	text = {
		localisation_key = Arverynn8Bloc1_3
		trigger = {
			yrw_has_settled_first_debate_we_alone = yes
		}
	}
}

defined_text = {
	name = Arverynn22Bloc0
	random = no
	
	text = {
		localisation_key = Arverynn22Bloc0_1
		trigger = {
			mil = 3
		}
	}

	text = {
		localisation_key = Arverynn22Bloc0_2
		trigger = {
			NOT = { mil = 3 }
		}
	}
}

defined_text = {
	name = Arverynn18Bloc0
	random = no
	
	text = {
		localisation_key = Arverynn18Bloc0_1
		trigger = {
			yrw_has_settled_first_debate_we_embrace = yes
		}
	}

	text = {
		localisation_key = Arverynn18Bloc0_2
		trigger = {
			NOT = { 
				yrw_has_settled_first_debate_we_embrace = yes 
				yrw_has_settled_first_debate_we_alone = yes
			}
		}
	}

	text = {
		localisation_key = Arverynn18Bloc0_3
		trigger = {
			yrw_has_settled_first_debate_we_alone = yes
		}
	}
}

defined_text = {
	name = Arverynn22Bloc1
	random = no
	
	text = {
		localisation_key = Arverynn22Bloc1_1
		trigger = {
			yrw_has_settled_first_debate_we_embrace = yes
		}
	}

	text = {
		localisation_key = Arverynn22Bloc1_2
		trigger = {
			NOT = { yrw_has_settled_first_debate_we_embrace = yes }
		}
	}
}

#Mentioning the cause for the fall of the Ynnic Empire when restoring it
defined_text = {
	name = YnnicEmpire1Bloc1
	random = no
	
	text = {
		localisation_key = YnnicEmpire1Bloc1_1
		trigger = {
			NOT = {
				has_country_modifier = yrw_2a
				has_country_modifier = yrw_2b
			}
		}
	}
	
	text = {
		localisation_key = YnnicEmpire1Bloc1_2
		trigger = {
			has_country_modifier = yrw_2a
		}
	}

	text = {
		localisation_key = YnnicEmpire1Bloc1_3
		trigger = {
			has_country_modifier = yrw_2b
		}
	}
}

defined_text = {
	name = YnnicEmpire2Bloc1
	random = no
	
	text = {
		localisation_key = YnnicEmpire2Bloc1_1
		trigger = {
			NOT = {
				has_country_modifier = yrw_2a
				has_country_modifier = yrw_2b
			}
		}
	}
	
	text = {
		localisation_key = YnnicEmpire2Bloc1_2
		trigger = {
			has_country_modifier = yrw_2a
		}
	}

	text = {
		localisation_key = YnnicEmpire2Bloc1_3
		trigger = {
			has_country_modifier = yrw_2b
		}
	}
}

defined_text = {
	name = YnnicEmpire2Bloc2
	random = no
	
	text = {
		localisation_key = YnnicEmpire2Bloc2_1
		trigger = {
			NOT = {
				has_country_modifier = yrw_2a
				has_country_modifier = yrw_2b
			}
		}
	}
	
	text = {
		localisation_key = YnnicEmpire2Bloc2_2
		trigger = {
			has_country_modifier = yrw_2a
		}
	}

	text = {
		localisation_key = YnnicEmpire2Bloc2_3
		trigger = {
			has_country_modifier = yrw_2b
		}
	}
}
