
country_decisions = {
	expedition_menu = {
		major = yes
		potential = {
			REB = { check_variable = { nbExpedition = 1 } }
			capital_scope = { continent = serpentspine }
			NOT = { has_country_flag = debug_menu }
		}
		
		provinces_to_highlight = {
			has_province_modifier = expedition_target
			owned_by = ROOT
		}
		
		allow = {
			custom_trigger_tooltip = {
				tooltip = no_expedition_happening
				NOT = { has_country_flag = expedition_happening }
			}
			any_owned_province = {
				is_city = yes
				OR = {
					has_province_modifier = expedition_target
					AND = {
						custom_trigger_tooltip = {
							tooltip = has_explorable_dungeon_tooltip
							has_province_flag = explorable_dungeon
						}
						custom_trigger_tooltip = {
							tooltip = dungeon_floor_builded_tooltip
							NOT = { has_province_flag = floor_explored }
						}
					}
				}
				owned_by = ROOT
				controlled_by = ROOT
				custom_trigger_tooltip = {
					tooltip = no_expedition_happening
					NOT = { has_province_flag = sent_expedition_@ROOT }
				}
			}
		}
		
		effect = {
			country_event = { id = diggy_expedition.1 }
			hidden_effect = { set_country_flag = debug_menu }
		}
		
		ai_will_do = {
			factor = 100
			modifier = {
				factor = 0
				has_reform = dwarovar_adventurer_reform
				adm_tech = 7
				hold_province = { owned_by = ROOT }
			}
		}
	}
	
	expedition_party = {
		major = yes
		potential = {
			capital_scope = { continent = serpentspine }
			NOT = { has_country_flag = debug_menu }
			has_country_flag = expedition_happening
			any_owned_province = {
				has_province_flag = sent_expedition_@ROOT
				NOT = {
					AND = {
						owner = { ai = yes }
						has_province_flag = generated_party_stats_@ROOT
					}
				}
			}
		}
		
		provinces_to_highlight = {
			has_province_flag = sent_expedition_@ROOT
		}
		
		allow = {
			always = yes
		}
		
		effect = {
			if = {
				limit = { ai = no }
				custom_tooltip = expedition_party_decision_tooltip
				hidden_effect = {
					random_owned_province = {
						limit = { has_province_flag = sent_expedition_@ROOT }
						province_event = { id = diggy_expedition.3 }
					}
				}
				hidden_effect = { set_country_flag = debug_menu }
			}
			else = {
				random_owned_province = {
					limit = { has_province_flag = sent_expedition_@ROOT }
					province_event = { id = diggy_expedition.1500 }
				}
			}
		}
		
		ai_will_do = {
			factor = 100
		}
	}
}
