
country_decisions = {
	osc_centralization_decision = {
		potential = {
			religion = old_bulwari_sun_cult
			culture_group = bulwari
			NOT = { has_country_flag = osc_centralization_started }
			NOT = { has_country_flag = osc_centralization_completed }
		}

		major = yes
		
		provinces_to_highlight = {
			OR = {
				province_id = 601 #Bulwar
				province_id = 631 #Eduz-Vacyn
				province_id = 643 #Azka-Sur
				province_id = 5434 #Azka-szel-Udam
				province_id = 522 #Azka-szel-Azka
			}
			NOT = { owned_by = ROOT }
		}

		allow = {
			is_at_war = no
			is_subject = no
			stability = 2
			601 = { #Bulwar
				owned_by = root
				religion = old_bulwari_sun_cult
			}
			631 = { #Eduz-Vacyn
				owned_by = root
				religion = old_bulwari_sun_cult
			}
			643 = { #Azka-Sur
				owned_by = root
				religion = old_bulwari_sun_cult
			}
			
			OR = {
				5434 = { #Azka-szel-Udam
					owned_by = root
					religion = old_bulwari_sun_cult
				}
				522 = { #Azka-szel-Azka
					owned_by = root
					religion = old_bulwari_sun_cult
				}
			}
		}

		effect = {
			custom_tooltip = osc_centralization_started_tooltip
			set_country_flag = osc_centralization_started
			country_event = { id = bulwar_flavour.44 days = 365 }
		}
		
		ai_will_do = {
			factor = 1
		}
	}
}
