  

#Country Name: Please see filename.

graphical_culture = asiangfx

color = { 136  165  164 }

historical_idea_groups = {
	economic_ideas
	offensive_ideas
	influence_ideas
	defensive_ideas	
	administrative_ideas	
	trade_ideas
	quality_ideas
	innovativeness_ideas
}

historical_units = {
	raheni_1_dhujati_riders
	raheni_1_raheni_footsoldier
	raheni_5_nadimraj_infantry
	raheni_6_nadimraj_cavalry
	raheni_9_reformed_nadimraj_infantry
	raheni_10_stampede_cavalry
	raheni_12_khedarid_infantry
	raheni_14_ghavaanaj_elephant_lords
	raheni_19_ghankedhen_musketeers
	raheni_18_reformed_ghavaanaj_elephant_lords
	raheni_23_nadimraj_musketeers
	raheni_23_raheni_dragoons
	raheni_26_raheni_rifle
	raheni_28_elephant_cannons
	raheni_30_nadimraj_rifles
}
monarch_names = {

	#Generic Bom Name List
	"Adit #0" = 20
	"Aek #0" = 20
	"Atik #0" = 20
	"Bonroeun #0" = 20
	"Boran #0" = 20
	"Borey #0" = 20
	"Chak #0" = 20
	"Chakroval #0" = 20
	"Chandarith #0" = 20
	"Cheevoan #0" = 20
	"Chomnan #0" = 20
	"Darany #0" = 20
	"Haing #0" = 20
	"Heng #0" = 20
	"Kakada #0" = 20
	"Keo #0" = 20
	"Monorom #0" = 20
	"Mungkol #0" = 20
	"Naen #0" = 20
	"Oudom #0" = 20
	"Pachem #0" = 20
	"Phala #0" = 20
	"Pheakdei #0" = 20
	"Pros #0" = 20
	"Puthyrith #0" = 20
	"Rachana #0" = 20
	"Ranarith #0" = 20
	"Rangsey #0" = 20
	"Ritheak #0" = 20
	"Rithipol #0" = 20
	"Saenthy #0" = 20
	"Samay #0" = 20
	"Sambath #0" = 20
	"Sao #0" = 20
	"Savey #0" = 20
	"Sihamoni #0" = 20
	"Sithik #0" = 20
	"Sokha #0" = 20
	"Somsuon #0" = 20
	"Sunchong #0" = 20
	"Thol #0" = 20
	"Vichear #0" = 20
	"Vireak #0" = 20
	"Visal #0" = 20
	"Visoth #0" = 20
	"Vithu #0" = 20
	"Vuthy #0" = 20
	"Youk #0" = 20
	

	"Aek #0" = -1
	"Ampho #0" = -1
	"Angkea #0" = -1
	"Arunny #0" = -1
	"Boramey #0" = -1
	"Bormey #0" = -1
	"Champei #0" = -1
	"Chann #0" = -1
	"Chantha #0" = -1
	"Chanthou #0" = -1
	"Chanvatey #0" = -1
	"Chivy #0" = -1
	"Chompei #0" = -1
	"Chulsa #0" = -1
	"Doungchevan #0" = -1
	"Doungdara #0" = -1
	"Jorani #0" = -1
	"Kagna #0" = -1
	"Kakada #0" = -1
	"Kanika #0" = -1
	"Kenorei #0" = -1
	"Kep #0" = -1
	"Kosal #0" = -1
	"Leng #0" = -1
	"Malis #0" = -1
	"Meakha #0" = -1
	"Minea #0" = -1
	"Netra #0" = -1
	"Omreth #0" = -1
	"Phary #0" = -1
	"Pheakdei #0" = -1
	"Pheup #0" = -1
	"Punthea #0" = -1
	"Rachany #0" = -1
	"Raksmei #0" = -1
	"Rathana #0" = -1
	"Saart #0" = -1
	"Sarika #0" = -1
	"Seda #0" = -1
	"Soben #0" = -1
	"Sorpheny #0" = -1
	"Sourkea #0" = -1
	"Trikah #0" = -1
	
}

leader_names = {
	#Country Specific
	
	#Province Neighbours


	#Country Neighbours
	
	#Geographic Neighbours
	"of Rahen" "of Thidinkai" "of Bomdan" "of the Kharunyana"
	
	#Noble Families

	
	#Generic Khmer and Lan Xang Surnames
	Abhay
	Baravon
	Boupha
	Champassak
	Chounlamany
	Chounramany
	Insisiengmay
	Keola
	Kommadam
	Luangviset
	Nosavan
	Pathammavong
	Phetrasy
	Phimmasone
	Phomvihan
	Phouma
	Phoumsovan
	Rattanasamay
	Sananikoe
	Sasorit
	Soukbandit
	Souksomboun
	Sounthone
	Thammavongsa
	Vathanatham
	Vatthana
	Vichit
	Vongkhamkeaw
	Vongprachan
	Vongsak
	Vongvicht
	Vongsawat
	Voravong
	Ann Bopha Chak Charny Chea Chhay Chhoub Chim Choeun Chop Dara
	Daro Em Heang Hout Houy Hoy Huy In khai Khan Khlot Khoeun Khoun
	khun Khuth Lim Lorn Loun Mak Meang Meas Meng Mok Mon Moul Nak Nam
	Nary Neak Nimol Norodom Noung Nourn Nout Oeun On Or Ou Ouk Pang
	Pen Phann Phaul Pheng Phon Pichenda Prak Preap Prum Rangsey
	Rath Rithy Rous Saluk Sam San Samphan Sarith Sary Sem Sen Sim
	Sin Sivorn Soch Sok Sokal Som Sorm Sun Thith Thong Thy Touch Tum
	Van Vanneth Vichea Voeum Vuthy Vy
	
	#Titles
	"" "'the Tall'" "'the Younger'" "'the Clever'" "'the Vigilant'" "'the Stern'" "'the Mighty'" "'Halfblood'" "'the Mudblooded'" "'the Kind'" "'the Able'" "'the Good'" "'the Fat'"
}

ship_names = {
	#Generic Halessi
	Venerable Honourable Dragon Tiger Sky Mountain Heaven Water Earth Fire Air Avatar Wind Sea Ocean Cloud Chi Yin Yang
	Eunuch Ox Rain Monsoon Forest Ape Elephant Tusk Claw Fang Paw Stripe Hunter 
	Auspicious Heavenly Jade Phoenix Hero Warrior Blade Sword Majestic Oni Shark Defiance Courage Captain Panther Hawk Panda
	Rooster Dog Pig Rat Rabbit Snake Goat Monkey
	Sovereign Emperor Survey Surveillance Vanguard Veteran Virtue Cherry Blossom Oath
	Righteous Mystery Sacred Shrine Sunlight Sunrise Sunset 

	Strength Dexterity Constitution Intelligence Wisdom Charisma
	
}

army_names = {
	"Teleni Army" "Army of $PROVINCE$"
}

fleet_names = {
	"Teleni Fleet"
   
}